#define noname_width 40
#define noname_height 13
static char noname_bits[] = {
 0x00,0x00,0x60,0x00,0x00,0x00,0x00,0x78,0x00,0x00,0x00,0x00,0x1c,0x00,0x00,
 0x7c,0x00,0x07,0xc0,0x79,0xf2,0xc0,0x01,0x40,0xe9,0x5a,0xc0,0x03,0xe0,0xcd,
 0x18,0x00,0x07,0x80,0x4d,0x58,0x00,0x1c,0x80,0x4c,0x4b,0x00,0x70,0x80,0x6c,
 0x7f,0x00,0x40,0x80,0x3f,0x00,0x00,0x00,0x00,0x00,0x00,0xc0,0x7f,0x00,0x00,
 0x00,0xc0,0x7f,0x00,0x00};
