#define noname_width 50
#define noname_height 13
static char noname_bits[] = {
 0x00,0x00,0x00,0x00,0x0c,0x00,0x00,0x00,0x00,0x00,0x00,0x0f,0x00,0x00,0x00,
 0x00,0x00,0x80,0x03,0x00,0x00,0x00,0x70,0x1e,0xe0,0x00,0xf0,0x01,0x00,0x50,
 0x3a,0x38,0x00,0xc8,0x03,0x00,0x78,0x33,0x78,0x00,0x68,0x01,0xff,0x61,0x13,
 0xe0,0x00,0x60,0x00,0x00,0x20,0x13,0x80,0x03,0x60,0x01,0x00,0x20,0x1b,0x00,
 0x0e,0x2c,0x01,0x00,0xe0,0x0f,0x00,0x08,0xfc,0x01,0x00,0x00,0x00,0x00,0x00,
 0x00,0x00,0x00,0x00,0x00,0xf8,0x0f,0x00,0x00,0x00,0x00,0x00,0xf8,0x0f,0x00,
 0x00};
