#define noname_width 66
#define noname_height 16
static char noname_bits[] = {
 0x08,0x00,0x00,0x00,0x00,0x00,0x00,0x40,0x00,0x0c,0x00,0x00,0x00,0x00,0x00,
 0x00,0x80,0x00,0x04,0x00,0x00,0x00,0x00,0x00,0x00,0x80,0x01,0x06,0x00,0x00,
 0x00,0x00,0x00,0x00,0x00,0x03,0x02,0x00,0x00,0x00,0x00,0x00,0x00,0x00,0x03,
 0x82,0x0f,0xc0,0x19,0xc0,0x05,0x70,0x1e,0x02,0x43,0x1e,0xc0,0x09,0xc0,0x07,
 0x50,0x3a,0x02,0x43,0x0b,0xe0,0x0d,0x00,0x03,0x78,0x33,0x02,0x03,0x03,0xc0,
 0x0c,0x80,0x01,0x60,0x13,0x02,0x03,0x0b,0xc0,0x0c,0xc0,0x04,0x20,0x13,0x02,
 0x63,0x89,0xc1,0xc4,0xe0,0x62,0x20,0x1b,0x02,0xe2,0x8f,0xc1,0xc7,0xf0,0x63,
 0xe0,0x0f,0x03,0x06,0x00,0x01,0x86,0x00,0x40,0x00,0x00,0x03,0x06,0x00,0x61,
 0x83,0x00,0x40,0x00,0x00,0x01,0x0c,0x80,0xe1,0xc3,0x00,0x60,0x00,0x80,0x01,
 0x08,0x00,0x00,0x00,0x00,0x00,0x00,0xc0,0x00};
