#define noname_width 41
#define noname_height 15
static char noname_bits[] = {
 0x08,0x00,0x00,0x00,0x20,0x00,0x04,0x00,0x00,0x00,0x40,0x00,0xc6,0x01,0x3c,
 0x80,0xc3,0x00,0xc2,0x01,0x64,0x80,0x83,0x00,0x83,0x01,0x66,0x00,0x83,0x01,
 0x83,0x01,0x66,0x00,0x83,0x01,0x83,0x01,0x66,0x00,0x83,0x01,0x83,0x01,0x66,
 0x00,0x83,0x01,0x83,0x01,0x66,0x00,0x83,0x01,0x83,0x11,0x64,0x02,0x83,0x01,
 0xc3,0x37,0x3c,0x86,0x8f,0x01,0x02,0x20,0x18,0x04,0x80,0x00,0x06,0x30,0x00,
 0x06,0xc0,0x00,0x06,0x10,0x00,0x02,0xc0,0x00,0x0c,0x00,0x00,0x00,0x60,0x00};
