#define noname_width 91
#define noname_height 11
static char noname_bits[] = {
 0xf8,0x01,0x00,0x08,0x40,0x00,0x00,0x00,0x40,0x00,0x83,0x01,0x30,0x03,0x00,
 0x0c,0x60,0x00,0x00,0x00,0x70,0x80,0xcd,0x06,0x18,0x03,0x00,0x00,0x00,0x00,
 0x00,0x00,0x40,0xc0,0xed,0x06,0x18,0x03,0x00,0x00,0x00,0x00,0x00,0x00,0x40,
 0xc0,0xe9,0x04,0x98,0xe3,0x5c,0x8e,0x77,0xbc,0x1f,0x30,0x40,0x00,0x0c,0x06,
 0xf8,0xb0,0x5f,0xcf,0x7e,0xe6,0x1b,0x30,0x40,0x00,0x0c,0x06,0x8c,0xf9,0x4c,
 0xc6,0x33,0xe3,0x19,0x00,0x40,0x00,0x06,0x03,0x8c,0x19,0x4c,0xc6,0x37,0xb3,
 0x19,0x00,0x40,0x00,0x8b,0x05,0x8c,0x9d,0x6d,0x6e,0x72,0xb3,0x2d,0x30,0x40,
 0x98,0xc9,0x04,0x9f,0xf3,0x3c,0xee,0x73,0x9e,0x1d,0x30,0xf0,0xd9,0xef,0x07,
 0x00,0x03,0x00,0x00,0x00,0x00,0x00,0x00,0x00,0x00,0x00,0x00};
