%!PS-Adobe-3.0
%%Creator: Windows PSCRIPT
%%Title: XL.XLS
%%BoundingBox: 18 9 593 784
%%DocumentNeededResources: (atend)
%%DocumentSuppliedResources: (atend)
%%Pages: (atend)
%%BeginResource: procset Win35Dict 3 1
/Win35Dict 290 dict def Win35Dict begin/bd{bind def}bind def/in{72
mul}bd/ed{exch def}bd/ld{load def}bd/tr/translate ld/gs/gsave ld/gr
/grestore ld/M/moveto ld/L/lineto ld/rmt/rmoveto ld/rlt/rlineto ld
/rct/rcurveto ld/st/stroke ld/n/newpath ld/sm/setmatrix ld/cm/currentmatrix
ld/cp/closepath ld/ARC/arcn ld/TR{65536 div}bd/lj/setlinejoin ld/lc
/setlinecap ld/ml/setmiterlimit ld/sl/setlinewidth ld/scignore false
def/sc{scignore{pop pop pop}{0 index 2 index eq 2 index 4 index eq
and{pop pop 255 div setgray}{3{255 div 3 1 roll}repeat setrgbcolor}ifelse}ifelse}bd
/FC{bR bG bB sc}bd/fC{/bB ed/bG ed/bR ed}bd/HC{hR hG hB sc}bd/hC{
/hB ed/hG ed/hR ed}bd/PC{pR pG pB sc}bd/pC{/pB ed/pG ed/pR ed}bd/sM
matrix def/PenW 1 def/iPen 5 def/mxF matrix def/mxE matrix def/mxUE
matrix def/mxUF matrix def/fBE false def/iDevRes 72 0 matrix defaultmatrix
dtransform dup mul exch dup mul add sqrt def/fPP false def/SS{fPP{
/SV save def}{gs}ifelse}bd/RS{fPP{SV restore}{gr}ifelse}bd/EJ{gsave
showpage grestore}bd/#C{userdict begin/#copies ed end}bd/FEbuf 2 string
def/FEglyph(G  )def/FE{1 exch{dup 16 FEbuf cvrs FEglyph exch 1 exch
putinterval 1 index exch FEglyph cvn put}for}bd/SM{/iRes ed/cyP ed
/cxPg ed/cyM ed/cxM ed 72 100 div dup scale dup 0 ne{90 eq{cyM exch
0 eq{cxM exch tr -90 rotate -1 1 scale}{cxM cxPg add exch tr +90 rotate}ifelse}{cyP
cyM sub exch 0 ne{cxM exch tr -90 rotate}{cxM cxPg add exch tr -90
rotate 1 -1 scale}ifelse}ifelse}{pop cyP cyM sub exch 0 ne{cxM cxPg
add exch tr 180 rotate}{cxM exch tr 1 -1 scale}ifelse}ifelse 100 iRes
div dup scale 0 0 transform .25 add round .25 sub exch .25 add round
.25 sub exch itransform translate}bd/SJ{1 index 0 eq{pop pop/fBE false
def}{1 index/Break ed div/dxBreak ed/fBE true def}ifelse}bd/ANSIVec[
16#0/grave 16#1/acute 16#2/circumflex 16#3/tilde 16#4/macron 16#5/breve
16#6/dotaccent 16#7/dieresis 16#8/ring 16#9/cedilla 16#A/hungarumlaut
16#B/ogonek 16#C/caron 16#D/dotlessi 16#27/quotesingle 16#60/grave
16#7C/bar 16#82/quotesinglbase 16#83/florin 16#84/quotedblbase 16#85
/ellipsis 16#86/dagger 16#87/daggerdbl 16#88/circumflex 16#89/perthousand
16#8A/Scaron 16#8B/guilsinglleft 16#8C/OE 16#91/quoteleft 16#92/quoteright
16#93/quotedblleft 16#94/quotedblright 16#95/bullet 16#96/endash 16#97
/emdash 16#98/tilde 16#99/trademark 16#9A/scaron 16#9B/guilsinglright
16#9C/oe 16#9F/Ydieresis 16#A0/space 16#A1/exclamdown 16#A4/currency
16#A5/yen 16#A6/brokenbar 16#A7/section 16#A8/dieresis 16#A9/copyright
16#AA/ordfeminine 16#AB/guillemotleft 16#AC/logicalnot 16#AD/hyphen
16#AE/registered 16#AF/macron 16#B0/degree 16#B1/plusminus 16#B2/twosuperior
16#B3/threesuperior 16#B4/acute 16#B5/mu 16#B6/paragraph 16#B7/periodcentered
16#B8/cedilla 16#B9/onesuperior 16#BA/ordmasculine 16#BB/guillemotright
16#BC/onequarter 16#BD/onehalf 16#BE/threequarters 16#BF/questiondown
16#C0/Agrave 16#C1/Aacute 16#C2/Acircumflex 16#C3/Atilde 16#C4/Adieresis
16#C5/Aring 16#C6/AE 16#C7/Ccedilla 16#C8/Egrave 16#C9/Eacute 16#CA
/Ecircumflex 16#CB/Edieresis 16#CC/Igrave 16#CD/Iacute 16#CE/Icircumflex
16#CF/Idieresis 16#D0/Eth 16#D1/Ntilde 16#D2/Ograve 16#D3/Oacute 16#D4
/Ocircumflex 16#D5/Otilde 16#D6/Odieresis 16#D7/multiply 16#D8/Oslash
16#D9/Ugrave 16#DA/Uacute 16#DB/Ucircumflex 16#DC/Udieresis 16#DD/Yacute
16#DE/Thorn 16#DF/germandbls 16#E0/agrave 16#E1/aacute 16#E2/acircumflex
16#E3/atilde 16#E4/adieresis 16#E5/aring 16#E6/ae 16#E7/ccedilla 16#E8
/egrave 16#E9/eacute 16#EA/ecircumflex 16#EB/edieresis 16#EC/igrave
16#ED/iacute 16#EE/icircumflex 16#EF/idieresis 16#F0/eth 16#F1/ntilde
16#F2/ograve 16#F3/oacute 16#F4/ocircumflex 16#F5/otilde 16#F6/odieresis
16#F7/divide 16#F8/oslash 16#F9/ugrave 16#FA/uacute 16#FB/ucircumflex
16#FC/udieresis 16#FD/yacute 16#FE/thorn 16#FF/ydieresis ] def/reencdict
12 dict def/IsChar{basefontdict/CharStrings get exch known}bd/MapCh{dup
IsChar not{pop/bullet}if newfont/Encoding get 3 1 roll put}bd/MapDegree{16#b0
/degree IsChar{/degree}{/ring}ifelse MapCh}bd/MapBB{16#a6/brokenbar
IsChar{/brokenbar}{/bar}ifelse MapCh}bd/ANSIFont{reencdict begin/newfontname
ed/basefontname ed FontDirectory newfontname known not{/basefontdict
basefontname findfont def/newfont basefontdict maxlength dict def basefontdict{exch
dup/FID ne{dup/Encoding eq{exch dup length array copy newfont 3 1 roll
put}{exch newfont 3 1 roll put}ifelse}{pop pop}ifelse}forall newfont
/FontName newfontname put 127 1 159{newfont/Encoding get exch/bullet
put}for ANSIVec aload pop ANSIVec length 2 idiv{MapCh}repeat MapDegree
MapBB newfontname newfont definefont pop}if newfontname end}bd/SB{FC
/ULlen ed/str ed str length fBE not{dup 1 gt{1 sub}if}if/cbStr ed
/dxGdi ed/y0 ed/x0 ed str stringwidth dup 0 ne{/y1 ed/x1 ed y1 y1
mul x1 x1 mul add sqrt dxGdi exch div 1 sub dup x1 mul cbStr div exch
y1 mul cbStr div}{exch abs neg dxGdi add cbStr div exch}ifelse/dyExtra
ed/dxExtra ed x0 y0 M fBE{dxBreak 0 BCh dxExtra dyExtra str awidthshow}{dxExtra
dyExtra str ashow}ifelse fUL{x0 y0 M dxUL dyUL rmt ULlen fBE{Break
add}if 0 mxUE transform gs rlt cyUL sl [] 0 setdash st gr}if fSO{x0
y0 M dxSO dySO rmt ULlen fBE{Break add}if 0 mxUE transform gs rlt cyUL
sl [] 0 setdash st gr}if n/fBE false def}bd/font{/name ed/Ascent ed
0 ne/fT3 ed 0 ne/fSO ed 0 ne/fUL ed/Sy ed/Sx ed 10.0 div/ori ed -10.0
div/esc ed/BCh ed name findfont/xAscent 0 def/yAscent Ascent def/ULesc
esc def ULesc mxUE rotate pop fT3{/esc 0 def xAscent yAscent mxUE transform
/yAscent ed/xAscent ed}if [Sx 0 0 Sy neg xAscent yAscent] esc mxE
rotate mxF concatmatrix makefont setfont [Sx 0 0 Sy neg 0 Ascent] mxUE
mxUF concatmatrix pop fUL{currentfont dup/FontInfo get/UnderlinePosition
known not{pop/Courier findfont}if/FontInfo get/UnderlinePosition get
1000 div 0 exch mxUF transform/dyUL ed/dxUL ed}if fSO{0 .3 mxUF transform
/dySO ed/dxSO ed}if fUL fSO or{currentfont dup/FontInfo get/UnderlineThickness
known not{pop/Courier findfont}if/FontInfo get/UnderlineThickness get
1000 div Sy mul/cyUL ed}if}bd/min{2 copy gt{exch}if pop}bd/max{2 copy
lt{exch}if pop}bd/CP{/ft ed{{ft 0 eq{clip}{eoclip}ifelse}stopped{currentflat
1 add setflat}{exit}ifelse}loop}bd/patfont 10 dict def patfont begin
/FontType 3 def/FontMatrix [1 0 0 -1 0 0] def/FontBBox [0 0 16 16]
def/Encoding StandardEncoding def/BuildChar{pop pop 16 0 0 0 16 16
setcachedevice 16 16 false [1 0 0 1 .25 .25]{pat}imagemask}bd end/p{
/pat 32 string def{}forall 0 1 7{dup 2 mul pat exch 3 index put dup
2 mul 1 add pat exch 3 index put dup 2 mul 16 add pat exch 3 index
put 2 mul 17 add pat exch 2 index put pop}for}bd/pfill{/PatFont patfont
definefont setfont/ch(AAAA)def X0 64 X1{Y1 -16 Y0{1 index exch M ch
show}for pop}for}bd/vert{X0 w X1{dup Y0 M Y1 L st}for}bd/horz{Y0 w
Y1{dup X0 exch M X1 exch L st}for}bd/fdiag{X0 w X1{Y0 M X1 X0 sub dup
rlt st}for Y0 w Y1{X0 exch M Y1 Y0 sub dup rlt st}for}bd/bdiag{X0 w
X1{Y1 M X1 X0 sub dup neg rlt st}for Y0 w Y1{X0 exch M Y1 Y0 sub dup
neg rlt st}for}bd/AU{1 add cvi 15 or}bd/AD{1 sub cvi -16 and}bd/SHR{pathbbox
AU/Y1 ed AU/X1 ed AD/Y0 ed AD/X0 ed}bd/hfill{/w iRes 37.5 div round
def 0.1 sl [] 0 setdash n dup 0 eq{horz}if dup 1 eq{vert}if dup 2 eq{fdiag}if
dup 3 eq{bdiag}if dup 4 eq{horz vert}if 5 eq{fdiag bdiag}if}bd/F{/ft
ed fm 256 and 0 ne{gs FC ft 0 eq{fill}{eofill}ifelse gr}if fm 1536
and 0 ne{SHR gs HC ft CP fm 1024 and 0 ne{/Tmp save def pfill Tmp restore}{fm
15 and hfill}ifelse gr}if}bd/S{PenW sl PC st}bd/m matrix def/GW{iRes
12 div PenW add cvi}bd/DoW{iRes 50 div PenW add cvi}bd/DW{iRes 8 div
PenW add cvi}bd/SP{/PenW ed/iPen ed iPen 0 eq iPen 6 eq or{[] 0 setdash}if
iPen 1 eq{[DW GW] 0 setdash}if iPen 2 eq{[DoW GW] 0 setdash}if iPen
3 eq{[DW GW DoW GW] 0 setdash}if iPen 4 eq{[DW GW DoW GW DoW GW] 0
setdash}if}bd/E{m cm pop tr scale 1 0 moveto 0 0 1 0 360 arc cp m sm}bd
/AG{/sy ed/sx ed sx div 4 1 roll sy div 4 1 roll sx div 4 1 roll sy
div 4 1 roll atan/a2 ed atan/a1 ed sx sy scale a1 a2 ARC}def/A{m cm
pop tr AG m sm}def/P{m cm pop tr 0 0 M AG cp m sm}def/RRect{n 4 copy
M 3 1 roll exch L 4 2 roll L L cp}bd/RRCC{/r ed/y1 ed/x1 ed/y0 ed/x0
ed x0 x1 add 2 div y0 M x1 y0 x1 y1 r arcto 4{pop}repeat x1 y1 x0 y1
r arcto 4{pop}repeat x0 y1 x0 y0 r arcto 4{pop}repeat x0 y0 x1 y0 r
arcto 4{pop}repeat cp}bd/RR{2 copy 0 eq exch 0 eq or{pop pop RRect}{2
copy eq{pop RRCC}{m cm pop/y2 ed/x2 ed/ys y2 x2 div 1 max def/xs x2
y2 div 1 max def/y1 exch ys div def/x1 exch xs div def/y0 exch ys div
def/x0 exch xs div def/r2 x2 y2 min def xs ys scale x0 x1 add 2 div
y0 M x1 y0 x1 y1 r2 arcto 4{pop}repeat x1 y1 x0 y1 r2 arcto 4{pop}repeat
x0 y1 x0 y0 r2 arcto 4{pop}repeat x0 y0 x1 y0 r2 arcto 4{pop}repeat
m sm cp}ifelse}ifelse}bd/PP{{rlt}repeat}bd/OB{gs 0 ne{7 3 roll/y ed
/x ed x y translate ULesc rotate x neg y neg translate x y 7 -3 roll}if
sc B fill gr}bd/B{M/dy ed/dx ed dx 0 rlt 0 dy rlt dx neg 0 rlt cp}bd
/CB{B clip n}bd/ErrHandler{errordict dup maxlength exch length gt
dup{errordict begin}if/errhelpdict 12 dict def errhelpdict begin/stackunderflow(operand stack underflow)def
/undefined(this name is not defined in a dictionary)def/VMerror(you have used up all the printer's memory)def
/typecheck(operator was expecting a different type of operand)def
/ioerror(input/output error occured)def end{end}if errordict begin
/handleerror{$error begin newerror{/newerror false def showpage 72
72 scale/x .25 def/y 9.6 def/Helvetica findfont .2 scalefont setfont
x y moveto(Offending Command = )show/command load{dup type/stringtype
ne{(max err string)cvs}if show}exec/y y .2 sub def x y moveto(Error = )show
errorname{dup type dup( max err string )cvs show( : )show/stringtype
ne{( max err string )cvs}if show}exec errordict begin errhelpdict errorname
known{x 1 add y .2 sub moveto errhelpdict errorname get show}if end
/y y .4 sub def x y moveto(Stack =)show ostack{/y y .2 sub def x 1
add y moveto dup type/stringtype ne{( max err string )cvs}if show}forall
showpage}if end}def end}bd end
%%EndResource
/SVDoc save def
%%EndProlog
%%BeginSetup
Win35Dict begin
ErrHandler
statusdict begin 0 setjobtimeout end
statusdict begin statusdict /jobname (XL.XLS) put end
/oldDictCnt countdictstack def {}stopped 
{ countdictstack oldDictCnt lt { Win35Dict begin } 
{1 1 countdictstack oldDictCnt sub {pop end } for } ifelse } if 
/oldDictCnt countdictstack def {letter
}stopped 
{ countdictstack oldDictCnt lt { Win35Dict begin } 
{1 1 countdictstack oldDictCnt sub {pop end } for } ifelse } if 
[
{mark 1.0 1.0 .98 .9 .82 .68 .56 .48 .28 .1 .06 .0 counttomark dup 3 add -1 roll exch 2 sub mul dup floor cvi dup 3 1 roll sub exch dup  3 add index exch 2 add index dup 4 1 roll sub mul add counttomark 1 add 1 roll  cleartomark } bind
/exec load currenttransfer /exec load] cvx settransfer
%%EndSetup
%%Page: 1 1
%%PageResources: (atend)
SS
0 0 25 11 798 1100 300 SM
0 0 0 fC
/fm 256 def
1887 214 443 256 B
1 F
n
/fm 256 def
356 7 90 466 B
1 F
n
/fm 256 def
2245 11 90 56 B
1 F
n
/fm 256 def
1333 7 990 466 B
1 F
n
/fm 256 def
1876 7 447 1594 B
1 F
n
/fm 256 def
1876 7 447 1641 B
1 F
n
/fm 256 def
1876 7 447 1688 B
1 F
n
/fm 256 def
2233 7 90 2816 B
1 F
n
/fm 256 def
2245 11 90 3103 B
1 F
n
32 0 0 25 25 0 0 0 24 /Helvetica-Bold /font13 ANSIFont font
gs 187 103 86 258 CB
156 259 57 (NFS ) 57 SB
gr
gs 187 103 86 258 CB
112 294 138 (Throughput) 138 SB
gr
gs 164 103 277 258 CB
305 259 118 (Avg. NFS ) 118 SB
gr
gs 164 103 277 258 CB
301 294 126 (Response ) 126 SB
gr
gs 164 103 277 258 CB
332 329 57 (Time) 57 SB
gr
32 0 0 67 67 0 0 0 62 /Helvetica-Bold /font13 ANSIFont font
255 255 255 fC
gs 612 103 1716 258 CB
1788 279 530 (Silicon Graphics) 530 SB
gr
32 0 0 25 25 0 0 0 24 /Helvetica-Bold /font13 ANSIFont font
0 0 0 fC
gs 187 103 86 365 CB
99 385 172 (SPECnfs_A93 ) 172 SB
gr
gs 187 103 86 365 CB
131 420 100 (Ops/Sec) 100 SB
gr
gs 2246 103 86 365 CB
286 402 150 (Milliseconds) 150 SB
gr
32 0 0 67 67 0 0 0 62 /Helvetica-Bold /font13 ANSIFont font
255 255 255 fC
gs 527 103 1801 365 CB
1998 382 320 (Challenge) 320 SB
gr
32 0 0 38 38 0 0 0 34 /Helvetica /font12 ANSIFont font
0 0 0 fC
gs 2246 43 86 472 CB
150 471 63 (663) 63 SB
gr
gs 2246 43 86 472 CB
324 471 74 (11.1) 74 SB
gr
32 0 0 38 38 0 0 0 36 /Helvetica-Bold /font13 ANSIFont font
gs 2246 43 86 472 CB
1129 469 301 (Server Hardware) 301 SB
gr
32 0 0 38 38 0 0 0 34 /Helvetica /font12 ANSIFont font
gs 2246 43 86 519 CB
139 518 84 (1329) 84 SB
gr
gs 2246 43 86 519 CB
324 518 74 (12.8) 74 SB
gr
32 0 0 38 38 0 0 0 34 /Helvetica-BoldOblique /font14 ANSIFont font
gs 435 43 684 519 CB
690 519 418 (CPU, Memory, & Power) 418 SB
gr
gs 2246 43 86 519 CB
1481 518 549 (Disk Subsystem & Filesystems) 549 SB
gr
32 0 0 38 38 0 0 0 34 /Helvetica /font12 ANSIFont font
gs 2246 43 86 566 CB
139 565 84 (1997) 84 SB
gr
gs 2246 43 86 566 CB
324 565 74 (14.6) 74 SB
gr
gs 2246 43 86 566 CB
451 565 172 (Model No.) 172 SB
gr
gs 2246 43 86 566 CB
798 565 46 (XL) 46 SB
gr
gs 2246 43 86 566 CB
1510 565 497 (\(Full Configuration on Side 2\)) 497 SB
gr
gs 2246 43 86 613 CB
139 612 84 (2659) 84 SB
gr
gs 2246 43 86 613 CB
324 612 74 (16.2) 74 SB
gr
gs 2246 43 86 613 CB
451 612 79 (CPU) 79 SB
gr
gs 2246 43 86 613 CB
798 612 364 (200MHz MIPS R4400) 364 SB
gr
gs 366 43 1431 613 CB
1437 612 361 (Num Disk Controllers) 361 SB
gr
gs 2246 43 86 613 CB
1807 612 42 (10) 42 SB
gr
gs 2246 43 86 660 CB
139 659 84 (3324) 84 SB
gr
gs 2246 43 86 660 CB
324 659 74 (17.9) 74 SB
gr
gs 2246 43 86 660 CB
451 659 173 (# of CPUs) 173 SB
gr
gs 2246 43 86 660 CB
798 659 42 (12) 42 SB
gr
gs 2246 43 86 660 CB
1437 659 185 (Num Disks) 185 SB
gr
gs 2246 43 86 660 CB
1807 659 63 (109) 63 SB
gr
gs 2246 43 86 707 CB
139 706 84 (3987) 84 SB
gr
gs 2246 43 86 707 CB
324 706 74 (18.7) 74 SB
gr
gs 2246 43 86 707 CB
451 706 252 (Primary Cache) 252 SB
gr
gs 2246 43 86 707 CB
798 706 378 (16KBI+16KBD on chip) 378 SB
gr
gs 2246 43 86 707 CB
1437 706 310 (Num File Systems) 310 SB
gr
gs 2246 43 86 707 CB
1807 706 293 (108 \(FS0-FS107\)) 293 SB
gr
gs 2246 43 86 754 CB
139 753 84 (4642) 84 SB
gr
gs 2246 43 86 754 CB
324 753 74 (21.7) 74 SB
gr
gs 2246 43 86 754 CB
451 753 299 (Secondary Cache) 299 SB
gr
gs 2246 43 86 754 CB
798 753 298 (4MB\(I+D\) off chip) 298 SB
gr
gs 2246 43 86 801 CB
139 794 84 (5308) 84 SB
gr
gs 2246 43 86 801 CB
324 794 74 (24.6) 74 SB
gr
gs 2246 43 86 801 CB
451 794 214 (Other Cache) 214 SB
gr
gs 2246 43 86 801 CB
798 794 89 (None) 89 SB
gr
gs 2246 43 86 848 CB
139 847 84 (5969) 84 SB
gr
gs 2246 43 86 848 CB
324 847 74 (28.4) 74 SB
gr
gs 2246 43 86 848 CB
451 847 137 (Memory) 137 SB
gr
gs 2246 43 86 848 CB
798 847 447 (1024MB 4-way interleaved) 447 SB
gr
32 0 0 38 38 0 0 0 34 /Helvetica-BoldOblique /font14 ANSIFont font
gs 2246 43 86 848 CB
1576 847 358 (Network Subsystem) 358 SB
gr
32 0 0 38 38 0 0 0 34 /Helvetica /font12 ANSIFont font
gs 2246 43 86 895 CB
139 894 84 (6603) 84 SB
gr
gs 2246 43 86 895 CB
324 894 74 (34.5) 74 SB
gr
gs 2246 43 86 895 CB
451 894 77 (UPS) 77 SB
gr
gs 2246 43 86 895 CB
798 894 89 (None) 89 SB
gr
gs 2246 43 86 895 CB
1505 894 506 (\(Full Configuration On Side 2\)) 506 SB
gr
gs 2246 43 86 942 CB
139 941 84 (6830) 84 SB
gr
gs 2246 43 86 942 CB
324 941 74 (36.3) 74 SB
gr
gs 2246 43 86 942 CB
451 941 263 (Other hardware) 263 SB
gr
gs 2246 43 86 942 CB
798 941 88 (FDDI) 88 SB
gr
gs 2246 43 86 942 CB
1437 941 345 (Num Net Controllers) 345 SB
gr
gs 2246 43 86 942 CB
1807 941 21 (4) 21 SB
gr
gs 2246 43 86 989 CB
139 988 84 (7023) 84 SB
gr
gs 2246 43 86 989 CB
324 988 74 (37.1) 74 SB
gr
gs 2246 43 86 989 CB
1437 988 249 (Num Networks) 249 SB
gr
gs 2246 43 86 989 CB
1807 988 167 (4 \(N1-N4\)) 167 SB
gr
gs 2246 43 86 1036 CB
1437 1035 232 (Type Network) 232 SB
gr
gs 2246 43 86 1036 CB
1807 1035 88 (FDDI) 88 SB
gr
32 0 0 38 38 0 0 0 34 /Helvetica-BoldOblique /font14 ANSIFont font
gs 304 43 684 1083 CB
690 1082 289 (Server Software) 289 SB
gr
32 0 0 38 38 0 0 0 34 /Helvetica /font12 ANSIFont font
gs 2246 43 86 1130 CB
451 1129 194 (OS Version) 194 SB
gr
gs 2246 43 86 1130 CB
798 1129 138 (IRIX 5.3) 138 SB
gr
gs 2246 43 86 1177 CB
451 1176 249 (Other software) 249 SB
gr
gs 2246 43 86 1177 CB
798 1176 302 (FDDIXpress, NFS) 302 SB
gr
32 0 0 38 38 0 0 0 34 /Helvetica-BoldOblique /font14 ANSIFont font
gs 2246 43 86 1177 CB
1629 1176 253 (Server Tuning) 253 SB
gr
32 0 0 38 38 0 0 0 34 /Helvetica /font12 ANSIFont font
gs 2246 43 86 1224 CB
451 1223 193 (File system) 193 SB
gr
gs 2246 43 86 1224 CB
798 1223 73 (EFS) 73 SB
gr
gs 2246 43 86 1224 CB
1501 1223 515 (\(Also see Notes/Tuning below\)) 515 SB
gr
gs 2246 43 86 1271 CB
1437 1270 303 (Buffer Cache Size) 303 SB
gr
gs 2246 43 86 1271 CB
2003 1270 149 (Dynamic) 149 SB
gr
gs 2246 43 86 1318 CB
1437 1313 340 (Num NFS Daemons) 340 SB
gr
gs 2246 43 86 1318 CB
2089 1313 63 (240) 63 SB
gr
32 0 0 38 38 0 0 0 34 /Helvetica-BoldOblique /font14 ANSIFont font
gs 435 43 684 1365 CB
690 1364 411 (Load Generators \(LGs\)) 411 SB
gr
32 0 0 38 38 0 0 0 34 /Helvetica /font12 ANSIFont font
gs 2246 43 86 1365 CB
1437 1364 194 (Fileset Size) 194 SB
gr
gs 2246 43 86 1365 CB
2055 1364 97 (39GB) 97 SB
gr
gs 2246 43 86 1412 CB
451 1411 484 (Number of Load Generators:) 484 SB
gr
gs 2246 43 86 1412 CB
1129 1411 42 (12) 42 SB
gr
gs 543 43 445 1459 CB
451 1458 531 (Processes Per Load Generator:) 531 SB
gr
gs 2246 43 86 1459 CB
1129 1458 42 (18) 42 SB
gr
gs 2246 43 86 1506 CB
451 1505 307 (Biod_Max_Reads:) 307 SB
gr
gs 2246 43 86 1506 CB
1129 1505 21 (2) 21 SB
gr
gs 2246 43 86 1553 CB
451 1548 309 (Biod_Max_Writes:) 309 SB
gr
gs 2246 43 86 1553 CB
1129 1548 21 (2) 21 SB
gr
32 0 0 33 33 0 0 0 31 /Helvetica-Bold /font13 ANSIFont font
gs 2246 43 86 1600 CB
450 1598 341 (Hardware Availability:) 341 SB
gr
32 0 0 33 33 0 0 0 31 /Helvetica /font12 ANSIFont font
gs 2246 43 86 1600 CB
1009 1598 105 (Dec-94) 105 SB
gr
32 0 0 33 33 0 0 0 31 /Helvetica-Bold /font13 ANSIFont font
gs 2246 43 86 1600 CB
1236 1598 331 (Software Availability:) 331 SB
gr
32 0 0 33 33 0 0 0 31 /Helvetica /font12 ANSIFont font
gs 2246 43 86 1600 CB
1806 1598 105 (Dec-94) 105 SB
gr
32 0 0 33 33 0 0 0 31 /Helvetica-Bold /font13 ANSIFont font
gs 2246 43 86 1647 CB
450 1645 159 (License #:) 159 SB
gr
32 0 0 33 33 0 0 0 31 /Helvetica /font12 ANSIFont font
gs 2246 43 86 1647 CB
765 1645 18 (4) 18 SB
gr
32 0 0 33 33 0 0 0 31 /Helvetica-Bold /font13 ANSIFont font
gs 2246 43 86 1647 CB
797 1645 117 (Tested:) 117 SB
gr
32 0 0 33 33 0 0 0 31 /Helvetica /font12 ANSIFont font
gs 2246 43 86 1647 CB
1011 1645 103 (Nov-94) 103 SB
gr
32 0 0 33 33 0 0 0 31 /Helvetica-Bold /font13 ANSIFont font
gs 2246 43 86 1647 CB
1236 1645 53 (By:) 53 SB
gr
32 0 0 33 33 0 0 0 31 /Helvetica /font12 ANSIFont font
gs 2246 43 86 1647 CB
1436 1645 235 (Silicon Graphics) 235 SB
gr
32 0 0 33 33 0 0 0 31 /Helvetica-Bold /font13 ANSIFont font
gs 2246 43 86 1647 CB
1721 1645 47 (Of:) 47 SB
gr
32 0 0 33 33 0 0 0 31 /Helvetica /font12 ANSIFont font
gs 2246 43 86 1647 CB
1806 1645 273 (Mountain View, CA) 273 SB
gr
32 0 0 33 33 0 0 0 31 /Helvetica-Bold /font13 ANSIFont font
gs 1033 43 86 2822 CB
91 2824 1024 (Notes/Summary Of Tuning Parameters: \(Continued on Side 2 of 2\)) 1024 SB
gr
32 0 0 33 33 0 0 0 31 /Helvetica /font12 ANSIFont font
gs 2246 43 86 2869 CB
91 2867 261 (syssegsz = 35000) 261 SB
gr
gs 2258 3113 78 56 CB
91 2918 219 (ncsize = 60000) 219 SB
gr
gs 2258 3113 78 56 CB
91 2965 286 (maxphyscolors = 32) 286 SB
gr
gs 2258 3113 78 56 CB
91 3012 310 (vnode_free_ratio = 24) 310 SB
gr
/fm 256 def
11 3058 78 56 B
1 F
n
/fm 256 def
11 3058 2324 56 B
1 F
n
/fm 256 def
7 2567 271 256 B
1 F
n
/fm 256 def
7 2567 439 256 B
1 F
n
/fm 256 def
7 101 1225 1594 B
1 F
n
/fm 256 def
7 54 786 1641 B
1 F
n
/fm 256 def
7 54 1710 1641 B
1 F
n
0 lc
0 lj
0 0 0 pC
0 12 SP
255 255 255 fC
/fm 256 def
2246 191 84 62 B
1 F
S
n
32 0 0 67 67 0 0 0 62 /Helvetica-Bold /font13 ANSIFont font
0 0 0 fC
gs 2222 187 96 64 CB
141 117 408 (SPEC SFS 1 ) 408 SB
gr
32 0 0 67 67 0 0 0 61 /Helvetica-BoldOblique /font14 ANSIFont font
gs 2222 187 96 64 CB
549 118 274 (Baseline) 274 SB
gr
32 0 0 67 67 0 0 0 62 /Helvetica-Bold /font13 ANSIFont font
gs 2222 187 96 64 CB
835 117 1439 ( Summary  \(Side 1 of 2\)                 097.LADDIS) 1439 SB
gr
255 255 255 fC
/fm 256 def
1885 1126 443 1695 B
1 F
n
1 lc
1 lj
0 1 SP
gs 1 815 663 1778 CB
663 1778 M 0 814 1 PP
S
n
gr
gs 27 1 650 2592 CB
650 2592 M 26 0 1 PP
S
n
gr
gs 27 1 650 2476 CB
650 2476 M 26 0 1 PP
S
n
gr
gs 27 1 650 2359 CB
650 2359 M 26 0 1 PP
S
n
gr
gs 27 1 650 2243 CB
650 2243 M 26 0 1 PP
S
n
gr
gs 27 1 650 2127 CB
650 2127 M 26 0 1 PP
S
n
gr
gs 27 1 650 2011 CB
650 2011 M 26 0 1 PP
S
n
gr
gs 27 1 650 1894 CB
650 1894 M 26 0 1 PP
S
n
gr
gs 27 1 650 1778 CB
650 1778 M 26 0 1 PP
S
n
gr
gs 1569 1 663 2592 CB
663 2592 M 1568 0 1 PP
S
n
gr
gs 1 27 663 2579 CB
663 2605 M 0 -26 1 PP
S
n
gr
gs 1 27 859 2579 CB
859 2605 M 0 -26 1 PP
S
n
gr
gs 1 27 1055 2579 CB
1055 2605 M 0 -26 1 PP
S
n
gr
gs 1 27 1251 2579 CB
1251 2605 M 0 -26 1 PP
S
n
gr
gs 1 27 1447 2579 CB
1447 2605 M 0 -26 1 PP
S
n
gr
gs 1 27 1643 2579 CB
1643 2605 M 0 -26 1 PP
S
n
gr
gs 1 27 1839 2579 CB
1839 2605 M 0 -26 1 PP
S
n
gr
gs 1 27 2035 2579 CB
2035 2605 M 0 -26 1 PP
S
n
gr
gs 1 27 2231 2579 CB
2231 2605 M 0 -26 1 PP
S
n
gr
0 4 SP
793 2463 M 130 -20 1 PP
S
n
923 2443 M 131 -21 1 PP
S
n
1054 2422 M 130 -18 1 PP
S
n
1184 2404 M 131 -20 1 PP
S
n
1315 2384 M 129 -9 1 PP
S
n
1444 2375 M 129 -35 1 PP
S
n
1573 2340 M 130 -34 1 PP
S
n
1703 2306 M 130 -44 1 PP
S
n
1833 2262 M 124 -71 1 PP
S
n
1957 2191 M 45 -21 1 PP
S
n
2002 2170 M 38 -9 1 PP
S
n
0 0 0 fC
/fm 256 def
793 2009 M 0 -4 -8 0 0 4 8 0 4 PP
1 F
n
/fm 256 def
817 2009 M 0 -4 -8 0 0 4 8 0 4 PP
1 F
n
/fm 256 def
841 2009 M 0 -4 -8 0 0 4 8 0 4 PP
1 F
n
/fm 256 def
865 2009 M 0 -4 -8 0 0 4 8 0 4 PP
1 F
n
/fm 256 def
889 2009 M 0 -4 -8 0 0 4 8 0 4 PP
1 F
n
/fm 256 def
913 2009 M 0 -4 -8 0 0 4 8 0 4 PP
1 F
n
/fm 256 def
937 2009 M 0 -4 -8 0 0 4 8 0 4 PP
1 F
n
/fm 256 def
961 2009 M 0 -4 -8 0 0 4 8 0 4 PP
1 F
n
/fm 256 def
985 2009 M 0 -4 -8 0 0 4 8 0 4 PP
1 F
n
/fm 256 def
1009 2009 M 0 -4 -8 0 0 4 8 0 4 PP
1 F
n
/fm 256 def
1033 2009 M 0 -4 -8 0 0 4 8 0 4 PP
1 F
n
/fm 256 def
1057 2009 M 0 -4 -8 0 0 4 8 0 4 PP
1 F
n
/fm 256 def
1081 2009 M 0 -4 -8 0 0 4 8 0 4 PP
1 F
n
/fm 256 def
1105 2009 M 0 -4 -8 0 0 4 8 0 4 PP
1 F
n
/fm 256 def
1129 2009 M 0 -4 -8 0 0 4 8 0 4 PP
1 F
n
/fm 256 def
1153 2009 M 0 -4 -8 0 0 4 8 0 4 PP
1 F
n
/fm 256 def
1177 2009 M 0 -4 -7 0 0 4 7 0 4 PP
1 F
n
/fm 256 def
1184 2009 M 0 -4 -1 0 0 4 1 0 4 PP
1 F
n
/fm 256 def
1201 2009 M 0 -4 -8 0 0 4 8 0 4 PP
1 F
n
/fm 256 def
1225 2009 M 0 -4 -8 0 0 4 8 0 4 PP
1 F
n
/fm 256 def
1249 2009 M 0 -4 -8 0 0 4 8 0 4 PP
1 F
n
/fm 256 def
1273 2009 M 0 -4 -8 0 0 4 8 0 4 PP
1 F
n
/fm 256 def
1297 2009 M 0 -4 -8 0 0 4 8 0 4 PP
1 F
n
/fm 256 def
1321 2009 M 0 -4 -8 0 0 4 8 0 4 PP
1 F
n
/fm 256 def
1345 2009 M 0 -4 -8 0 0 4 8 0 4 PP
1 F
n
/fm 256 def
1369 2009 M 0 -4 -8 0 0 4 8 0 4 PP
1 F
n
/fm 256 def
1393 2009 M 0 -4 -8 0 0 4 8 0 4 PP
1 F
n
/fm 256 def
1417 2009 M 0 -4 -8 0 0 4 8 0 4 PP
1 F
n
/fm 256 def
1441 2009 M 0 -4 -3 0 0 4 3 0 4 PP
1 F
n
/fm 256 def
1444 2009 M 0 -4 -5 0 0 4 5 0 4 PP
1 F
n
/fm 256 def
1465 2009 M 0 -4 -8 0 0 4 8 0 4 PP
1 F
n
/fm 256 def
1489 2009 M 0 -4 -8 0 0 4 8 0 4 PP
1 F
n
/fm 256 def
1513 2009 M 0 -4 -8 0 0 4 8 0 4 PP
1 F
n
/fm 256 def
1537 2009 M 0 -4 -8 0 0 4 8 0 4 PP
1 F
n
/fm 256 def
1561 2009 M 0 -4 -8 0 0 4 8 0 4 PP
1 F
n
/fm 256 def
1585 2009 M 0 -4 -8 0 0 4 8 0 4 PP
1 F
n
/fm 256 def
1609 2009 M 0 -4 -8 0 0 4 8 0 4 PP
1 F
n
/fm 256 def
1633 2009 M 0 -4 -8 0 0 4 8 0 4 PP
1 F
n
/fm 256 def
1657 2009 M 0 -4 -8 0 0 4 8 0 4 PP
1 F
n
/fm 256 def
1681 2009 M 0 -4 -8 0 0 4 8 0 4 PP
1 F
n
/fm 256 def
1705 2009 M 0 -4 -8 0 0 4 8 0 4 PP
1 F
n
/fm 256 def
1729 2009 M 0 -4 -8 0 0 4 8 0 4 PP
1 F
n
/fm 256 def
1753 2009 M 0 -4 -8 0 0 4 8 0 4 PP
1 F
n
/fm 256 def
1777 2009 M 0 -4 -8 0 0 4 8 0 4 PP
1 F
n
/fm 256 def
1801 2009 M 0 -4 -8 0 0 4 8 0 4 PP
1 F
n
/fm 256 def
1825 2009 M 0 -4 -8 0 0 4 8 0 4 PP
1 F
n
/fm 256 def
1833 2009 M 0 -4 -8 0 0 4 8 0 4 PP
1 F
n
/fm 256 def
1857 2009 M 0 -4 -8 0 0 4 8 0 4 PP
1 F
n
/fm 256 def
1881 2009 M 0 -4 -8 0 0 4 8 0 4 PP
1 F
n
/fm 256 def
1905 2009 M 0 -4 -8 0 0 4 8 0 4 PP
1 F
n
/fm 256 def
1929 2009 M 0 -4 -8 0 0 4 8 0 4 PP
1 F
n
/fm 256 def
1953 2009 M 0 -4 -4 0 0 4 4 0 4 PP
1 F
n
/fm 256 def
1957 2009 M 0 -4 -4 0 0 4 4 0 4 PP
1 F
n
/fm 256 def
1977 2009 M 0 -4 -8 0 0 4 8 0 4 PP
1 F
n
/fm 256 def
2001 2009 M 0 -4 -1 0 0 4 1 0 4 PP
1 F
n
/fm 256 def
2002 2009 M 0 -4 -7 0 0 4 7 0 4 PP
1 F
n
/fm 256 def
2025 2009 M 0 -4 -8 0 0 4 8 0 4 PP
1 F
n
0 lc
0 lj
0 4 SP
255 0 0 fC
/fm 256 def
19 19 783 2453 B
1 F
S
n
/fm 256 def
19 19 913 2433 B
1 F
S
n
/fm 256 def
19 19 1044 2412 B
1 F
S
n
/fm 256 def
19 19 1174 2394 B
1 F
S
n
/fm 256 def
19 19 1305 2374 B
1 F
S
n
/fm 256 def
19 19 1434 2365 B
1 F
S
n
/fm 256 def
19 19 1563 2330 B
1 F
S
n
/fm 256 def
19 19 1693 2296 B
1 F
S
n
/fm 256 def
19 19 1823 2252 B
1 F
S
n
/fm 256 def
19 19 1947 2181 B
1 F
S
n
/fm 256 def
19 19 1992 2160 B
1 F
S
n
/fm 256 def
19 19 2030 2151 B
1 F
S
n
32 0 0 42 42 0 0 0 38 /Helvetica /font12 ANSIFont font
0 0 0 fC
gs 1885 1125 443 1696 CB
608 2567 23 (0) 23 SB
gr
gs 1885 1125 443 1696 CB
585 2451 46 (10) 46 SB
gr
gs 1885 1125 443 1696 CB
585 2334 46 (20) 46 SB
gr
gs 1885 1125 443 1696 CB
585 2218 46 (30) 46 SB
gr
gs 1885 1125 443 1696 CB
585 2102 46 (40) 46 SB
gr
gs 1885 1125 443 1696 CB
585 1986 46 (50) 46 SB
gr
gs 1885 1125 443 1696 CB
585 1869 46 (60) 46 SB
gr
gs 1885 1125 443 1696 CB
585 1753 46 (70) 46 SB
gr
gs 1885 1125 443 1696 CB
652 2628 23 (0) 23 SB
gr
gs 1885 1125 443 1696 CB
813 2628 92 (1000) 92 SB
gr
gs 1885 1125 443 1696 CB
1009 2628 92 (2000) 92 SB
gr
gs 1885 1125 443 1696 CB
1205 2628 92 (3000) 92 SB
gr
gs 1885 1125 443 1696 CB
1401 2628 92 (4000) 92 SB
gr
gs 1885 1125 443 1696 CB
1597 2628 92 (5000) 92 SB
gr
gs 1885 1125 443 1696 CB
1793 2628 92 (6000) 92 SB
gr
gs 1885 1125 443 1696 CB
1989 2628 92 (7000) 92 SB
gr
gs 1885 1125 443 1696 CB
2185 2628 92 (8000) 92 SB
gr
32 0 0 42 42 0 0 0 39 /Helvetica-Bold /font13 ANSIFont font
gs 862 84 1016 2688 CB
1032 2704 830 (NFS Throughput \(SPECnfs_A93 Ops/Sec\)) 830 SB
gr
32 900 900 42 42 0 0 0 38 /Helvetica-Bold /font13 ANSIFont font
gs 92 772 487 1799 CB
506 2555 740 (Average NFS Response Time \(msec.\)) 740 SB
gr
/fm 256 def
7 95 1959 1696 B
1 F
n
/fm 256 def
1112 7 854 1784 B
1 F
n
0 1 SP
255 255 255 fC
/fm 256 def
gs 1885 1125 443 1696 CB
1112 96 846 1687 B
1 F
S
n
gr
32 0 0 33 33 0 0 0 31 /Helvetica-Bold /font13 ANSIFont font
0 0 0 fC
gs 1098 85 853 1696 CB
1182 1693 449 (SPEC SFS 1 Baseline Result ) 449 SB
gr
gs 1098 85 853 1696 CB
856 1736 1092 (7023 SPECnfs_A93 Ops/Sec @ 37.1 msec ==> 702 SPECnfs_A93 Users) 1092 SB
gr
1884 1125 443 1695 B
S
n
1 #C
statusdict begin /manualfeed false store end
EJ RS
%%PageTrailer
%%PageResources: font Helvetica
%%+ font Helvetica-Bold
%%+ font Helvetica-BoldOblique
%%Page: 2 2
%%PageResources: (atend)
SS
0 0 25 11 798 1100 300 SM
0 0 0 fC
/fm 256 def
267 214 87 256 B
1 F
n
/fm 256 def
1975 214 354 256 B
1 F
n
/fm 256 def
266 7 91 466 B
1 F
n
/fm 256 def
1401 7 921 466 B
1 F
n
/fm 256 def
2231 7 91 1359 B
1 F
n
/fm 256 def
2231 7 91 2017 B
1 F
n
/fm 256 def
2231 7 91 2910 B
1 F
n
/fm 256 def
2243 11 91 3103 B
1 F
n
32 0 0 67 67 0 0 0 62 /Helvetica-Bold /font13 ANSIFont font
255 255 255 fC
gs 0 0 0 0 CB
-457 279 530 (Silicon Graphics) 530 SB
gr
32 0 0 67 67 0 0 0 63 /Helvetica-Bold /font13 ANSIFont font
gs 681 103 1646 258 CB
1787 278 530 (Silicon Graphics) 530 SB
gr
32 0 0 67 67 0 0 0 62 /Helvetica-Bold /font13 ANSIFont font
gs 0 0 0 0 CB
-247 382 320 (Challenge) 320 SB
gr
32 0 0 67 67 0 0 0 63 /Helvetica-Bold /font13 ANSIFont font
gs 481 103 1846 365 CB
1997 381 320 (Challenge) 320 SB
gr
32 0 0 33 33 0 0 0 31 /Helvetica-Bold /font13 ANSIFont font
0 0 0 fC
gs 2256 3113 79 56 CB
928 474 426 (Detailed Server Description) 426 SB
gr
32 0 0 33 33 0 0 0 31 /Helvetica-BoldOblique /font14 ANSIFont font
gs 327 43 356 519 CB
361 521 311 (Network Subsystem) 311 SB
gr
gs 2256 3113 79 56 CB
1272 521 479 (Disk Subsystem & Filesystems) 479 SB
gr
32 0 0 33 33 0 0 0 31 /Helvetica /font12 ANSIFont font
gs 2256 3113 79 56 CB
207 568 107 (VME 1:) 107 SB
gr
gs 499 43 1143 566 CB
1148 568 486 (Controller 1:  SCSI Fast/Wide Diff) 486 SB
gr
gs 2256 3113 79 56 CB
207 615 458 (FDDI controller 1: 2 LG1, 1 LG2) 458 SB
gr
gs 329 43 1143 613 CB
1148 615 323 (    Disks:  1 SCSI 2GB) 323 SB
gr
gs 2256 3113 79 56 CB
207 662 253 (FDDI controller 2:) 253 SB
gr
gs 2256 3113 79 56 CB
1148 662 464 (        Contents:  OS, swap space) 464 SB
gr
gs 2256 3113 79 56 CB
207 709 645 (Crescendo 1000 Concentrator: 2 LG1, 1 LG2) 645 SB
gr
gs 2256 3113 79 56 CB
1148 7