%!PS-Adobe-3.0
%%BoundingBox: (atend)
%%Pages: (atend)
%%PageOrder: (atend)
%%DocumentFonts: (atend)
%%Creator: Frame 4.0
%%DocumentData: Clean7Bit
%%EndComments
%%BeginProlog
%
% Frame ps_prolog 4.0, for use with Frame 4.0 products
% This ps_prolog file is Copyright (c) 1986-1993 Frame Technology
% Corporation.  All rights reserved.  This ps_prolog file may be
% freely copied and distributed in conjunction with documents created
% using FrameMaker, FrameBuilder and FrameViewer as long as this 
% copyright notice is preserved.
%
% Frame products normally print colors as their true color on a color printer
% or as shades of gray, based on luminance, on a black-and white printer. The
% following flag, if set to True, forces all non-white colors to print as pure
% black. This has no effect on bitmap images.
/FMPrintAllColorsAsBlack             false def
%
% Frame products can either set their own line screens or use a printer's 
% default settings. Three flags below control this separately for no 
% separations, spot separations and process separations. If a flag
% is true, then the default printer settings will not be changed. If it is
% false, Frame products will use their own settings from a table based on
% the printer's resolution.
/FMUseDefaultNoSeparationScreen      true  def
/FMUseDefaultSpotSeparationScreen    true  def
/FMUseDefaultProcessSeparationScreen false def
%
% For any given PostScript printer resolution, Frame products have two sets of 
% screen angles and frequencies for printing process separations, which are 
% recomended by Adobe. The following variable chooses the higher frequencies
% when set to true or the lower frequencies when set to false. This is only
% effective if the appropriate FMUseDefault...SeparationScreen flag is false.
/FMUseHighFrequencyScreens true def
%
% PostScript Level 2 printers contain an "Accurate Screens" feature which can
% improve process separation rendering at the expense of compute time. This 
% flag is ignored by PostScript Level 1 printers.
/FMUseAcccurateScreens true def
%
% The following PostScript procedure defines the spot function that Frame
% products will use for process separations. You may un-comment-out one of
% the alternative functions below, or use your own.
%
% Dot function
/FMSpotFunction {abs exch abs 2 copy add 1 gt 
		{1 sub dup mul exch 1 sub dup mul add 1 sub }
		{dup mul exch dup mul add 1 exch sub }ifelse } def
%
% Line function
% /FMSpotFunction { pop } def
%
% Elipse function
% /FMSpotFunction { dup 5 mul 8 div mul exch dup mul exch add 
%		sqrt 1 exch sub } def
%
%
/FMversion (4.0) def 
/FMLevel1 /languagelevel where {pop languagelevel} {1} ifelse 2 lt def
/FMPColor
	FMLevel1 {
		false
		/colorimage where {pop pop true} if
	} {
		true
	} ifelse
def
/FrameDict 400 dict def 
systemdict /errordict known not {/errordict 10 dict def
		errordict /rangecheck {stop} put} if
% The readline in PS 23.0 doesn't recognize cr's as nl's on AppleTalk
FrameDict /tmprangecheck errordict /rangecheck get put 
errordict /rangecheck {FrameDict /bug true put} put 
FrameDict /bug false put 
mark 
% Some PS machines read past the CR, so keep the following 3 lines together!
currentfile 5 string readline
00
0000000000
cleartomark 
errordict /rangecheck FrameDict /tmprangecheck get put 
FrameDict /bug get { 
	/readline {
		/gstring exch def
		/gfile exch def
		/gindex 0 def
		{
			gfile read pop 
			dup 10 eq {exit} if 
			dup 13 eq {exit} if 
			gstring exch gindex exch put 
			/gindex gindex 1 add def 
		} loop
		pop 
		gstring 0 gindex getinterval true 
		} bind def
	} if
/FMshowpage /showpage load def
/FMquit /quit load def
/FMFAILURE { 
	dup = flush 
	FMshowpage 
	/Helvetica findfont 12 scalefont setfont
	72 200 moveto
	show FMshowpage 
	FMquit 
	} def 
/FMVERSION {
	FMversion ne {
		(Frame product version does not match ps_prolog!) FMFAILURE
		} if
	} def 
/FMBADEPSF { 
	(PostScript Lang. Ref. Man., 2nd Ed., H.2.4 says EPS must not call X              )
	dup dup (X) search pop exch pop exch pop length 
	4 -1 roll 
	putinterval 
	FMFAILURE
	} def
/FMLOCAL {
	FrameDict begin
	0 def 
	end 
	} def 
/concatprocs
	{
	/proc2 exch cvlit def/proc1 exch cvlit def/newproc proc1 length proc2 length add array def
	newproc 0 proc1 putinterval newproc proc1 length proc2 putinterval newproc cvx
}def
FrameDict begin 
/FMnone 0 def
/FMcyan 1 def
/FMmagenta 2 def
/FMyellow 3 def
/FMblack 4 def
/FMcustom 5 def
/FrameNegative false def 
/FrameSepIs FMnone def 
/FrameSepBlack 0 def
/FrameSepYellow 0 def
/FrameSepMagenta 0 def
/FrameSepCyan 0 def
/FrameSepRed 1 def
/FrameSepGreen 1 def
/FrameSepBlue 1 def
/FrameCurGray 1 def
/FrameCurPat null def
/FrameCurColors [ 0 0 0 1 0 0 0 ] def 
/FrameColorEpsilon .001 def	
/eqepsilon {		
	sub dup 0 lt {neg} if
	FrameColorEpsilon le
} bind def
/FrameCmpColorsCMYK { 
	2 copy 0 get exch 0 get eqepsilon {
		2 copy 1 get exch 1 get eqepsilon {
			2 copy 2 get exch 2 get eqepsilon {
				3 get exch 3 get eqepsilon
			} {pop pop false} ifelse
		}{pop pop false} ifelse
	} {pop pop false} ifelse
} bind def
/FrameCmpColorsRGB { 
	2 copy 4 get exch 0 get eqepsilon {
		2 copy 5 get exch 1 get eqepsilon {
			6 get exch 2 get eqepsilon
		}{pop pop false} ifelse
	} {pop pop false} ifelse
} bind def
/RGBtoCMYK { 
	1 exch sub 
	3 1 roll 
	1 exch sub 
	3 1 roll 
	1 exch sub 
	3 1 roll 
	3 copy 
	2 copy 
	le { pop } { exch pop } ifelse 
	2 copy 
	le { pop } { exch pop } ifelse 
	dup dup dup 
	6 1 roll 
	4 1 roll 
	7 1 roll 
	sub 
	6 1 roll 
	sub 
	5 1 roll 
	sub 
	4 1 roll 
} bind def
/CMYKtoRGB { 
	dup dup 4 -1 roll add 						  
	5 1 roll 3 -1 roll add 						  
	4 1 roll add 								  
	1 exch sub dup 0 lt {pop 0} if 3 1 roll 	  
	1 exch sub dup 0 lt {pop 0} if exch 	      
	1 exch sub dup 0 lt {pop 0} if exch	  		  
} bind def
/FrameSepInit {
	1.0 RealSetgray
} bind def
/FrameSetSepColor { 
	/FrameSepBlue exch def
	/FrameSepGreen exch def
	/FrameSepRed exch def
	/FrameSepBlack exch def
	/FrameSepYellow exch def
	/FrameSepMagenta exch def
	/FrameSepCyan exch def
	/FrameSepIs FMcustom def
	setCurrentScreen	
} bind def
/FrameSetCyan {
	/FrameSepBlue 1.0 def
	/FrameSepGreen 1.0 def
	/FrameSepRed 0.0 def
	/FrameSepBlack 0.0 def
	/FrameSepYellow 0.0 def
	/FrameSepMagenta 0.0 def
	/FrameSepCyan 1.0 def
	/FrameSepIs FMcyan def
	setCurrentScreen	
} bind def
 
/FrameSetMagenta {
	/FrameSepBlue 1.0 def
	/FrameSepGreen 0.0 def
	/FrameSepRed 1.0 def
	/FrameSepBlack 0.0 def
	/FrameSepYellow 0.0 def
	/FrameSepMagenta 1.0 def
	/FrameSepCyan 0.0 def
	/FrameSepIs FMmagenta def
	setCurrentScreen
} bind def
 
/FrameSetYellow {
	/FrameSepBlue 0.0 def
	/FrameSepGreen 1.0 def
	/FrameSepRed 1.0 def
	/FrameSepBlack 0.0 def
	/FrameSepYellow 1.0 def
	/FrameSepMagenta 0.0 def
	/FrameSepCyan 0.0 def
	/FrameSepIs FMyellow def
	setCurrentScreen
} bind def
 
/FrameSetBlack {
	/FrameSepBlue 0.0 def
	/FrameSepGreen 0.0 def
	/FrameSepRed 0.0 def
	/FrameSepBlack 1.0 def
	/FrameSepYellow 0.0 def
	/FrameSepMagenta 0.0 def
	/FrameSepCyan 0.0 def
	/FrameSepIs FMblack def
	setCurrentScreen
} bind def
 
/FrameNoSep { 
	/FrameSepIs FMnone def
	setCurrentScreen
} bind def
/FrameSetSepColors { 
	FrameDict begin
	[ exch 1 add 1 roll ]
	/FrameSepColors  
	exch def end
	} bind def
/FrameColorInSepListCMYK { 
	FrameSepColors {  
       		exch dup 3 -1 roll 
       		FrameCmpColorsCMYK 
       		{ pop true exit } if
    	} forall 
	dup true ne {pop false} if
	} bind def
/FrameColorInSepListRGB { 
	FrameSepColors {  
       		exch dup 3 -1 roll 
       		FrameCmpColorsRGB 
       		{ pop true exit } if
    	} forall 
	dup true ne {pop false} if
	} bind def
/RealSetgray /setgray load def
/RealSetrgbcolor /setrgbcolor load def
/RealSethsbcolor /sethsbcolor load def
end 
/setgray { 
	FrameDict begin
	FrameSepIs FMnone eq
		{ RealSetgray } 
		{ 
		FrameSepIs FMblack eq 
			{ RealSetgray } 
			{ FrameSepIs FMcustom eq 
			  FrameSepRed 0 eq and
			  FrameSepGreen 0 eq and
			  FrameSepBlue 0 eq and {
			  	RealSetgray
			  } {
				1 RealSetgray pop 
			  } ifelse
			} ifelse
		} ifelse
	end
} bind def
/setrgbcolor { 
	FrameDict begin
	FrameSepIs FMnone eq
	{  RealSetrgbcolor }
	{
		3 copy [ 4 1 roll ] 
		FrameColorInSepListRGB
		{
				FrameSepBlue eq exch 
			 	FrameSepGreen eq and exch 
			 	FrameSepRed eq and
			 	{ 0 } { 1 } ifelse
		}
		{
			FMPColor {
				RealSetrgbcolor
				currentcmykcolor
			} {
				RGBtoCMYK
			} ifelse
			FrameSepIs FMblack eq
			{1.0 exch sub 4 1 roll pop pop pop} {
			FrameSepIs FMyellow eq
			{pop 1.0 exch sub 3 1 roll pop pop} {
			FrameSepIs FMmagenta eq
			{pop pop 1.0 exch sub exch pop } {
			FrameSepIs FMcyan eq
			{pop pop pop 1.0 exch sub } 
			{pop pop pop pop 1} ifelse } ifelse } ifelse } ifelse 
		} ifelse
		RealSetgray
	} 
	ifelse
	end
} bind def
/sethsbcolor {
	FrameDict begin
	FrameSepIs FMnone eq 
	{ RealSethsbcolor } 
	{
		RealSethsbcolor 
		currentrgbcolor  
		setrgbcolor 
	} 
	ifelse
	end
} bind def
FrameDict begin
/setcmykcolor where {
	pop /RealSetcmykcolor /setcmykcolor load def
} {
	/RealSetcmykcolor {
		4 1 roll
		3 { 3 index add 0 max 1 min 1 exch sub 3 1 roll} repeat 
		setrgbcolor pop
	} bind def
} ifelse
userdict /setcmykcolor { 
		FrameDict begin
		FrameSepIs FMnone eq
		{ RealSetcmykcolor } 
		{
			4 copy [ 5 1 roll ]
			FrameColorInSepListCMYK
			{
				FrameSepBlack eq exch 
				FrameSepYellow eq and exch 
				FrameSepMagenta eq and exch 
				FrameSepCyan eq and 
				{ 0 } { 1 } ifelse
			}
			{
				FrameSepIs FMblack eq
				{1.0 exch sub 4 1 roll pop pop pop} {
				FrameSepIs FMyellow eq
				{pop 1.0 exch sub 3 1 roll pop pop} {
				FrameSepIs FMmagenta eq
				{pop pop 1.0 exch sub exch pop } {
				FrameSepIs FMcyan eq
				{pop pop pop 1.0 exch sub } 
				{pop pop pop pop 1} ifelse } ifelse } ifelse } ifelse 
			} ifelse
			RealSetgray
		}
		ifelse
		end
	} bind put
FMLevel1 not { 
	
	/patProcDict 5 dict dup begin
		<0f1e3c78f0e1c387> { 3 setlinewidth -1 -1 moveto 9 9 lineto stroke 
											4 -4 moveto 12 4 lineto stroke
											-4 4 moveto 4 12 lineto stroke} bind def
		<0f87c3e1f0783c1e> { 3 setlinewidth -1 9 moveto 9 -1 lineto stroke 
											-4 4 moveto 4 -4 lineto stroke
											4 12 moveto 12 4 lineto stroke} bind def
		<8142241818244281> { 1 setlinewidth -1 9 moveto 9 -1 lineto stroke
											-1 -1 moveto 9 9 lineto stroke } bind def
		<03060c183060c081> { 1 setlinewidth -1 -1 moveto 9 9 lineto stroke 
											4 -4 moveto 12 4 lineto stroke
											-4 4 moveto 4 12 lineto stroke} bind def
		<8040201008040201> { 1 setlinewidth -1 9 moveto 9 -1 lineto stroke 
											-4 4 moveto 4 -4 lineto stroke
											4 12 moveto 12 4 lineto stroke} bind def
	end def
	/patDict 15 dict dup begin
		/PatternType 1 def		
		/PaintType 2 def		
		/TilingType 3 def		
		/BBox [ 0 0 8 8 ] def 	
		/XStep 8 def			
		/YStep 8 def			
		/PaintProc {
			begin
			patProcDict bstring known {
				patProcDict bstring get exec
			} {
				8 8 true [1 0 0 -1 0 8] bstring imagemask
			} ifelse
			end
		} bind def
	end def
} if
/combineColor {
    FrameSepIs FMnone eq
	{
		graymode FMLevel1 or not {
			
			[/Pattern [/DeviceCMYK]] setcolorspace
			FrameCurColors 0 4 getinterval aload pop FrameCurPat setcolor
		} {
			FrameCurColors 3 get 1.0 ge {
				FrameCurGray RealSetgray
			} {
				FMPColor graymode and {
					0 1 3 { 
						FrameCurColors exch get
						1 FrameCurGray sub mul
					} for
					RealSetcmykcolor
				} {
					4 1 6 {
						FrameCurColors exch get
						graymode {
							1 exch sub 1 FrameCurGray sub mul 1 exch sub
						} {
							1.0 lt {FrameCurGray} {1} ifelse
						} ifelse
					} for
					RealSetrgbcolor
				} ifelse
			} ifelse
		} ifelse
	} { 
		FrameCurColors 0 4 getinterval aload
		FrameColorInSepListCMYK {
			FrameSepBlack eq exch 
			FrameSepYellow eq and exch 
			FrameSepMagenta eq and exch 
			FrameSepCyan eq and
			FrameSepIs FMcustom eq and
			{ FrameCurGray } { 1 } ifelse
		} {
			FrameSepIs FMblack eq
			{FrameCurGray 1.0 exch sub mul 1.0 exch sub 4 1 roll pop pop pop} {
			FrameSepIs FMyellow eq
			{pop FrameCurGray 1.0 exch sub mul 1.0 exch sub 3 1 roll pop pop} {
			FrameSepIs FMmagenta eq
			{pop pop FrameCurGray 1.0 exch sub mul 1.0 exch sub exch pop } {
			FrameSepIs FMcyan eq
			{pop pop pop FrameCurGray 1.0 exch sub mul 1.0 exch sub } 
			{pop pop pop pop 1} ifelse } ifelse } ifelse } ifelse 
		} ifelse
		graymode FMLevel1 or not {
			
			[/Pattern [/DeviceGray]] setcolorspace
			FrameCurPat setcolor
		} { 
			graymode not FMLevel1 and {
				
				dup 1 lt {pop FrameCurGray} if
			} if
			RealSetgray
		} ifelse
	} ifelse
} bind def
/savematrix {
	orgmatrix currentmatrix pop
	} bind def
/restorematrix {
	orgmatrix setmatrix
	} bind def
/dmatrix matrix def
/dpi    72 0 dmatrix defaultmatrix dtransform
    dup mul exch   dup mul add   sqrt def
	
/freq dpi dup 72 div round dup 0 eq {pop 1} if 8 mul div def
/sangle 1 0 dmatrix defaultmatrix dtransform exch atan def
/dpiranges   [  2540    2400    1693     1270    1200     635      600      0      ] def
/CMLowFreqs  [ 100.402  94.8683 89.2289 100.402  94.8683  66.9349  63.2456 47.4342 ] def
/YLowFreqs   [  95.25   90.0    84.65    95.25   90.0     70.5556  66.6667 50.0    ] def
/KLowFreqs   [  89.8026 84.8528 79.8088  89.8026 84.8528  74.8355  70.7107 53.033  ] def
/CLowAngles  [  71.5651 71.5651 71.5651 71.5651  71.5651  71.5651  71.5651 71.5651 ] def
/MLowAngles  [  18.4349 18.4349 18.4349 18.4349  18.4349  18.4349  18.4349 18.4349 ] def
/YLowTDot    [  true    true    false    true    true     false    false   false   ] def
/CMHighFreqs [ 133.87  126.491 133.843  108.503 102.523  100.402   94.8683 63.2456 ] def
/YHighFreqs  [ 127.0   120.0   126.975  115.455 109.091   95.25    90.0    60.0    ] def
/KHighFreqs  [ 119.737 113.137 119.713  128.289 121.218   89.8026  84.8528 63.6395 ] def
/CHighAngles [  71.5651 71.5651 71.5651  70.0169 70.0169  71.5651  71.5651 71.5651 ] def
/MHighAngles [  18.4349 18.4349 18.4349  19.9831 19.9831  18.4349  18.4349 18.4349 ] def
/YHighTDot   [  false   false   true     false   false    true     true    false   ] def
/PatFreq     [	10.5833 10.0     9.4055  10.5833 10.0	  10.5833  10.0	   9.375   ] def
/screenIndex {
	0 1 dpiranges length 1 sub { dup dpiranges exch get 1 sub dpi le {exit} {pop} ifelse } for
} bind def
/getCyanScreen {
	FMUseHighFrequencyScreens { CHighAngles CMHighFreqs} {CLowAngles CMLowFreqs} ifelse
		screenIndex dup 3 1 roll get 3 1 roll get /FMSpotFunction load
} bind def
/getMagentaScreen {
	FMUseHighFrequencyScreens { MHighAngles CMHighFreqs } {MLowAngles CMLowFreqs} ifelse
		screenIndex dup 3 1 roll get 3 1 roll get /FMSpotFunction load
} bind def
/getYellowScreen {
	FMUseHighFrequencyScreens { YHighTDot YHighFreqs} { YLowTDot YLowFreqs } ifelse
		screenIndex dup 3 1 roll get 3 1 roll get { 3 div
			{2 { 1 add 2 div 3 mul dup floor sub 2 mul 1 sub exch} repeat
			FMSpotFunction } } {/FMSpotFunction load } ifelse
			0.0 exch
} bind def
/getBlackScreen  {
	FMUseHighFrequencyScreens { KHighFreqs } { KLowFreqs } ifelse
		screenIndex get 45.0 /FMSpotFunction load 
} bind def
/getSpotScreen {
	getBlackScreen
} bind def
/getCompositeScreen {
	getBlackScreen
} bind def
/FMSetScreen 
	FMLevel1 { /setscreen load 
	}{ {
		8 dict begin
		/HalftoneType 1 def
		/SpotFunction exch def
		/Angle exch def
		/Frequency exch def
		/AccurateScreens FMUseAcccurateScreens def
		currentdict end sethalftone
	} bind } ifelse
def
/setDefaultScreen {
	FMPColor {
		orgrxfer cvx orggxfer cvx orgbxfer cvx orgxfer cvx setcolortransfer
	}
	{
		orgxfer cvx settransfer
	} ifelse
	orgfreq organgle orgproc cvx setscreen
} bind def
/setCurrentScreen {
	FrameSepIs FMnone eq {
		FMUseDefaultNoSeparationScreen {
			setDefaultScreen
		} {
			getCompositeScreen FMSetScreen
		} ifelse
	} {
		FrameSepIs FMcustom eq {
			FMUseDefaultSpotSeparationScreen {
				setDefaultScreen
			} {
				getSpotScreen FMSetScreen
			} ifelse
		} {
			FMUseDefaultProcessSeparationScreen {
				setDefaultScreen
			} {
				FrameSepIs FMcyan eq {
					getCyanScreen FMSetScreen
				} {
					FrameSepIs FMmagenta eq {
						getMagentaScreen FMSetScreen
					} {
						FrameSepIs FMyellow eq {
							getYellowScreen FMSetScreen
						} {
							getBlackScreen FMSetScreen
						} ifelse
					} ifelse
				} ifelse
			} ifelse
		} ifelse
	} ifelse 
} bind def
end
	/gstring FMLOCAL
	/gfile FMLOCAL
	/gindex FMLOCAL
	/orgrxfer FMLOCAL
	/orggxfer FMLOCAL
	/orgbxfer FMLOCAL
	/orgxfer FMLOCAL
	/orgproc FMLOCAL
	/orgrproc FMLOCAL
	/orggproc FMLOCAL
	/orgbproc FMLOCAL
	/organgle FMLOCAL
	/orgrangle FMLOCAL
	/orggangle FMLOCAL
	/orgbangle FMLOCAL
	/orgfreq FMLOCAL
	/orgrfreq FMLOCAL
	/orggfreq FMLOCAL
	/orgbfreq FMLOCAL
	/yscale FMLOCAL
	/xscale FMLOCAL
	/edown FMLOCAL
	/manualfeed FMLOCAL
	/paperheight FMLOCAL
	/paperwidth FMLOCAL
/FMDOCUMENT { 
	array /FMfonts exch def 
	/#copies exch def
	FrameDict begin
	0 ne /manualfeed exch def
	/paperheight exch def
	/paperwidth exch def
	0 ne /FrameNegative exch def 
	0 ne /edown exch def 
	/yscale exch def
	/xscale exch def
	FMLevel1 {
		manualfeed {setmanualfeed} if
		/FMdicttop countdictstack 1 add def 
		/FMoptop count def 
		setpapername 
		manualfeed {true} {papersize} ifelse 
		{manualpapersize} {false} ifelse 
		{desperatepapersize} {false} ifelse 
		{ (Can't select requested paper size for Frame print job!) FMFAILURE } if
		count -1 FMoptop {pop pop} for
		countdictstack -1 FMdicttop {pop end} for 
		}
		{{1 dict dup /PageSize [paperwidth paperheight]put setpagedevice}stopped
		{ (Can't select requested paper size for Frame print job!) FMFAILURE } if
		 {1 dict dup /ManualFeed manualfeed put setpagedevice } stopped pop }
	ifelse 
	
	FMPColor {
		currentcolorscreen
			cvlit /orgproc exch def
				  /organgle exch def 
				  /orgfreq exch def
			cvlit /orgbproc exch def
				  /orgbangle exch def 
				  /orgbfreq exch def
			cvlit /orggproc exch def
				  /orggangle exch def 
				  /orggfreq exch def
			cvlit /orgrproc exch def
				  /orgrangle exch def 
				  /orgrfreq exch def
			currentcolortransfer 
			FrameNegative {
				1 1 4 { 
					pop { 1 exch sub } concatprocs 4 1 roll
				} for
				4 copy
				setcolortransfer
			} if
			cvlit /orgxfer exch def
			cvlit /orgbxfer exch def
			cvlit /orggxfer exch def
			cvlit /orgrxfer exch def
	} {
		currentscreen 
			cvlit /orgproc exch def
				  /organgle exch def 
				  /orgfreq exch def
				  
		currenttransfer 
		FrameNegative {
			{ 1 exch sub } concatprocs
			dup settransfer
		} if 
		cvlit /orgxfer exch def
	} ifelse
	end 
} def 
/pagesave FMLOCAL
/orgmatrix FMLOCAL
/landscape FMLOCAL
/pwid FMLOCAL
/FMBEGINPAGE { 
	FrameDict begin 
	/pagesave save def
	3.86 setmiterlimit
	/landscape exch 0 ne def
	landscape { 
		90 rotate 0 exch dup /pwid exch def neg translate pop 
	}{
		pop /pwid exch def
	} ifelse
	edown { [-1 0 0 1 pwid 0] concat } if
	0 0 moveto paperwidth 0 lineto paperwidth paperheight lineto 
	0 paperheight lineto 0 0 lineto 1 setgray fill
	xscale yscale scale
	/orgmatrix matrix def
	gsave 
} def 
/FMENDPAGE {
	grestore 
	pagesave restore
	end 
	showpage
	} def 
/FMFONTDEFINE { 
	FrameDict begin
	findfont 
	ReEncode 
	1 index exch 
	definefont 
	FMfonts 3 1 roll 
	put
	end 
	} def 
/FMFILLS {
	FrameDict begin dup
	array /fillvals exch def
	dict /patCache exch def
	end 
	} def 
/FMFILL {
	FrameDict begin
	 fillvals 3 1 roll put
	end 
	} def 
/FMNORMALIZEGRAPHICS { 
	newpath
	0.0 0.0 moveto
	1 setlinewidth
	0 setlinecap
	0 0 0 sethsbcolor
	0 setgray 
	} bind def
	/fx FMLOCAL
	/fy FMLOCAL
	/fh FMLOCAL
	/fw FMLOCAL
	/llx FMLOCAL
	/lly FMLOCAL
	/urx FMLOCAL
	/ury FMLOCAL
/FMBEGINEPSF { 
	end 
	/FMEPSF save def 
	/showpage {} def 
% See Adobe's "PostScript Language Reference Manual, 2nd Edition", page 714.
% "...the following operators MUST NOT be used in an EPS file:" (emphasis ours)
	/banddevice {(banddevice) FMBADEPSF} def
	/clear {(clear) FMBADEPSF} def
	/cleardictstack {(cleardictstack) FMBADEPSF} def 
	/copypage {(copypage) FMBADEPSF} def
	/erasepage {(erasepage) FMBADEPSF} def
	/exitserver {(exitserver) FMBADEPSF} def
	/framedevice {(framedevice) FMBADEPSF} def
	/grestoreall {(grestoreall) FMBADEPSF} def
	/initclip {(initclip) FMBADEPSF} def
	/initgraphics {(initgraphics) FMBADEPSF} def
	/initmatrix {(initmatrix) FMBADEPSF} def
	/quit {(quit) FMBADEPSF} def
	/renderbands {(renderbands) FMBADEPSF} def
	/setglobal {(setglobal) FMBADEPSF} def
	/setpagedevice {(setpagedevice) FMBADEPSF} def
	/setshared {(setshared) FMBADEPSF} def
	/startjob {(startjob) FMBADEPSF} def
	/lettertray {(lettertray) FMBADEPSF} def
	/letter {(letter) FMBADEPSF} def
	/lettersmall {(lettersmall) FMBADEPSF} def
	/11x17tray {(11x17tray) FMBADEPSF} def
	/11x17 {(11x17) FMBADEPSF} def
	/ledgertray {(ledgertray) FMBADEPSF} def
	/ledger {(ledger) FMBADEPSF} def
	/legaltray {(legaltray) FMBADEPSF} def
	/legal {(legal) FMBADEPSF} def
	/statementtray {(statementtray) FMBADEPSF} def
	/statement {(statement) FMBADEPSF} def
	/executivetray {(executivetray) FMBADEPSF} def
	/executive {(executive) FMBADEPSF} def
	/a3tray {(a3tray) FMBADEPSF} def
	/a3 {(a3) FMBADEPSF} def
	/a4tray {(a4tray) FMBADEPSF} def
	/a4 {(a4) FMBADEPSF} def
	/a4small {(a4small) FMBADEPSF} def
	/b4tray {(b4tray) FMBADEPSF} def
	/b4 {(b4) FMBADEPSF} def
	/b5tray {(b5tray) FMBADEPSF} def
	/b5 {(b5) FMBADEPSF} def
	FMNORMALIZEGRAPHICS 
	[/fy /fx /fh /fw /ury /urx /lly /llx] {exch def} forall 
	fx fw 2 div add fy fh 2 div add  translate
	rotate
	fw 2 div neg fh 2 div neg translate
	fw urx llx sub div fh ury lly sub div scale 
	llx neg lly neg translate 
	/FMdicttop countdictstack 1 add def 
	/FMoptop count def 
	} bind def
/FMENDEPSF {
	count -1 FMoptop {pop pop} for 
	countdictstack -1 FMdicttop {pop end} for 
	FMEPSF restore
	FrameDict begin 
	} bind def
FrameDict begin 
/setmanualfeed {
%%BeginFeature *ManualFeed True
	 statusdict /manualfeed true put
%%EndFeature
	} bind def
/max {2 copy lt {exch} if pop} bind def
/min {2 copy gt {exch} if pop} bind def
/inch {72 mul} def
/pagedimen { 
	paperheight sub abs 16 lt exch 
	paperwidth sub abs 16 lt and
	{/papername exch def} {pop} ifelse
	} bind def
	/papersizedict FMLOCAL
/setpapername { 
	/papersizedict 14 dict def 
	papersizedict begin
	/papername /unknown def 
		/Letter 8.5 inch 11.0 inch pagedimen
		/LetterSmall 7.68 inch 10.16 inch pagedimen
		/Tabloid 11.0 inch 17.0 inch pagedimen
		/Ledger 17.0 inch 11.0 inch pagedimen
		/Legal 8.5 inch 14.0 inch pagedimen
		/Statement 5.5 inch 8.5 inch pagedimen
		/Executive 7.5 inch 10.0 inch pagedimen
		/A3 11.69 inch 16.5 inch pagedimen
		/A4 8.26 inch 11.69 inch pagedimen
		/A4Small 7.47 inch 10.85 inch pagedimen
		/B4 10.125 inch 14.33 inch pagedimen
		/B5 7.16 inch 10.125 inch pagedimen
	end
	} bind def
/papersize {
	papersizedict begin
		/Letter {lettertray letter} def
		/LetterSmall {lettertray lettersmall} def
		/Tabloid {11x17tray 11x17} def
		/Ledger {ledgertray ledger} def
		/Legal {legaltray legal} def
		/Statement {statementtray statement} def
		/Executive {executivetray executive} def
		/A3 {a3tray a3} def
		/A4 {a4tray a4} def
		/A4Small {a4tray a4small} def
		/B4 {b4tray b4} def
		/B5 {b5tray b5} def
		/unknown {unknown} def
	papersizedict dup papername known {papername} {/unknown} ifelse get
	end
	statusdict begin stopped end 
	} bind def
/manualpapersize {
	papersizedict begin
		/Letter {letter} def
		/LetterSmall {lettersmall} def
		/Tabloid {11x17} def
		/Ledger {ledger} def
		/Legal {legal} def
		/Statement {statement} def
		/Executive {executive} def
		/A3 {a3} def
		/A4 {a4} def
		/A4Small {a4small} def
		/B4 {b4} def
		/B5 {b5} def
		/unknown {unknown} def
	papersizedict dup papername known {papername} {/unknown} ifelse get
	end
	stopped 
	} bind def
/desperatepapersize {
	statusdict /setpageparams known
		{
		paperwidth paperheight 0 1 
		statusdict begin
		{setpageparams} stopped 
		end
		} {true} ifelse 
	} bind def
/DiacriticEncoding [
/.notdef /.notdef /.notdef /.notdef /.notdef /.notdef /.notdef
/.notdef /.notdef /.notdef /.notdef /.notdef /.notdef /.notdef
/.notdef /.notdef /.notdef /.notdef /.notdef /.notdef /.notdef
/.notdef /.notdef /.notdef /.notdef /.notdef /.notdef /.notdef
/.notdef /.notdef /.notdef /.notdef /space /exclam /quotedbl
/numbersign /dollar /percent /ampersand /quotesingle /parenleft
/parenright /asterisk /plus /comma /hyphen /period /slash /zero /one
/two /three /four /five /six /seven /eight /nine /colon /semicolon
/less /equal /greater /question /at /A /B /C /D /E /F /G /H /I /J /K
/L /M /N /O /P /Q /R /S /T /U /V /W /X /Y /Z /bracketleft /backslash
/bracketright /asciicircum /underscore /grave /a /b /c /d /e /f /g /h
/i /j /k /l /m /n /o /p /q /r /s /t /u /v /w /x /y /z /braceleft /bar
/braceright /asciitilde /.notdef /Adieresis /Aring /Ccedilla /Eacute
/Ntilde /Odieresis /Udieresis /aacute /agrave /acircumflex /adieresis
/atilde /aring /ccedilla /eacute /egrave /ecircumflex /edieresis
/iacute /igrave /icircumflex /idieresis /ntilde /oacute /ograve
/ocircumflex /odieresis /otilde /uacute /ugrave /ucircumflex
/udieresis /dagger /.notdef /cent /sterling /section /bullet
/paragraph /germandbls /registered /copyright /trademark /acute
/dieresis /.notdef /AE /Oslash /.notdef /.notdef /.notdef /.notdef
/yen /.notdef /.notdef /.notdef /.notdef /.notdef /.notdef
/ordfeminine /ordmasculine /.notdef /ae /oslash /questiondown
/exclamdown /logicalnot /.notdef /florin /.notdef /.notdef
/guillemotleft /guillemotright /ellipsis /.notdef /Agrave /Atilde
/Otilde /OE /oe /endash /emdash /quotedblleft /quotedblright
/quoteleft /quoteright /.notdef /.notdef /ydieresis /Ydieresis
/fraction /currency /guilsinglleft /guilsinglright /fi /fl /daggerdbl
/periodcentered /quotesinglbase /quotedblbase /perthousand
/Acircumflex /Ecircumflex /Aacute /Edieresis /Egrave /Iacute
/Icircumflex /Idieresis /Igrave /Oacute /Ocircumflex /.notdef /Ograve
/Uacute /Ucircumflex /Ugrave /dotlessi /circumflex /tilde /macron
/breve /dotaccent /ring /cedilla /hungarumlaut /ogonek /caron
] def
/ReEncode { 
	dup 
	length 
	dict begin 
	{
	1 index /FID ne 
		{def} 
		{pop pop} ifelse 
	} forall 
	0 eq {/Encoding DiacriticEncoding def} if 
	currentdict 
	end 
	} bind def
FMPColor 
	
	{
	/BEGINBITMAPCOLOR { 
		BITMAPCOLOR} def
	/BEGINBITMAPCOLORc { 
		BITMAPCOLORc} def
	/BEGINBITMAPTRUECOLOR { 
		BITMAPTRUECOLOR } def
	/BEGINBITMAPTRUECOLORc { 
		BITMAPTRUECOLORc } def
	}
	
	{
	/BEGINBITMAPCOLOR { 
		BITMAPGRAY} def
	/BEGINBITMAPCOLORc { 
		BITMAPGRAYc} def
	/BEGINBITMAPTRUECOLOR { 
		BITMAPTRUEGRAY } def
	/BEGINBITMAPTRUECOLORc { 
		BITMAPTRUEGRAYc } def
	}
ifelse
/K { 
	FMPrintAllColorsAsBlack {
		dup 1 eq 2 index 1 eq and 3 index 1 eq and not
			{7 {pop} repeat 0 0 0 1 0 0 0} if
	} if 
	FrameCurColors astore 
	pop combineColor
} bind def
/graymode true def
	/bwidth FMLOCAL
	/bpside FMLOCAL
	/bstring FMLOCAL
	/onbits FMLOCAL
	/offbits FMLOCAL
	/xindex FMLOCAL
	/yindex FMLOCAL
	/x FMLOCAL
	/y FMLOCAL
/setPatternMode {
	FMLevel1 {
		/bwidth  exch def
		/bpside  exch def
		/bstring exch def
		/onbits 0 def  /offbits 0 def
		freq sangle landscape {90 add} if 
			{/y exch def
			 /x exch def
			 /xindex x 1 add 2 div bpside mul cvi def
			 /yindex y 1 add 2 div bpside mul cvi def
			 bstring yindex bwidth mul xindex 8 idiv add get
			 1 7 xindex 8 mod sub bitshift and 0 ne FrameNegative {not} if
			 {/onbits  onbits  1 add def 1}
			 {/offbits offbits 1 add def 0}
			 ifelse
			}
			setscreen
		offbits offbits onbits add div FrameNegative {1.0 exch sub} if
		/FrameCurGray exch def
	} { 
		pop pop
		dup patCache exch known {
			patCache exch get
		} { 
			dup
			patDict /bstring 3 -1 roll put
			patDict 
			9 PatFreq screenIndex get div dup matrix scale
			makepattern
			dup 
			patCache 4 -1 roll 3 -1 roll put
		} ifelse
		/FrameCurGray 0 def
		/FrameCurPat exch def
	} ifelse
	/graymode false def
	combineColor
} bind def
/setGrayScaleMode {
	graymode not {
		/graymode true def
		FMLevel1 {
			setCurrentScreen
		} if
	} if
	/FrameCurGray exch def
	combineColor
} bind def
/normalize {
	transform round exch round exch itransform
	} bind def
/dnormalize {
	dtransform round exch round exch idtransform
	} bind def
/lnormalize { 
	0 dtransform exch cvi 2 idiv 2 mul 1 add exch idtransform pop
	} bind def
/H { 
	lnormalize setlinewidth
	} bind def
/Z {
	setlinecap
	} bind def
	
/PFill {
	graymode FMLevel1 or not {
		gsave 1 setgray eofill grestore
	} if
} bind def
/PStroke {
	graymode FMLevel1 or not {
		gsave 1 setgray stroke grestore
	} if
	stroke
} bind def
	/fillvals FMLOCAL
/X { 
	fillvals exch get
	dup type /stringtype eq
	{8 1 setPatternMode} 
	{setGrayScaleMode}
	ifelse
	} bind def
/V { 
	PFill gsave eofill grestore
	} bind def
/Vclip {
	clip
	} bind def
/Vstrk {
	currentlinewidth exch setlinewidth PStroke setlinewidth
	} bind def
/N { 
	PStroke
	} bind def
/Nclip {
	strokepath clip newpath
	} bind def
/Nstrk {
	currentlinewidth exch setlinewidth PStroke setlinewidth
	} bind def
/M {newpath moveto} bind def
/E {lineto} bind def
/D {curveto} bind def
/O {closepath} bind def
	/n FMLOCAL
/L { 
 	/n exch def
	newpath
	normalize
	moveto 
	2 1 n {pop normalize lineto} for
	} bind def
/Y { 
	L 
	closepath
	} bind def
	/x1 FMLOCAL
	/x2 FMLOCAL
	/y1 FMLOCAL
	/y2 FMLOCAL
/R { 
	/y2 exch def
	/x2 exch def
	/y1 exch def
	/x1 exch def
	x1 y1
	x2 y1
	x2 y2
	x1 y2
	4 Y 
	} bind def
	/rad FMLOCAL
/rarc 
	{rad 
	 arcto
	} bind def
/RR { 
	/rad exch def
	normalize
	/y2 exch def
	/x2 exch def
	normalize
	/y1 exch def
	/x1 exch def
	mark
	newpath
	{
	x1 y1 rad add moveto
	x1 y2 x2 y2 rarc
	x2 y2 x2 y1 rarc
	x2 y1 x1 y1 rarc
	x1 y1 x1 y2 rarc
	closepath
	} stopped {x1 y1 x2 y2 R} if 
	cleartomark
	} bind def
/RRR { 
	/rad exch def
	normalize /y4 exch def /x4 exch def
	normalize /y3 exch def /x3 exch def
	normalize /y2 exch def /x2 exch def
	normalize /y1 exch def /x1 exch def
	newpath
	normalize moveto 
	mark
	{
	x2 y2 x3 y3 rarc
	x3 y3 x4 y4 rarc
	x4 y4 x1 y1 rarc
	x1 y1 x2 y2 rarc
	closepath
	} stopped
	 {x1 y1 x2 y2 x3 y3 x4 y4 newpath moveto lineto lineto lineto closepath} if
	cleartomark
	} bind def
/C { 
	grestore
	gsave
	R 
	clip
	setCurrentScreen
} bind def
/CP { 
	grestore
	gsave
	Y 
	clip
	setCurrentScreen
} bind def
	/FMpointsize FMLOCAL
/F { 
	FMfonts exch get
	FMpointsize scalefont
	setfont
	} bind def
/Q { 
	/FMpointsize exch def
	F 
	} bind def
/T { 
	moveto show
	} bind def
/RF { 
	rotate
	0 ne {-1 1 scale} if
	} bind def
/TF { 
	gsave
	moveto 
	RF
	show
	grestore
	} bind def
/P { 
	moveto
	0 32 3 2 roll widthshow
	} bind def
/PF { 
	gsave
	moveto 
	RF
	0 32 3 2 roll widthshow
	grestore
	} bind def
/S { 
	moveto
	0 exch ashow
	} bind def
/SF { 
	gsave
	moveto
	RF
	0 exch ashow
	grestore
	} bind def
/B { 
	moveto
	0 32 4 2 roll 0 exch awidthshow
	} bind def
/BF { 
	gsave
	moveto
	RF
	0 32 4 2 roll 0 exch awidthshow
	grestore
	} bind def
/G { 
	gsave
	newpath
	normalize translate 0.0 0.0 moveto 
	dnormalize scale 
	0.0 0.0 1.0 5 3 roll arc 
	closepath 
	PFill fill
	grestore
	} bind def
/Gstrk {
	savematrix
    newpath
    2 index 2 div add exch 3 index 2 div sub exch 
    normalize 2 index 2 div sub exch 3 index 2 div add exch 
    translate
    scale 
    0.0 0.0 1.0 5 3 roll arc 
    restorematrix
    currentlinewidth exch setlinewidth PStroke setlinewidth
    } bind def
/Gclip { 
	newpath
	savematrix
	normalize translate 0.0 0.0 moveto 
	dnormalize scale 
	0.0 0.0 1.0 5 3 roll arc 
	closepath 
	clip newpath
	restorematrix
	} bind def
/GG { 
	gsave
	newpath
	normalize translate 0.0 0.0 moveto 
	rotate 
	dnormalize scale 
	0.0 0.0 1.0 5 3 roll arc 
	closepath
	PFill
	fill
	grestore
	} bind def
/GGclip { 
	savematrix
	newpath
    normalize translate 0.0 0.0 moveto 
    rotate 
    dnormalize scale 
    0.0 0.0 1.0 5 3 roll arc 
    closepath
	clip newpath
	restorematrix
	} bind def
/GGstrk { 
	savematrix
    newpath
    normalize translate 0.0 0.0 moveto 
    rotate 
    dnormalize scale 
    0.0 0.0 1.0 5 3 roll arc 
    closepath 
	restorematrix
    currentlinewidth exch setlinewidth PStroke setlinewidth
	} bind def
/A { 
	gsave
	savematrix
	newpath
	2 index 2 div add exch 3 index 2 div sub exch 
	normalize 2 index 2 div sub exch 3 index 2 div add exch 
	translate 
	scale 
	0.0 0.0 1.0 5 3 roll arc 
	restorematrix
	PStroke
	grestore
	} bind def
/Aclip {
	newpath
	savematrix
	normalize translate 0.0 0.0 moveto 
	dnormalize scale 
	0.0 0.0 1.0 5 3 roll arc 
	closepath 
	strokepath clip newpath
	restorematrix
} bind def
/Astrk {
	Gstrk
} bind def
/AA { 
	gsave
	savematrix
	newpath
	
	3 index 2 div add exch 4 index 2 div sub exch 
	
	normalize 3 index 2 div sub exch 4 index 2 div add exch
	translate 
	rotate 
	scale 
	0.0 0.0 1.0 5 3 roll arc 
	restorematrix
	PStroke
	grestore
	} bind def
/AAclip {
	savematrix
	newpath
    normalize translate 0.0 0.0 moveto 
    rotate 
    dnormalize scale 
    0.0 0.0 1.0 5 3 roll arc 
    closepath
	strokepath clip newpath
	restorematrix
} bind def
/AAstrk {
	GGstrk
} bind def
	/x FMLOCAL
	/y FMLOCAL
	/w FMLOCAL
	/h FMLOCAL
	/xx FMLOCAL
	/yy FMLOCAL
	/ww FMLOCAL
	/hh FMLOCAL
	/FMsaveobject FMLOCAL
	/FMoptop FMLOCAL
	/FMdicttop FMLOCAL
/BEGINPRINTCODE { 
	/FMdicttop countdictstack 1 add def 
	/FMoptop count 7 sub def 
	/FMsaveobject save def
	userdict begin 
	/showpage {} def 
	FMNORMALIZEGRAPHICS 
	3 index neg 3 index neg translate
	} bind def
/ENDPRINTCODE {
	count -1 FMoptop {pop pop} for 
	countdictstack -1 FMdicttop {pop end} for 
	FMsaveobject restore 
	} bind def
/gn { 
	0 
	{	46 mul 
		cf read pop 
		32 sub 
		dup 46 lt {exit} if 
		46 sub add 
		} loop
	add 
	} bind def
	/str FMLOCAL
/cfs { 
	/str sl string def 
	0 1 sl 1 sub {str exch val put} for 
	str def 
	} bind def
/ic [ 
	0 0 0 0 0 0 0 0 0 0 0 0 0 0 0 0223
	0 0 0 0 0 0 0 0 0 0 0 0 0 0 0 0223
	0
	{0 hx} {1 hx} {2 hx} {3 hx} {4 hx} {5 hx} {6 hx} {7 hx} {8 hx} {9 hx}
	{10 hx} {11 hx} {12 hx} {13 hx} {14 hx} {15 hx} {16 hx} {17 hx} {18 hx}
	{19 hx} {gn hx} {0} {1} {2} {3} {4} {5} {6} {7} {8} {9} {10} {11} {12}
	{13} {14} {15} {16} {17} {18} {19} {gn} {0 wh} {1 wh} {2 wh} {3 wh}
	{4 wh} {5 wh} {6 wh} {7 wh} {8 wh} {9 wh} {10 wh} {11 wh} {12 wh}
	{13 wh} {14 wh} {gn wh} {0 bl} {1 bl} {2 bl} {3 bl} {4 bl} {5 bl} {6 bl}
	{7 bl} {8 bl} {9 bl} {10 bl} {11 bl} {12 bl} {13 bl} {14 bl} {gn bl}
	{0 fl} {1 fl} {2 fl} {3 fl} {4 fl} {5 fl} {6 fl} {7 fl} {8 fl} {9 fl}
	{10 fl} {11 fl} {12 fl} {13 fl} {14 fl} {gn fl}
	] def
	/sl FMLOCAL
	/val FMLOCAL
	/ws FMLOCAL
	/im FMLOCAL
	/bs FMLOCAL
	/cs FMLOCAL
	/len FMLOCAL
	/pos FMLOCAL
/ms { 
	/sl exch def 
	/val 255 def 
	/ws cfs 
	/im cfs 
	/val 0 def 
	/bs cfs 
	/cs cfs 
	} bind def
400 ms 
/ip { 
	is 
	0 
	cf cs readline pop 
	{	ic exch get exec 
		add 
		} forall 
	pop 
	
	} bind def
/rip { 
	   
	  
	  bis ris copy pop 
      is
      0
      cf cs readline pop 
      {       ic exch get exec 
              add 
              } forall 
	  pop pop 
	  ris gis copy pop 
	  dup is exch 
	  
      cf cs readline pop 
      {       ic exch get exec 
              add 
              } forall 
	  pop pop
	  gis bis copy pop 
	  dup add is exch 
	  
      cf cs readline pop 
      {       ic exch get exec 
              add 
              } forall 
      pop 
      
      } bind def
/wh { 
	/len exch def 
	/pos exch def 
	ws 0 len getinterval im pos len getinterval copy pop
	pos len 
	} bind def
/bl { 
	/len exch def 
	/pos exch def 
	bs 0 len getinterval im pos len getinterval copy pop
	pos len 
	} bind def
/s1 1 string def
/fl { 
	/len exch def 
	/pos exch def 
	/val cf s1 readhexstring pop 0 get def
	pos 1 pos len add 1 sub {im exch val put} for
	pos len 
	} bind def
/hx { 
	3 copy getinterval 
	cf exch readhexstring pop pop 
	} bind def
	/h FMLOCAL
	/w FMLOCAL
	/d FMLOCAL
	/lb FMLOCAL
	/bitmapsave FMLOCAL
	/is FMLOCAL
	/cf FMLOCAL
/wbytes { 
      dup dup
      24 eq { pop pop 3 mul }
      { 8 eq {pop} {1 eq {7 add 8 idiv} {3 add 4 idiv} ifelse} ifelse } ifelse
	} bind def
/BEGINBITMAPBWc { 
	1 {} COMMONBITMAPc
	} bind def
/BEGINBITMAPGRAYc { 
	8 {} COMMONBITMAPc
	} bind def
/BEGINBITMAP2BITc { 
	2 {} COMMONBITMAPc
	} bind def
/COMMONBITMAPc { 
		 
	/r exch def
	/d exch def
	gsave
	
	3 index 2 div add exch	
	4 index 2 div add exch	
	translate		
	rotate			
	1 index 2 div neg	
	1 index 2 div neg	
	translate		
	scale			
	/h exch def /w exch def
	/lb w d wbytes def 
	sl lb lt {lb ms} if 
	/bitmapsave save def 
	r                    
	/is im 0 lb getinterval def 
	ws 0 lb getinterval is copy pop 
	/cf currentfile def 
	w h d [w 0 0 h neg 0 h] 
	{ip} image 
	bitmapsave restore 
	grestore
	} bind def
/BEGINBITMAPBW { 
	1 {} COMMONBITMAP
	} bind def
/BEGINBITMAPGRAY { 
	8 {} COMMONBITMAP
	} bind def
/BEGINBITMAP2BIT { 
	2 {} COMMONBITMAP
	} bind def
/COMMONBITMAP { 
	/r exch def
	/d exch def
	gsave
	
	3 index 2 div add exch	
	4 index 2 div add exch	
	translate		
	rotate			
	1 index 2 div neg	
	1 index 2 div neg	
	translate		
	scale			
	/h exch def /w exch def
	/bitmapsave save def 
	r                    
	/is w d wbytes string def
	/cf currentfile def 
	w h d [w 0 0 h neg 0 h] 
	{cf is readhexstring pop} image
	bitmapsave restore 
	grestore
	} bind def
/ngrayt 256 array def
/nredt 256 array def
/nbluet 256 array def
/ngreent 256 array def
	/gryt FMLOCAL
	/blut FMLOCAL
	/grnt FMLOCAL
	/redt FMLOCAL
	/indx FMLOCAL
	/cynu FMLOCAL
	/magu FMLOCAL
	/yelu FMLOCAL
	/k FMLOCAL
	/u FMLOCAL
FMLevel1 {
/colorsetup {
	currentcolortransfer
	/gryt exch def
	/blut exch def
	/grnt exch def
	/redt exch def
	0 1 255 {
		/indx exch def
		/cynu 1 red indx get 255 div sub def
		/magu 1 green indx get 255 div sub def
		/yelu 1 blue indx get 255 div sub def
		/k cynu magu min yelu min def
		/u k currentundercolorremoval exec def
%		/u 0 def
		nredt indx 1 0 cynu u sub max sub redt exec put
		ngreent indx 1 0 magu u sub max sub grnt exec put
		nbluet indx 1 0 yelu u sub max sub blut exec put
		ngrayt indx 1 k currentblackgeneration exec sub gryt exec put
	} for
	{255 mul cvi nredt exch get}
	{255 mul cvi ngreent exch get}
	{255 mul cvi nbluet exch get}
	{255 mul cvi ngrayt exch get}
	setcolortransfer
	{pop 0} setundercolorremoval
	{} setblackgeneration
	} bind def
}
{
/colorSetup2 {
	[ /Indexed /DeviceRGB 255 
		{dup red exch get 255 div 
		 exch dup green exch get 255 div 
		 exch blue exch get 255 div}
	] setcolorspace
} bind def
} ifelse
	/tran FMLOCAL
/fakecolorsetup {
	/tran 256 string def
	0 1 255 {/indx exch def 
		tran indx
		red indx get 77 mul
		green indx get 151 mul
		blue indx get 28 mul
		add add 256 idiv put} for
	currenttransfer
	{255 mul cvi tran exch get 255.0 div}
	exch concatprocs settransfer
} bind def
/BITMAPCOLOR { 
	/d 8 def
	gsave
	
	3 index 2 div add exch	
	4 index 2 div add exch	
	translate		
	rotate			
	1 index 2 div neg	
	1 index 2 div neg	
	translate		
	scale			
	/h exch def /w exch def
	/bitmapsave save def
	FMLevel1 {	
		colorsetup
		/is w d wbytes string def
		/cf currentfile def 
		w h d [w 0 0 h neg 0 h] 
		{cf is readhexstring pop} {is} {is} true 3 colorimage 
	} {
		colorSetup2
		/is w d wbytes string def
		/cf currentfile def 
		7 dict dup begin
			/ImageType 1 def
			/Width w def
			/Height h def
			/ImageMatrix [w 0 0 h neg 0 h] def
			/DataSource {cf is readhexstring pop} bind def
			/BitsPerComponent d def
			/Decode [0 255] def
		end image	
	} ifelse
	bitmapsave restore 
	grestore
	} bind def
/BITMAPCOLORc { 
	/d 8 def
	gsave
	
	3 index 2 div add exch	
	4 index 2 div add exch	
	translate		
	rotate			
	1 index 2 div neg	
	1 index 2 div neg	
	translate		
	scale			
	/h exch def /w exch def
	/lb w d wbytes def 
	sl lb lt {lb ms} if 
	/bitmapsave save def 
	FMLevel1 {	
		colorsetup
		/is im 0 lb getinterval def 
		ws 0 lb getinterval is copy pop 
		/cf currentfile def 
		w h d [w 0 0 h neg 0 h] 
		{ip} {is} {is} true 3 colorimage
	} {
		colorSetup2
		/is im 0 lb getinterval def 
		ws 0 lb getinterval is copy pop 
		/cf currentfile def 
		7 dict dup begin
			/ImageType 1 def
			/Width w def
			/Height h def
			/ImageMatrix [w 0 0 h neg 0 h] def
			/DataSource {ip} bind def
			/BitsPerComponent d def
			/Decode [0 255] def
		end image	
	} ifelse
	bitmapsave restore 
	grestore
	} bind def
/BITMAPTRUECOLORc { 
	/d 24 def
        gsave
 	
	3 index 2 div add exch	
	4 index 2 div add exch	
	translate		
	rotate			
	1 index 2 div neg	
	1 index 2 div neg	
	translate		
	scale			
	/h exch def /w exch def
	/lb w d wbytes def 
	sl lb lt {lb ms} if 
        /bitmapsave save def 
        
	/is im 0 lb getinterval def	
	/ris im 0 w getinterval def	
	/gis im w w getinterval def	
	/bis im w 2 mul w getinterval def 
        
        ws 0 lb getinterval is copy pop 
        /cf currentfile def 
        w h 8 [w 0 0 h neg 0 h] 
        {w rip pop ris} {gis} {bis} true 3 colorimage
        bitmapsave restore 
        grestore
        } bind def
/BITMAPTRUECOLOR { 
        gsave
		
		3 index 2 div add exch	
		4 index 2 div add exch	
		translate		
		rotate			
		1 index 2 div neg	
		1 index 2 div neg	
		translate		
		scale			
		/h exch def /w exch def
        /bitmapsave save def 
        /is w string def
        /gis w string def
        /bis w string def
        /cf currentfile def 
        w h 8 [w 0 0 h neg 0 h] 
        { cf is readhexstring pop } 
        { cf gis readhexstring pop } 
        { cf bis readhexstring pop } 
        true 3 colorimage 
        bitmapsave restore 
        grestore
        } bind def
/BITMAPTRUEGRAYc { 
	/d 24 def
        gsave
	
	3 index 2 div add exch	
	4 index 2 div add exch	
	translate		
	rotate			
	1 index 2 div neg	
	1 index 2 div neg	
	translate		
	scale			
	/h exch def /w exch def
	/lb w d wbytes def 
	sl lb lt {lb ms} if 
        /bitmapsave save def 
        
	/is im 0 lb getinterval def	
	/ris im 0 w getinterval def	
	/gis im w w getinterval def	
	/bis im w 2 mul w getinterval def 
        ws 0 lb getinterval is copy pop 
        /cf currentfile def 
        w h 8 [w 0 0 h neg 0 h] 
        {w rip pop ris gis bis w gray} image
        bitmapsave restore 
        grestore
        } bind def
/ww FMLOCAL
/r FMLOCAL
/g FMLOCAL
/b FMLOCAL
/i FMLOCAL
/gray { 
        /ww exch def
        /b exch def
        /g exch def
        /r exch def
        0 1 ww 1 sub { /i exch def r i get .299 mul g i get .587 mul
			b i get .114 mul add add r i 3 -1 roll floor cvi put } for
        r
        } bind def
/BITMAPTRUEGRAY { 
        gsave
		
		3 index 2 div add exch	
		4 index 2 div add exch	
		translate		
		rotate			
		1 index 2 div neg	
		1 index 2 div neg	
		translate		
		scale			
		/h exch def /w exch def
        /bitmapsave save def 
        /is w string def
        /gis w string def
        /bis w string def
        /cf currentfile def 
        w h 8 [w 0 0 h neg 0 h] 
        { cf is readhexstring pop 
          cf gis readhexstring pop 
          cf bis readhexstring pop w gray}  image
        bitmapsave restore 
        grestore
        } bind def
/BITMAPGRAY { 
	8 {fakecolorsetup} COMMONBITMAP
	} bind def
/BITMAPGRAYc { 
	8 {fakecolorsetup} COMMONBITMAPc
	} bind def
/ENDBITMAP {
	} bind def
end 
	/ALDsave FMLOCAL
	/ALDmatrix matrix def ALDmatrix currentmatrix pop
/StartALD {
	/ALDsave save def
	 savematrix
	 ALDmatrix setmatrix
	} bind def
/InALD {
	 restorematrix
	} bind def
/DoneALD {
	 ALDsave restore
	} bind def
/I { setdash } bind def
/J { [] 0 setdash } bind def
%%EndProlog
%%BeginSetup
(4.0) FMVERSION
1 1 0 0 612 792 0 1 6 FMDOCUMENT
0 0 /Helvetica FMFONTDEFINE
1 0 /Helvetica-Bold FMFONTDEFINE
2 0 /Palatino-Roman FMFONTDEFINE
3 1 /Symbol FMFONTDEFINE
32 FMFILLS
0 0 FMFILL
1 0.1 FMFILL
2 0.3 FMFILL
3 0.5 FMFILL
4 0.7 FMFILL
5 0.9 FMFILL
6 0.97 FMFILL
7 1 FMFILL
8 <0f1e3c78f0e1c387> FMFILL
9 <0f87c3e1f0783c1e> FMFILL
10 <cccccccccccccccc> FMFILL
11 <ffff0000ffff0000> FMFILL
12 <8142241818244281> FMFILL
13 <03060c183060c081> FMFILL
14 <8040201008040201> FMFILL
16 1 FMFILL
17 0.9 FMFILL
18 0.7 FMFILL
19 0.5 FMFILL
20 0.3 FMFILL
21 0.1 FMFILL
22 0.03 FMFILL
23 0 FMFILL
24 <f0e1c3870f1e3c78> FMFILL
25 <f0783c1e0f87c3e1> FMFILL
26 <3333333333333333> FMFILL
27 <0000ffff0000ffff> FMFILL
28 <7ebddbe7e7dbbd7e> FMFILL
29 <fcf9f3e7cf9f3f7e> FMFILL
30 <7fbfdfeff7fbfdfe> FMFILL
%%EndSetup
%%Page: "53" 1
%%BeginPaperSize: Letter
%%EndPaperSize
612 792 0 FMBEGINPAGE
[0 0 0 1 0 0 0]
[ 0 1 1 0 1 0 0]
[ 0 1 1 0 1 0 0]
[ 1 0 1 0 0 1 0]
[ 1 1 0 0 0 0 1]
[ 1 0 0 0 0 1 1]
[ 0 1 0 0 1 0 1]
[ 0 0 1 0 1 1 0]
 8 FrameSetSepColors
FrameNoSep
0 0 0 1 0 0 0 K
J
0 0 0 1 0 0 0 K
0 8 Q
0 X
0 0 0 1 0 0 0 K
(23) 147.42 592.67 T
(960x680) 172.3 592.67 T
(60) 223.2 592.67 T
(No) 249.23 592.67 T
(1) 273.42 592.67 T
(54.432000) 296.59 592.67 T
(18.371546) 344.22 592.67 T
(960) 400.78 592.67 T
(17.64) 427.04 592.67 T
(1260) 461.37 592.67 T
(23.15) 490.41 592.67 T
(43.200) 522.9 592.67 T
(95) 569.73 592.67 T
(1.75) 595.99 592.67 T
(24) 147.42 574.67 T
(960x680) 172.3 574.67 T
(50) 223.2 574.67 T
(No) 249.23 574.67 T
(1) 273.42 574.67 T
(45.738000) 296.59 574.67 T
(21.863658) 344.22 574.67 T
(960) 400.78 574.67 T
(20.99) 427.04 574.67 T
(1260) 461.37 574.67 T
(27.55) 490.41 574.67 T
(36.300) 522.9 574.67 T
(95) 569.73 574.67 T
(2.08) 595.99 574.67 T
(25) 147.42 556.67 T
(960x802) 172.3 556.67 T
(30) 223.2 556.67 T
(Y) 247.82 556.67 T
(es) 252.42 556.67 T
(2) 273.42 556.67 T
(30.975000) 296.59 556.67 T
(32.284100) 344.22 556.67 T
(960) 400.78 556.67 T
(30.99) 427.04 556.67 T
(1) 461.96 556.67 T
(180) 465.82 556.67 T
(38.10) 490.41 556.67 T
(26.250) 522.9 556.67 T
(85) 569.73 556.67 T
(2.74) 595.99 556.67 T
145.5 532.25 164.23 548.5 R
7 X
V
0 X
(26) 147.42 538.67 T
(1280x1024) 167.85 538.67 T
(60) 223.2 538.67 T
(No) 249.23 538.67 T
(1) 273.42 538.67 T
(107.352000) 292.14 538.67 T
(9.315150) 348.67 538.67 T
(1280) 396.33 538.67 T
(1) 427.64 538.67 T
(1.92) 431.49 538.67 T
(1680) 461.37 538.67 T
(15.65) 490.41 538.67 T
(63.900) 522.9 538.67 T
(120) 565.28 538.67 T
(1.12) 595.99 538.67 T
145.5 515.5 164.23 531.75 R
7 X
V
0 X
(26a) 145.19 520.67 T
(59.94) 217.64 520.67 T
(1) 292.73 520.67 T
(18.087000) 296.59 520.67 T
(8.468332) 348.67 520.67 T
(10.84) 427.04 520.67 T
(1850) 461.37 520.67 T
(15.67) 490.41 520.67 T
(63.83) 527.34 520.67 T
(1.02) 595.99 520.67 T
(27) 147.42 502.67 T
(1280x1024) 167.85 502.67 T
(60) 223.2 502.67 T
(No) 249.23 502.67 T
(1) 273.42 502.67 T
(105.840000) 292.14 502.67 T
(9.448224) 348.67 502.67 T
(1280) 396.33 502.67 T
(12.09) 427.04 502.67 T
(1680) 461.37 502.67 T
(15.87) 490.41 502.67 T
(63.900) 522.9 502.67 T
(120) 565.28 502.67 T
(1.13) 595.99 502.67 T
145.5 478.25 164.23 494.5 R
7 X
V
0 X
(28) 147.42 484.67 T
(1280x1024) 167.85 484.67 T
(50) 223.2 484.67 T
(No) 249.23 484.67 T
(1) 273.42 484.67 T
(105.000000) 292.14 484.67 T
(9.523810) 348.67 484.67 T
(1280) 396.33 484.67 T
(12.19) 427.04 484.67 T
(1680) 461.37 484.67 T
(16.00) 490.41 484.67 T
(62.500) 522.9 484.67 T
(120) 565.28 484.67 T
(1.14) 595.99 484.67 T
145.5 461.5 164.23 477.75 R
7 X
V
0 X
(28a) 145.19 466.67 T
(49.99) 217.64 466.67 T
(97.750000) 296.59 466.67 T
(10.23017) 348.67 466.67 T
(13.09) 427.04 466.67 T
(17.19) 490.41 466.67 T
(58.18) 527.34 466.67 T
(1.23) 595.99 466.67 T
(29) 147.42 448.67 T
(1025x768) 170.08 448.67 T
(96) 223.2 448.67 T
(No) 249.23 448.67 T
(2) 273.42 448.67 T
(103.425120) 292.14 448.67 T
(9.668831) 348.67 448.67 T
(1025) 396.33 448.67 T
(9.91) 431.49 448.67 T
(1335) 461.37 448.67 T
(12.91) 490.41 448.67 T
(77.472) 522.9 448.67 T
(105) 565.28 448.67 T
(1.02) 595.99 448.67 T
(30) 147.42 430.67 T
(640x512) 172.3 430.67 T
(120) 220.97 430.67 T
(No) 249.23 430.67 T
(2) 273.42 430.67 T
(54.048000) 296.59 430.67 T
(18.502072) 344.22 430.67 T
(640) 400.78 430.67 T
(1) 427.64 430.67 T
(1.84) 431.49 430.67 T
(800) 465.82 430.67 T
(14.80) 490.41 430.67 T
(67.560) 522.9 430.67 T
(55) 569.73 430.67 T
(1.02) 595.99 430.67 T
(31) 147.42 412.67 T
(815x61) 172.6 412.67 T
(1) 198.24 412.67 T
(120) 220.97 412.67 T
(No) 249.23 412.67 T
(2) 273.42 412.67 T
(83.070000) 296.59 412.67 T
(12.038040) 344.22 412.67 T
(815) 400.78 412.67 T
(9.81) 431.49 412.67 T
(1065) 461.37 412.67 T
(12.82) 490.41 412.67 T
(78.000) 522.9 412.67 T
(95) 569.73 412.67 T
(1.14) 595.99 412.67 T
(32) 147.42 394.67 T
(960x680) 172.3 394.67 T
(108) 220.97 394.67 T
(No) 249.23 394.67 T
(2) 273.42 394.67 T
(97.588800) 296.59 394.67 T
(10.247078) 344.22 394.67 T
(960) 400.78 394.67 T
(9.84) 431.49 394.67 T
(1255) 461.37 394.67 T
(12.86) 490.41 394.67 T
(77.760) 522.9 394.67 T
(95) 569.73 394.67 T
(0.97) 595.99 394.67 T
(33) 147.42 376.67 T
(1280x1024) 167.85 376.67 T
(25) 223.2 376.67 T
(Y) 247.82 376.67 T
(es) 252.42 376.67 T
(2) 273.42 376.67 T
(105.000000) 292.14 376.67 T
(9.523810) 348.67 376.67 T
(1280) 396.33 376.67 T
(12.19) 427.04 376.67 T
(1680) 461.37 376.67 T
(16.00) 490.41 376.67 T
(62.500) 522.9 376.67 T
(120) 565.28 376.67 T
(1.14) 595.99 376.67 T
(34) 147.42 358.67 T
(1280x1024) 167.85 358.67 T
(30) 223.2 358.67 T
(Y) 247.82 358.67 T
(es) 252.42 358.67 T
(2) 273.42 358.67 T
(105.840000) 292.14 358.67 T
(9.448224) 348.67 358.67 T
(1280) 396.33 358.67 T
(12.09) 427.04 358.67 T
(1680) 461.37 358.67 T
(15.87) 490.41 358.67 T
(63.000) 522.9 358.67 T
(120) 565.28 358.67 T
(1.13) 595.99 358.67 T
145.5 334.25 164.23 350.5 R
7 X
V
0 X
(35) 147.42 340.67 T
(1280x492) 170.08 340.67 T
(120) 220.97 340.67 T
(No) 249.23 340.67 T
(2) 273.42 340.67 T
(107.452800) 292.14 340.67 T
(9.306412) 348.67 340.67 T
(1280) 396.33 340.67 T
(1) 427.64 340.67 T
(1.91) 431.49 340.67 T
(1680) 461.37 340.67 T
(15.63) 490.41 340.67 T
(63.960) 522.9 340.67 T
(120) 565.28 340.67 T
(1.12) 595.99 340.67 T
145.5 317.5 164.23 333.75 R
7 X
V
0 X
(35a) 145.19 322.67 T
(1) 215.71 322.67 T
(19.89) 219.56 322.67 T
(107.352000) 292.14 322.67 T
(9.315150) 348.67 322.67 T
(1) 427.64 322.67 T
(1.92) 431.49 322.67 T
(15.65) 490.41 322.67 T
(63.90) 527.34 322.67 T
(36) 147.42 304.67 T
(1280x512) 170.08 304.67 T
(120) 220.97 304.67 T
(No) 249.23 304.67 T
(2) 273.42 304.67 T
(1) 293.32 304.67 T
(1) 297.18 304.67 T
(1.484800) 301.03 304.67 T
(8.969833) 348.67 304.67 T
(1280) 396.33 304.67 T
(1) 427.64 304.67 T
(1.48) 431.49 304.67 T
(1680) 461.37 304.67 T
(15.07) 490.41 304.67 T
(66.360) 522.9 304.67 T
(120) 565.28 304.67 T
(1.08) 595.99 304.67 T
(37) 147.42 286.67 T
(1920x1035) 167.85 286.67 T
(30) 223.2 286.67 T
(Y) 247.82 286.67 T
(es) 252.42 286.67 T
(2) 273.42 286.67 T
(74.250000) 296.59 286.67 T
(13.468013) 344.22 286.67 T
(1920) 396.33 286.67 T
(25.86) 427.04 286.67 T
(2200) 461.37 286.67 T
(29.63) 490.41 286.67 T
(33.750) 522.9 286.67 T
(45) 569.73 286.67 T
(0.61) 595.99 286.67 T
(38) 147.42 268.67 T
(1920x1) 168.15 268.67 T
(152) 193.8 268.67 T
(25) 223.2 268.67 T
(Y) 247.82 268.67 T
(es) 252.42 268.67 T
(2) 273.42 268.67 T
(71.817500) 296.59 268.67 T
(13.924183) 344.22 268.67 T
(1920) 396.33 268.67 T
(26.73) 427.04 268.67 T
(2300) 461.37 268.67 T
(32.03) 490.41 268.67 T
(31.225) 522.9 268.67 T
(130) 565.28 268.67 T
(1.81) 595.99 268.67 T
(39) 147.42 250.67 T
(1920x1) 168.15 250.67 T
(152) 193.8 250.67 T
(25) 223.2 250.67 T
(Y) 247.82 250.67 T
(es) 252.42 250.67 T
(2) 273.42 250.67 T
(71.875000) 296.59 250.67 T
(13.913043) 344.22 250.67 T
(1920) 396.33 250.67 T
(26.71) 427.04 250.67 T
(2300) 461.37 250.67 T
(32.00) 490.41 250.67 T
(31.250) 522.9 250.67 T
(65) 569.73 250.67 T
(0.90) 595.99 250.67 T
(40) 147.42 232.67 T
(640x480) 172.3 232.67 T
(60) 223.2 232.67 T
(Y) 247.82 232.67 T
(es) 252.42 232.67 T
(3) 273.42 232.67 T
(82.368000) 296.59 232.67 T
(12.140637) 344.22 232.67 T
(640) 400.78 232.67 T
(7.77) 431.49 232.67 T
(880) 465.82 232.67 T
(10.68) 490.41 232.67 T
(93.600) 522.9 232.67 T
(80) 569.73 232.67 T
(0.97) 595.99 232.67 T
(41) 147.42 214.67 T
(1280x960) 170.08 214.67 T
(30) 223.2 214.67 T
(Y) 247.82 214.67 T
(es) 252.42 214.67 T
(6) 273.42 214.67 T
(164.736000) 292.14 214.67 T
(6.070319) 348.67 214.67 T
(1280) 396.33 214.67 T
(7.77) 431.49 214.67 T
(1760) 461.37 214.67 T
(10.68) 490.41 214.67 T
(93.600) 522.9 214.67 T
(160) 565.28 214.67 T
(0.97) 595.99 214.67 T
1 9 Q
(T) 144 714 T
(able) 148.83 714 T
(4-36) 169.34 714 T
2 F
(\050Continued\051) 182.35 714 T
(Graphics Output T) 239.9 714 T
(iming Speci\336cations - General & Horizontal Information) 314.63 714 T
1 10 Q
(Format) 0 -270 158.67 633.05 TF
(General Format) 187.07 687.33 T
(Pixel Clock) 308.5 666.33 T
(Horizontal) 536.63 687.33 T
1 8 Q
(Resolution) 166.98 638.67 T
(Frame Rate) 0 -270 228.89 616.22 TF
(\050Hz\051) 0 -270 238.89 630.45 TF
(Interlaced?) 0 -270 259.68 616.66 TF
(Fields) 0 -270 282.29 626.44 TF
(Active) 405.54 659.67 T
(Line Length) 394.87 649.67 T
(Nominal Line) 456.63 664.67 T
(Period) 469.3 654.67 T
(\050total width\051) 459.08 644.67 T
(Line) 0 -270 529.76 629.78 TF
(Frequency) 0 -270 539.76 617.77 TF
(\050KHz\051) 0 -270 549.76 627.56 TF
(Sync Duration) 555.34 654.67 T
(Frequency) 291.13 622.67 T
(\050MHz\051) 300.48 612.67 T
(Period) 348.76 622.67 T
(\050nsec\051) 349.43 612.67 T
(Pixels) 389.51 617.67 T
3 F
(m) 424.62 617.67 T
1 F
(sec) 429.23 617.67 T
(Pixels) 454.55 617.67 T
3 F
(m) 488.82 617.67 T
1 F
(sec) 493.42 617.67 T
(Pixels) 554.43 617.67 T
3 F
(m) 589.12 617.67 T
1 F
(sec) 593.72 617.67 T
144 701.75 144 551.5 2 L
V
0.5 H
0 Z
N
144 548.5 144 515.5 2 L
V
3 H
N
144 512.5 144 497.5 2 L
V
0.5 H
N
144 494.5 144 461.5 2 L
V
3 H
N
144 458.5 144 353.5 2 L
V
0.5 H
N
144 350.5 144 317.5 2 L
V
3 H
N
144 314.5 144 208.25 2 L
V
0.5 H
N
164.48 701.75 164.48 551.5 2 L
V
N
166.98 701.75 166.98 551.5 2 L
V
N
165.73 548.5 165.73 515.5 2 L
V
3 H
N
164.48 512.5 164.48 497.5 2 L
V
0.5 H
N
166.98 512.5 166.98 497.5 2 L
V
N
165.73 494.5 165.73 461.5 2 L
V
3 H
N
164.48 458.5 164.48 353.5 2 L
V
0.5 H
N
166.98 458.5 166.98 353.5 2 L
V
N
165.73 350.5 165.73 317.5 2 L
V
3 H
N
164.48 314.5 164.48 208.25 2 L
V
0.5 H
N
166.98 314.5 166.98 208.25 2 L
V
N
215.56 678.25 215.56 207.75 2 L
V
N
245.73 678.25 245.73 207.75 2 L
V
N
268.96 678.25 268.96 207.75 2 L
V
N
287.08 701.75 287.08 208.25 2 L
V
N
289.58 701.75 289.58 208.25 2 L
V
N
340.39 636.25 340.39 207.75 2 L
V
N
386.78 701.75 386.78 208.25 2 L
V
N
389.28 701.75 389.28 208.25 2 L
V
N
420.13 636.25 420.13 207.75 2 L
V
N
453.06 678.25 453.06 207.75 2 L
V
N
485.16 636.25 485.16 207.75 2 L
V
N
516.43 678.25 516.43 207.75 2 L
V
N
553.36 678.25 553.36 207.75 2 L
V
N
584.63 636.25 584.63 207.75 2 L
V
N
617.56 678.25 617.56 207.75 2 L
V
N
143.75 702 617.56 702 2 L
V
N
167.23 678 286.83 678 2 L
V
N
389.53 678 617.31 678 2 L
V
N
289.83 636 516.68 636 2 L
V
N
553.11 636 617.81 636 2 L
V
N
143.75 604 617.81 604 2 L
V
N
143.75 586 617.81 586 2 L
V
N
143.75 568 617.81 568 2 L
V
N
142.5 550 165.73 550 2 L
V
3 H
N
165.73 550 617.81 550 2 L
V
0.5 H
N
142.5 532 167.23 532 2 L
V
N
215.31 532 245.98 532 2 L
V
N
289.83 532 386.53 532 2 L
V
N
419.88 532 553.61 532 2 L
V
N
584.38 532 617.81 532 2 L
V
N
142.5 514 165.73 514 2 L
V
3 H
N
165.73 514 617.81 514 2 L
V
0.5 H
N
142.5 496 165.73 496 2 L
V
3 H
N
165.73 496 617.81 496 2 L
V
0.5 H
N
142.5 478 167.23 478 2 L
V
N
215.31 478 245.98 478 2 L
V
N
289.83 478 386.53 478 2 L
V
N
419.88 478 453.31 478 2 L
V
N
484.91 478 553.61 478 2 L
V
N
584.38 478 617.81 478 2 L
V
N
142.5 460 165.73 460 2 L
V
3 H
N
165.73 460 617.81 460 2 L
V
0.5 H
N
143.75 442 617.81 442 2 L
V
N
143.75 424 617.81 424 2 L
V
N
143.75 406 617.81 406 2 L
V
N
143.75 388 617.81 388 2 L
V
N
143.75 370 617.81 370 2 L
V
N
142.5 352 165.73 352 2 L
V
3 H
N
165.73 352 617.81 352 2 L
V
0.5 H
N
142.5 334 167.23 334 2 L
V
N
215.31 334 245.98 334 2 L
V
N
289.83 334 386.53 334 2 L
V
N
419.88 334 453.31 334 2 L
V
N
484.91 334 553.61 334 2 L
V
N
142.5 316 165.73 316 2 L
V
3 H
N
165.73 316 617.81 316 2 L
V
0.5 H
N
143.75 298 617.81 298 2 L
V
N
143.75 280 617.81 280 2 L
V
N
143.75 262 617.81 262 2 L
V
N
143.75 244 617.81 244 2 L
V
N
143.75 226 617.81 226 2 L
V
N
143.75 208 617.31 208 2 L
V
N
0 0 0 1 0 0 0 K
FMENDPAGE
%%EndPage: "53" 1
%%Page: "52" 2
612 792 0 FMBEGINPAGE
[0 0 0 1 0 0 0]
[ 0 1 1 0 1 0 0]
[ 0 1 1 0 1 0 0]
[ 1 0 1 0 0 1 0]
[ 1 1 0 0 0 0 1]
[ 1 0 0 0 0 1 1]
[ 0 1 0 0 1 0 1]
[ 0 0 1 0 1 1 0]
 8 FrameSetSepColors
FrameNoSep
0 0 0 1 0 0 0 K
1 9 Q
0 X
0 0 0 1 0 0 0 K
(T) 144 714 T
(able) 148.83 714 T
(0-1) 169.34 714 T
2 F
(Graphics Output T) 193.6 714 T
(iming Speci\336cations - General & Horizontal Information) 268.33 714 T
1 10 Q
(Format) 0 -270 158.67 633.05 TF
(General Format) 187.07 687.33 T
(Pixel Clock) 308.5 666.33 T
(Horizontal) 536.63 687.33 T
1 8 Q
(Resolution) 166.98 638.67 T
(Frame Rate) 0 -270 228.89 616.22 TF
(\050Hz\051) 0 -270 238.89 630.45 TF
(Interlaced?) 0 -270 259.68 616.66 TF
(Fields) 0 -270 282.29 626.44 TF
(Active) 405.54 659.67 T
(Line Length) 394.87 649.67 T
(Nominal Line) 456.63 664.67 T
(Period) 469.3 654.67 T
(\050total width\051) 459.08 644.67 T
(Line) 0 -270 529.76 629.78 TF
(Frequency) 0 -270 539.76 617.77 TF
(\050KHz\051) 0 -270 549.76 627.56 TF
(Sync Duration) 555.34 654.67 T
(Frequency) 291.13 622.67 T
(\050MHz\051) 300.48 612.67 T
(Period) 348.76 622.67 T
(\050nsec\051) 349.43 612.67 T
(Pixels) 389.51 617.67 T
3 F
(m) 424.62 617.67 T
1 F
(sec) 429.23 617.67 T
(Pixels) 454.55 617.67 T
3 F
(m) 488.82 617.67 T
1 F
(sec) 493.42 617.67 T
(Pixels) 554.43 617.67 T
3 F
(m) 589.12 617.67 T
1 F
(sec) 593.72 617.67 T
0 F
(1) 149.64 592.67 T
(1200x900) 170.08 592.67 T
(72) 223.2 592.67 T
(No) 249.23 592.67 T
(1) 273.42 592.67 T
(105.581) 292.73 592.67 T
(160) 321.05 592.67 T
(9.471387) 348.67 592.67 T
(1200) 396.33 592.67 T
(1) 427.64 592.67 T
(1.37) 431.49 592.67 T
(1565) 461.37 592.67 T
(14.82) 490.41 592.67 T
(67.464) 522.9 592.67 T
(90) 569.73 592.67 T
(0.85) 595.99 592.67 T
145.5 568.25 164.23 584.5 R
5 X
V
0 X
(2) 149.64 574.67 T
165.98 550.25 215.31 585.75 R
5 X
V
0 X
(1280x1024) 167.85 574.67 T
215.81 550.25 245.48 585.75 R
5 X
V
0 X
(60) 223.2 574.67 T
245.98 550.25 268.71 585.75 R
5 X
V
0 X
(No) 249.23 574.67 T
269.21 550.25 286.83 585.75 R
5 X
V
0 X
(1) 273.42 574.67 T
288.58 550.25 340.14 585.75 R
5 X
V
0 X
(107.352000) 292.14 574.67 T
340.64 550.25 386.53 585.75 R
5 X
V
0 X
(9.315150) 348.67 574.67 T
388.28 550.25 419.88 585.75 R
5 X
V
0 X
(1280) 396.33 574.67 T
420.38 550.25 452.81 585.75 R
5 X
V
0 X
(1) 427.64 574.67 T
(1.92) 431.49 574.67 T
453.31 550.25 484.91 585.75 R
5 X
V
0 X
(1680) 461.37 574.67 T
485.41 550.25 516.18 585.75 R
5 X
V
0 X
(15.65) 490.41 574.67 T
516.68 550.25 553.11 585.75 R
5 X
V
0 X
(63.900) 522.9 574.67 T
553.61 550.25 584.38 585.75 R
5 X
V
0 X
(120) 565.28 574.67 T
584.88 550.25 617.31 585.75 R
5 X
V
0 X
(1.12) 595.99 574.67 T
145.5 551.5 164.23 567.75 R
5 X
V
0 X
(2a) 147.42 556.67 T
145.5 532.25 164.23 548.5 R
7 X
V
0 X
(3) 149.64 538.67 T
(1280x1024) 167.85 538.67 T
(50) 223.2 538.67 T
(No) 249.23 538.67 T
(1) 273.42 538.67 T
(87.948000) 296.59 538.67 T
(1) 344.81 538.67 T
(1.370355) 348.67 538.67 T
(1280) 396.33 538.67 T
(14.55) 427.04 538.67 T
(1680) 461.37 538.67 T
(19.10) 490.41 538.67 T
(52.350) 522.9 538.67 T
(120) 565.28 538.67 T
(1.36) 595.99 538.67 T
145.5 515.5 164.23 531.75 R
7 X
V
0 X
(3a) 147.42 520.67 T
(89.460000) 296.59 520.67 T
(1) 344.81 520.67 T
(1.178180) 348.67 520.67 T
(14.31) 427.04 520.67 T
(18.78) 490.41 520.67 T
(50.00) 527.34 520.67 T
(1.34) 595.99 520.67 T
145.5 496.25 164.23 512.5 R
5 X
V
0 X
(4) 149.64 502.67 T
165.98 478.25 215.31 513.75 R
5 X
V
0 X
-0.1 (1280x1024) 167.85 502.67 P
215.81 496.25 245.48 513.75 R
5 X
V
0 X
(72) 223.2 502.67 T
245.98 478.25 268.71 513.75 R
5 X
V
0 X
(No) 249.23 502.67 T
269.21 478.25 286.83 513.75 R
5 X
V
0 X
(1) 273.42 502.67 T
288.58 496.25 340.14 513.75 R
5 X
V
0 X
(130.075920) 292.14 502.67 T
340.64 496.25 386.53 513.75 R
5 X
V
0 X
(7.687818) 348.67 502.67 T
388.28 478.25 419.88 513.75 R
5 X
V
0 X
(1280) 396.33 502.67 T
420.38 496.25 452.81 513.75 R
5 X
V
0 X
(9.84) 431.49 502.67 T
453.31 478.25 484.91 513.75 R
5 X
V
0 X
(1690) 461.37 502.67 T
485.41 496.25 516.18 513.75 R
5 X
V
0 X
(12.99) 490.41 502.67 T
516.68 496.25 553.11 513.75 R
5 X
V
0 X
(76.968) 522.9 502.67 T
553.61 478.25 584.38 513.75 R
5 X
V
0 X
(140) 565.28 502.67 T
584.88 478.25 617.31 513.75 R
5 X
V
0 X
(1.08) 595.99 502.67 T
145.5 479.5 164.23 495.75 R
5 X
V
0 X
(4a) 147.42 484.67 T
215.81 478.25 245.48 495.75 R
5 X
V
0 X
(72.3) 219.86 484.67 T
288.58 478.25 340.14 495.75 R
5 X
V
0 X
(130.000) 305.48 484.67 T
340.64 478.25 386.53 495.75 R
5 X
V
0 X
(7.692307) 348.67 484.67 T
420.38 478.25 452.81 495.75 R
5 X
V
0 X
(9.85) 431.49 484.67 T
485.41 478.25 516.18 495.75 R
5 X
V
0 X
(13.00) 490.41 484.67 T
516.68 478.25 553.11 495.75 R
5 X
V
0 X
(76.92) 527.34 484.67 T
145.5 460.25 164.23 476.5 R
7 X
V
0 X
(5) 149.64 466.67 T
(1280x1024) 167.85 466.67 T
(30) 223.2 466.67 T
(Y) 247.82 466.67 T
(es) 252.42 466.67 T
(2) 273.42 466.67 T
(53.609400) 296.59 466.67 T
(18.653445) 344.22 466.67 T
(1280) 396.33 466.67 T
(23.88) 427.04 466.67 T
(1580) 461.37 466.67 T
(29.47) 490.41 466.67 T
(33.930) 522.9 466.67 T
(130) 565.28 466.67 T
(2.42) 595.99 466.67 T
145.5 443.5 164.23 459.75 R
7 X
V
0 X
(5a) 147.42 448.67 T
(53.676000) 296.59 448.67 T
(18.630300) 344.22 448.67 T
(23.85) 427.04 448.67 T
(29.44) 490.41 448.67 T
(33.972) 522.9 448.67 T
(6) 149.64 430.67 T
(1280x960) 170.08 430.67 T
(76) 223.2 430.67 T
(No) 249.23 430.67 T
(1) 273.42 430.67 T
(126.790800) 292.14 430.67 T
(7.887008) 348.67 430.67 T
(1280) 396.33 430.67 T
(10.10) 427.04 430.67 T
(1660) 461.37 430.67 T
(13.09) 490.41 430.67 T
(76.380) 522.9 430.67 T
(125) 565.28 430.67 T
(0.99) 595.99 430.67 T
(7) 149.64 412.67 T
(1280x960) 170.08 412.67 T
(30) 223.2 412.67 T
(Y) 247.82 412.67 T
(es) 252.42 412.67 T
(2) 273.42 412.67 T
(49.717800) 296.59 412.67 T
(20.1) 344.81 412.67 T
(13521) 359.79 412.67 T
(1280) 396.33 412.67 T
(25.75) 427.04 412.67 T
(1620) 461.37 412.67 T
(32.58) 490.41 412.67 T
(30.690) 522.9 412.67 T
(150) 565.28 412.67 T
(3.02) 595.99 412.67 T
(8) 149.64 394.67 T
(1920x1035) 167.85 394.67 T
(30) 223.2 394.67 T
(No) 249.23 394.67 T
(1) 273.42 394.67 T
(74.250000) 296.59 394.67 T
(13.468013) 344.22 394.67 T
(1920) 396.33 394.67 T
(25.86) 427.04 394.67 T
(2200) 461.37 394.67 T
(29.63) 490.41 394.67 T
(33.750) 522.9 394.67 T
(90) 569.73 394.67 T
(1.21) 595.99 394.67 T
(9) 149.64 376.67 T
(1600x1200) 167.85 376.67 T
(60) 223.2 376.67 T
(No) 249.23 376.67 T
(1) 273.42 376.67 T
(156.375000) 292.14 376.67 T
(6.394884) 348.67 376.67 T
(1600) 396.33 376.67 T
(10.23) 427.04 376.67 T
(2085) 461.37 376.67 T
(13.33) 490.41 376.67 T
(75.000) 522.9 376.67 T
(120) 565.28 376.67 T
(0.77) 595.99 376.67 T
(10) 147.42 358.67 T
(1600x1200) 167.85 358.67 T
(50) 223.2 358.67 T
(No) 249.23 358.67 T
(1) 273.42 358.67 T
(130.312500) 292.14 358.67 T
(7.673861) 348.67 358.67 T
(1600) 396.33 358.67 T
(12.28) 427.04 358.67 T
(2085) 461.37 358.67 T
(16.00) 490.41 358.67 T
(62.500) 522.9 358.67 T
(120) 565.28 358.67 T
(0.92) 595.99 358.67 T
145.5 334.25 164.23 350.5 R
5 X
V
0 X
(1) 147.71 340.67 T
(1) 151.57 340.67 T
165.98 334.25 215.31 351.75 R
5 X
V
0 X
(1025x768) 170.08 340.67 T
215.81 334.25 245.48 351.75 R
5 X
V
0 X
(60) 223.2 340.67 T
245.98 316.25 268.71 351.75 R
5 X
V
0 X
(No) 249.23 340.67 T
269.21 316.25 286.83 351.75 R
5 X
V
0 X
(1) 273.42 340.67 T
288.58 334.25 340.14 351.75 R
5 X
V
0 X
(64.389600) 296.59 340.67 T
340.64 334.25 386.53 351.75 R
5 X
V
0 X
(15.530458) 344.22 340.67 T
388.28 334.25 419.88 351.75 R
5 X
V
0 X
(1025) 396.33 340.67 T
420.38 334.25 452.81 351.75 R
5 X
V
0 X
(15.92) 427.04 340.67 T
453.31 316.25 484.91 351.75 R
5 X
V
0 X
(1320) 461.37 340.67 T
485.41 334.25 516.18 351.75 R
5 X
V
0 X
(20.50) 490.41 340.67 T
516.68 334.25 553.11 351.75 R
5 X
V
0 X
(48.780) 522.9 340.67 T
553.61 316.25 584.38 351.75 R
5 X
V
0 X
(80) 569.73 340.67 T
584.88 334.25 617.31 351.75 R
5 X
V
0 X
(1.24) 595.99 340.67 T
145.5 317.5 164.23 333.75 R
5 X
V
0 X
(1) 145.49 322.67 T
(1a) 149.34 322.67 T
165.98 316.25 215.31 333.75 R
5 X
V
0 X
(1024x768) 170.08 322.67 T
215.81 316.25 245.48 333.75 R
5 X
V
0 X
(59.63) 217.64 322.67 T
288.58 316.25 340.14 333.75 R
5 X
V
0 X
(64.000000) 296.59 322.67 T
340.64 316.25 386.53 333.75 R
5 X
V
0 X
(15.625000) 344.22 322.67 T
388.28 316.25 419.88 333.75 R
5 X
V
0 X
(1024) 396.33 322.67 T
420.38 316.25 452.81 333.75 R
5 X
V
0 X
(16.00) 427.04 322.67 T
485.41 316.25 516.18 333.75 R
5 X
V
0 X
(20.63) 490.41 322.67 T
516.68 316.25 553.11 333.75 R
5 X
V
0 X
(48.485) 522.9 322.67 T
584.88 316.25 617.31 333.75 R
5 X
V
0 X
(1.25) 595.99 322.67 T
(12) 147.42 304.67 T
(640x1024) 170.08 304.67 T
(60) 223.2 304.67 T
(No) 249.23 304.67 T
(1) 273.42 304.67 T
(53.676000) 296.59 304.67 T
(18.630300) 344.22 304.67 T
(640) 400.78 304.67 T
(1) 427.64 304.67 T
(1.92) 431.49 304.67 T
(840) 465.82 304.67 T
(15.65) 490.41 304.67 T
(63.900) 522.9 304.67 T
(60) 569.73 304.67 T
(1.12) 595.99 304.67 T
(13) 147.42 286.67 T
(640x480) 172.3 286.67 T
(60) 223.2 286.67 T
(No) 249.23 286.67 T
(1) 273.42 286.67 T
(25.200000) 296.59 286.67 T
(39.682540) 344.22 286.67 T
(640) 400.78 286.67 T
(25.40) 427.04 286.67 T
(800) 465.82 286.67 T
(31.75) 490.41 286.67 T
(31.500) 522.9 286.67 T
(95) 569.73 286.67 T
(3.77) 595.99 286.67 T
(14) 147.42 268.67 T
(640x486) 172.3 268.67 T
(30) 223.2 268.67 T
(Y) 247.82 268.67 T
(es) 252.42 268.67 T
(2) 273.42 268.67 T
(12.285000) 296.59 268.67 T
(81.400081) 344.22 268.67 T
(640) 400.78 268.67 T
(52.10) 427.04 268.67 T
(780) 465.82 268.67 T
(63.49) 490.41 268.67 T
(15.750) 522.9 268.67 T
(60) 569.73 268.67 T
(4.88) 595.99 268.67 T
(15) 147.42 250.67 T
(640x496) 172.3 250.67 T
(60) 223.2 250.67 T
(No) 249.23 250.67 T
(1) 273.42 250.67 T
(25.200000) 296.59 250.67 T
(39.682540) 344.22 250.67 T
(640) 400.78 250.67 T
(25.40) 427.04 250.67 T
(800) 465.82 250.67 T
(31.75) 490.41 250.67 T
(31.500) 522.9 250.67 T
(95) 569.73 250.67 T
(3.77) 595.99 250.67 T
(16) 147.42 232.67 T
(640x512) 172.3 232.67 T
(60) 223.2 232.67 T
(No) 249.23 232.67 T
(1) 273.42 232.67 T
(26.640000) 296.59 232.67 T
(37.537538) 344.22 232.67 T
(640) 400.78 232.67 T
(24.02) 427.04 232.67 T
(800) 465.82 232.67 T
(30.03) 490.41 232.67 T
(33.300) 522.9 232.67 T
(55) 569.73 232.67 T
(2.06) 595.99 232.67 T
(17) 147.42 214.67 T
(640x640) 172.3 214.67 T
(60) 223.2 214.67 T
(No) 249.23 214.67 T
(1) 273.42 214.67 T
(33.565200) 296.59 214.67 T
(29.792762) 344.22 214.67 T
(640) 400.78 214.67 T
(19.07) 427.04 214.67 T
(830) 465.82 214.67 T
(24.73) 490.41 214.67 T
(40.440) 522.9 214.67 T
(80) 569.73 214.67 T
(2.38) 595.99 214.67 T
145.5 190.25 164.23 206.5 R
7 X
V
0 X
(18) 147.42 196.67 T
(645x486) 172.3 196.67 T
(30) 223.2 196.67 T
(Y) 247.82 196.67 T
(es) 252.42 196.67 T
(2) 273.42 196.67 T
(12.285000) 296.59 196.67 T
(81.400081) 344.22 196.67 T
(645) 400.78 196.67 T
(52.50) 427.04 196.67 T
(780) 465.82 196.67 T
(63.49) 490.41 196.67 T
(15.750) 522.9 196.67 T
(60) 569.73 196.67 T
(4.88) 595.99 196.67 T
145.5 173.5 164.23 189.75 R
7 X
V
0 X
(18a) 145.19 178.67 T
(640x485) 172.3 178.67 T
(12.272727) 296.59 178.67 T
(81.481483) 344.22 178.67 T
(640) 400.78 178.67 T
(52.15) 427.04 178.67 T
(63.49) 490.41 178.67 T
(15.734) 522.9 178.67 T
(4.89) 595.99 178.67 T
(19) 147.42 160.67 T
(745x224) 172.3 160.67 T
(60) 223.2 160.67 T
(No) 249.23 160.67 T
(1) 273.42 160.67 T
(23.940000) 296.59 160.67 T
(41.771094) 344.22 160.67 T
(745) 400.78 160.67 T
(31.12) 427.04 160.67 T
(950) 465.82 160.67 T
(39.68) 490.41 160.67 T
(25.200) 522.9 160.67 T
(90) 569.73 160.67 T
(3.76) 595.99 160.67 T
144.25 136.25 164.23 153.75 R
7 X
V
0 X
(20) 147.42 142.67 T
(770x576) 172.3 142.67 T
(25) 223.2 142.67 T
(Y) 247.82 142.67 T
(es) 252.42 142.67 T
(2) 273.42 142.67 T
(14.843750) 296.59 142.67 T
(67.368421) 344.22 142.67 T
(770) 400.78 142.67 T
(51.87) 427.04 142.67 T
(950) 465.82 142.67 T
(64.00) 490.41 142.67 T
(15.625) 522.9 142.67 T
(70) 569.73 142.67 T
(4.72) 595.99 142.67 T
145.5 118.25 164.23 134.5 R
7 X
V
0 X
(20a) 145.19 124.67 T
(780x575) 172.3 124.67 T
(15.000000) 296.59 124.67 T
(66.666667) 344.22 124.67 T
(780) 400.78 124.67 T
(52.00) 427.04 124.67 T
(960) 465.82 124.67 T
(4.67) 595.99 124.67 T
(21) 147.42 106.67 T
(850x850) 172.3 106.67 T
(60) 223.2 106.67 T
(No) 249.23 106.67 T
(1) 273.42 106.67 T
(59.070000) 296.59 106.67 T
(16.929067) 344.22 106.67 T
(850) 400.78 106.67 T
(14.39) 427.04 106.67 T
(1) 461.96 106.67 T
(100) 465.82 106.67 T
(18.62) 490.41 106.67 T
(53.700) 522.9 106.67 T
(80) 569.73 106.67 T
(1.35) 595.99 106.67 T
(22) 147.42 88.67 T
(960x620) 172.3 88.67 T
(60) 223.2 88.67 T
(No) 249.23 88.67 T
(1) 273.42 88.67 T
(54.432000) 296.59 88.67 T
(18.371546) 344.22 88.67 T
(960) 400.78 88.67 T
(17.64) 427.04 88.67 T
(1260) 461.37 88.67 T
(23.15) 490.41 88.67 T
(43.200) 522.9 88.67 T
(95) 569.73 88.67 T
(1.75) 595.99 88.67 T
144 701.75 144 587.5 2 L
V
0.5 H
0 Z
N
144 584.5 144 443.5 2 L
V
3 H
N
144 440.5 144 353.5 2 L
V
0.5 H
N
144 350.5 144 317.5 2 L
V
3 H
N
144 314.5 144 209.5 2 L
V
0.5 H
N
144 206.5 144 173.5 2 L
V
3 H
N
144 170.5 144 137.5 2 L
V
0.5 H
N
144 134.5 144 101.5 2 L
V
3 H
N
144 98.5 144 82.25 2 L
V
0.5 H
N
164.48 701.75 164.48 587.5 2 L
V
N
166.98 701.75 166.98 587.5 2 L
V
N
165.73 584.5 165.73 443.5 2 L
V
3 H
N
164.48 440.5 164.48 353.5 2 L
V
0.5 H
N
166.98 440.5 166.98 353.5 2 L
V
N
165.73 350.5 165.73 317.5 2 L
V
3 H
N
164.48 314.5 164.48 209.5 2 L
V
0.5 H
N
166.98 314.5 166.98 209.5 2 L
V
N
165.73 206.5 165.73 173.5 2 L
V
3 H
N
164.48 170.5 164.48 137.5 2 L
V
0.5 H
N
166.98 170.5 166.98 137.5 2 L
V
N
165.73 134.5 165.73 101.5 2 L
V
3 H
N
164.48 98.5 164.48 82.25 2 L
V
0.5 H
N
166.98 98.5 166.98 82.25 2 L
V
N
215.56 678.25 215.56 81.75 2 L
V
N
245.73 678.25 245.73 81.75 2 L
V
N
268.96 678.25 268.96 81.75 2 L
V
N
287.08 701.75 287.08 82.25 2 L
V
N
289.58 701.75 289.58 82.25 2 L
V
N
340.39 636.25 340.39 81.75 2 L
V
N
386.78 701.75 386.78 82.25 2 L
V
N
389.28 701.75 389.28 82.25 2 L
V
N
420.13 636.25 420.13 81.75 2 L
V
N
453.06 678.25 453.06 81.75 2 L
V
N
485.16 636.25 485.16 81.75 2 L
V
N
516.43 678.25 516.43 81.75 2 L
V
N
553.36 678.25 553.36 81.75 2 L
V
N
584.63 636.25 584.63 81.75 2 L
V
N
617.56 678.25 617.56 81.75 2 L
V
N
143.75 702 617.56 702 2 L
V
N
167.23 678 286.83 678 2 L
V
N
389.53 678 617.31 678 2 L
V
N
289.83 636 516.68 636 2 L
V
N
553.11 636 617.81 636 2 L
V
N
144.25 605.25 617.56 605.25 2 L
V
N
144.25 602.75 617.56 602.75 2 L
V
N
142.5 586 165.73 586 2 L
V
3 H
N
165.73 586 617.81 586 2 L
V
0.5 H
N
142.5 568 167.23 568 2 L
V
N
142.5 550 167.23 550 2 L
V
3 H
N
164.23 550 617.81 550 2 L
V
0.5 H
N
142.5 532 167.23 532 2 L
V
N
289.83 532 386.53 532 2 L
V
N
419.88 532 453.31 532 2 L
V
N
484.91 532 553.61 532 2 L
V
N
584.38 532 617.81 532 2 L
V
N
142.5 514 167.23 514 2 L
V
3 H
N
164.23 514 617.81 514 2 L
V
0.5 H
N
142.5 496 167.23 496 2 L
V
N
215.31 496 245.98 496 2 L
V
N
289.83 496 386.53 496 2 L
V
N
419.88 496 453.31 496 2 L
V
N
484.91 496 553.61 496 2 L
V
N
142.5 478 167.23 478 2 L
V
3 H
N
164.23 478 617.81 478 2 L
V
0.5 H
N
142.5 460 167.23 460 2 L
V
N
289.83 460 386.53 460 2 L
V
N
419.88 460 453.31 460 2 L
V
N
484.91 460 553.61 460 2 L
V
N
142.5 442 165.73 442 2 L
V
3 H
N
165.73 442 617.81 442 2 L
V
0.5 H
N
143.75 424 617.81 424 2 L
V
N
143.75 406 617.81 406 2 L
V
N
143.75 388 617.81 388 2 L
V
N
143.75 370 617.81 370 2 L
V
N
142.5 352 165.73 352 2 L
V
3 H
N
165.73 352 617.81 352 2 L
V
0.5 H
N
142.5 334 245.98 334 2 L
V
N
289.83 334 453.31 334 2 L
V
N
484.91 334 553.61 334 2 L
V
N
584.38 334 617.81 334 2 L
V
N
142.5 316 165.73 316 2 L
V
3 H
N
165.73 316 617.81 316 2 L
V
0.5 H
N
143.75 298 617.81 298 2 L
V
N
143.75 280 617.81 280 2 L
V
N
143.75 262 617.81 262 2 L
V
N
143.75 244 617.81 244 2 L
V
N
143.75 226 617.81 226 2 L
V
N
142.5 208 165.73 208 2 L
V
3 H
N
165.73 208 617.81 208 2 L
V
0.5 H
N
142.5 190 215.81 190 2 L
V
N
289.83 190 453.31 190 2 L
V
N
484.91 190 553.61 190 2 L
V
N
584.38 190 617.81 190 2 L
V
N
142.5 172 165.73 172 2 L
V
3 H
N
165.73 172 617.81 172 2 L
V
0.5 H
N
143.75 154 617.81 154 2 L
V
N
142.5 136 165.73 136 2 L
V
3 H
N
165.73 136 215.81 136 2 L
V
0.5 H
N
289.83 136 485.41 136 2 L
V
N
584.38 136 617.81 136 2 L
V
N
142.5 118 617.81 118 2 L
V
N
142.5 100 165.73 100 2 L
V
3 H
N
165.73 100 617.81 100 2 L
V
0.5 H
N
143.75 82 617.31 82 2 L
V
N
0 0 0 1 0 0 0 K
FMENDPAGE
%%EndPage: "52" 2
%%Page: "51" 3
612 792 0 FMBEGINPAGE
[0 0 0 1 0 0 0]
[ 0 1 1 0 1 0 0]
[ 0 1 1 0 1 0 0]
[ 1 0 1 0 0 1 0]
[ 1 1 0 0 0 0 1]
[ 1 0 0 0 0 1 1]
[ 0 1 0 0 1 0 1]
[ 0 0 1 0 1 1 0]
 8 FrameSetSepColors
FrameNoSep
0 0 0 1 0 0 0 K
0 0 0 1 0 0 0 K
FMENDPAGE
%%EndPage: "51" 3
%%Trailer
%%BoundingBox: 0 0 612 792
%%PageOrder: Descend
%%Pages: 3
%%DocumentFonts: Helvetica
%%+ Helvetica-Bold
%%+ Palatino-Roman
%%+ Symbol
%%EOF
