%!PS-Adobe-3.0
%%BoundingBox: (atend)
%%Pages: (atend)
%%PageOrder: (atend)
%%DocumentFonts: (atend)
%%Creator: Frame 4.0
%%DocumentData: Clean7Bit
%%EndComments
%%BeginProlog
%
% Frame ps_prolog 4.0, for use with Frame 4.0 products
% This ps_prolog file is Copyright (c) 1986-1993 Frame Technology
% Corporation.  All rights reserved.  This ps_prolog file may be
% freely copied and distributed in conjunction with documents created
% using FrameMaker, FrameBuilder and FrameViewer as long as this 
% copyright notice is preserved.
%
% Frame products normally print colors as their true color on a color printer
% or as shades of gray, based on luminance, on a black-and white printer. The
% following flag, if set to True, forces all non-white colors to print as pure
% black. This has no effect on bitmap images.
/FMPrintAllColorsAsBlack             false def
%
% Frame products can either set their own line screens or use a printer's 
% default settings. Three flags below control this separately for no 
% separations, spot separations and process separations. If a flag
% is true, then the default printer settings will not be changed. If it is
% false, Frame products will use their own settings from a table based on
% the printer's resolution.
/FMUseDefaultNoSeparationScreen      true  def
/FMUseDefaultSpotSeparationScreen    true  def
/FMUseDefaultProcessSeparationScreen false def
%
% For any given PostScript printer resolution, Frame products have two sets of 
% screen angles and frequencies for printing process separations, which are 
% recomended by Adobe. The following variable chooses the higher frequencies
% when set to true or the lower frequencies when set to false. This is only
% effective if the appropriate FMUseDefault...SeparationScreen flag is false.
/FMUseHighFrequencyScreens true def
%
% PostScript Level 2 printers contain an "Accurate Screens" feature which can
% improve process separation rendering at the expense of compute time. This 
% flag is ignored by PostScript Level 1 printers.
/FMUseAcccurateScreens true def
%
% The following PostScript procedure defines the spot function that Frame
% products will use for process separations. You may un-comment-out one of
% the alternative functions below, or use your own.
%
% Dot function
/FMSpotFunction {abs exch abs 2 copy add 1 gt 
		{1 sub dup mul exch 1 sub dup mul add 1 sub }
		{dup mul exch dup mul add 1 exch sub }ifelse } def
%
% Line function
% /FMSpotFunction { pop } def
%
% Elipse function
% /FMSpotFunction { dup 5 mul 8 div mul exch dup mul exch add 
%		sqrt 1 exch sub } def
%
%
/FMversion (4.0) def 
/FMLevel1 /languagelevel where {pop languagelevel} {1} ifelse 2 lt def
/FMPColor
	FMLevel1 {
		false
		/colorimage where {pop pop true} if
	} {
		true
	} ifelse
def
/FrameDict 400 dict def 
systemdict /errordict known not {/errordict 10 dict def
		errordict /rangecheck {stop} put} if
% The readline in PS 23.0 doesn't recognize cr's as nl's on AppleTalk
FrameDict /tmprangecheck errordict /rangecheck get put 
errordict /rangecheck {FrameDict /bug true put} put 
FrameDict /bug false put 
mark 
% Some PS machines read past the CR, so keep the following 3 lines together!
currentfile 5 string readline
00
0000000000
cleartomark 
errordict /rangecheck FrameDict /tmprangecheck get put 
FrameDict /bug get { 
	/readline {
		/gstring exch def
		/gfile exch def
		/gindex 0 def
		{
			gfile read pop 
			dup 10 eq {exit} if 
			dup 13 eq {exit} if 
			gstring exch gindex exch put 
			/gindex gindex 1 add def 
		} loop
		pop 
		gstring 0 gindex getinterval true 
		} bind def
	} if
/FMshowpage /showpage load def
/FMquit /quit load def
/FMFAILURE { 
	dup = flush 
	FMshowpage 
	/Helvetica findfont 12 scalefont setfont
	72 200 moveto
	show FMshowpage 
	FMquit 
	} def 
/FMVERSION {
	FMversion ne {
		(Frame product version does not match ps_prolog!) FMFAILURE
		} if
	} def 
/FMBADEPSF { 
	(PostScript Lang. Ref. Man., 2nd Ed., H.2.4 says EPS must not call X              )
	dup dup (X) search pop exch pop exch pop length 
	4 -1 roll 
	putinterval 
	FMFAILURE
	} def
/FMLOCAL {
	FrameDict begin
	0 def 
	end 
	} def 
/concatprocs
	{
	/proc2 exch cvlit def/proc1 exch cvlit def/newproc proc1 length proc2 length add array def
	newproc 0 proc1 putinterval newproc proc1 length proc2 putinterval newproc cvx
}def
FrameDict begin 
/FMnone 0 def
/FMcyan 1 def
/FMmagenta 2 def
/FMyellow 3 def
/FMblack 4 def
/FMcustom 5 def
/FrameNegative false def 
/FrameSepIs FMnone def 
/FrameSepBlack 0 def
/FrameSepYellow 0 def
/FrameSepMagenta 0 def
/FrameSepCyan 0 def
/FrameSepRed 1 def
/FrameSepGreen 1 def
/FrameSepBlue 1 def
/FrameCurGray 1 def
/FrameCurPat null def
/FrameCurColors [ 0 0 0 1 0 0 0 ] def 
/FrameColorEpsilon .001 def	
/eqepsilon {		
	sub dup 0 lt {neg} if
	FrameColorEpsilon le
} bind def
/FrameCmpColorsCMYK { 
	2 copy 0 get exch 0 get eqepsilon {
		2 copy 1 get exch 1 get eqepsilon {
			2 copy 2 get exch 2 get eqepsilon {
				3 get exch 3 get eqepsilon
			} {pop pop false} ifelse
		}{pop pop false} ifelse
	} {pop pop false} ifelse
} bind def
/FrameCmpColorsRGB { 
	2 copy 4 get exch 0 get eqepsilon {
		2 copy 5 get exch 1 get eqepsilon {
			6 get exch 2 get eqepsilon
		}{pop pop false} ifelse
	} {pop pop false} ifelse
} bind def
/RGBtoCMYK { 
	1 exch sub 
	3 1 roll 
	1 exch sub 
	3 1 roll 
	1 exch sub 
	3 1 roll 
	3 copy 
	2 copy 
	le { pop } { exch pop } ifelse 
	2 copy 
	le { pop } { exch pop } ifelse 
	dup dup dup 
	6 1 roll 
	4 1 roll 
	7 1 roll 
	sub 
	6 1 roll 
	sub 
	5 1 roll 
	sub 
	4 1 roll 
} bind def
/CMYKtoRGB { 
	dup dup 4 -1 roll add 						  
	5 1 roll 3 -1 roll add 						  
	4 1 roll add 								  
	1 exch sub dup 0 lt {pop 0} if 3 1 roll 	  
	1 exch sub dup 0 lt {pop 0} if exch 	      
	1 exch sub dup 0 lt {pop 0} if exch	  		  
} bind def
/FrameSepInit {
	1.0 RealSetgray
} bind def
/FrameSetSepColor { 
	/FrameSepBlue exch def
	/FrameSepGreen exch def
	/FrameSepRed exch def
	/FrameSepBlack exch def
	/FrameSepYellow exch def
	/FrameSepMagenta exch def
	/FrameSepCyan exch def
	/FrameSepIs FMcustom def
	setCurrentScreen	
} bind def
/FrameSetCyan {
	/FrameSepBlue 1.0 def
	/FrameSepGreen 1.0 def
	/FrameSepRed 0.0 def
	/FrameSepBlack 0.0 def
	/FrameSepYellow 0.0 def
	/FrameSepMagenta 0.0 def
	/FrameSepCyan 1.0 def
	/FrameSepIs FMcyan def
	setCurrentScreen	
} bind def
 
/FrameSetMagenta {
	/FrameSepBlue 1.0 def
	/FrameSepGreen 0.0 def
	/FrameSepRed 1.0 def
	/FrameSepBlack 0.0 def
	/FrameSepYellow 0.0 def
	/FrameSepMagenta 1.0 def
	/FrameSepCyan 0.0 def
	/FrameSepIs FMmagenta def
	setCurrentScreen
} bind def
 
/FrameSetYellow {
	/FrameSepBlue 0.0 def
	/FrameSepGreen 1.0 def
	/FrameSepRed 1.0 def
	/FrameSepBlack 0.0 def
	/FrameSepYellow 1.0 def
	/FrameSepMagenta 0.0 def
	/FrameSepCyan 0.0 def
	/FrameSepIs FMyellow def
	setCurrentScreen
} bind def
 
/FrameSetBlack {
	/FrameSepBlue 0.0 def
	/FrameSepGreen 0.0 def
	/FrameSepRed 0.0 def
	/FrameSepBlack 1.0 def
	/FrameSepYellow 0.0 def
	/FrameSepMagenta 0.0 def
	/FrameSepCyan 0.0 def
	/FrameSepIs FMblack def
	setCurrentScreen
} bind def
 
/FrameNoSep { 
	/FrameSepIs FMnone def
	setCurrentScreen
} bind def
/FrameSetSepColors { 
	FrameDict begin
	[ exch 1 add 1 roll ]
	/FrameSepColors  
	exch def end
	} bind def
/FrameColorInSepListCMYK { 
	FrameSepColors {  
       		exch dup 3 -1 roll 
       		FrameCmpColorsCMYK 
       		{ pop true exit } if
    	} forall 
	dup true ne {pop false} if
	} bind def
/FrameColorInSepListRGB { 
	FrameSepColors {  
       		exch dup 3 -1 roll 
       		FrameCmpColorsRGB 
       		{ pop true exit } if
    	} forall 
	dup true ne {pop false} if
	} bind def
/RealSetgray /setgray load def
/RealSetrgbcolor /setrgbcolor load def
/RealSethsbcolor /sethsbcolor load def
end 
/setgray { 
	FrameDict begin
	FrameSepIs FMnone eq
		{ RealSetgray } 
		{ 
		FrameSepIs FMblack eq 
			{ RealSetgray } 
			{ FrameSepIs FMcustom eq 
			  FrameSepRed 0 eq and
			  FrameSepGreen 0 eq and
			  FrameSepBlue 0 eq and {
			  	RealSetgray
			  } {
				1 RealSetgray pop 
			  } ifelse
			} ifelse
		} ifelse
	end
} bind def
/setrgbcolor { 
	FrameDict begin
	FrameSepIs FMnone eq
	{  RealSetrgbcolor }
	{
		3 copy [ 4 1 roll ] 
		FrameColorInSepListRGB
		{
				FrameSepBlue eq exch 
			 	FrameSepGreen eq and exch 
			 	FrameSepRed eq and
			 	{ 0 } { 1 } ifelse
		}
		{
			FMPColor {
				RealSetrgbcolor
				currentcmykcolor
			} {
				RGBtoCMYK
			} ifelse
			FrameSepIs FMblack eq
			{1.0 exch sub 4 1 roll pop pop pop} {
			FrameSepIs FMyellow eq
			{pop 1.0 exch sub 3 1 roll pop pop} {
			FrameSepIs FMmagenta eq
			{pop pop 1.0 exch sub exch pop } {
			FrameSepIs FMcyan eq
			{pop pop pop 1.0 exch sub } 
			{pop pop pop pop 1} ifelse } ifelse } ifelse } ifelse 
		} ifelse
		RealSetgray
	} 
	ifelse
	end
} bind def
/sethsbcolor {
	FrameDict begin
	FrameSepIs FMnone eq 
	{ RealSethsbcolor } 
	{
		RealSethsbcolor 
		currentrgbcolor  
		setrgbcolor 
	} 
	ifelse
	end
} bind def
FrameDict begin
/setcmykcolor where {
	pop /RealSetcmykcolor /setcmykcolor load def
} {
	/RealSetcmykcolor {
		4 1 roll
		3 { 3 index add 0 max 1 min 1 exch sub 3 1 roll} repeat 
		setrgbcolor pop
	} bind def
} ifelse
userdict /setcmykcolor { 
		FrameDict begin
		FrameSepIs FMnone eq
		{ RealSetcmykcolor } 
		{
			4 copy [ 5 1 roll ]
			FrameColorInSepListCMYK
			{
				FrameSepBlack eq exch 
				FrameSepYellow eq and exch 
				FrameSepMagenta eq and exch 
				FrameSepCyan eq and 
				{ 0 } { 1 } ifelse
			}
			{
				FrameSepIs FMblack eq
				{1.0 exch sub 4 1 roll pop pop pop} {
				FrameSepIs FMyellow eq
				{pop 1.0 exch sub 3 1 roll pop pop} {
				FrameSepIs FMmagenta eq
				{pop pop 1.0 exch sub exch pop } {
				FrameSepIs FMcyan eq
				{pop pop pop 1.0 exch sub } 
				{pop pop pop pop 1} ifelse } ifelse } ifelse } ifelse 
			} ifelse
			RealSetgray
		}
		ifelse
		end
	} bind put
FMLevel1 not { 
	
	/patProcDict 5 dict dup begin
		<0f1e3c78f0e1c387> { 3 setlinewidth -1 -1 moveto 9 9 lineto stroke 
											4 -4 moveto 12 4 lineto stroke
											-4 4 moveto 4 12 lineto stroke} bind def
		<0f87c3e1f0783c1e> { 3 setlinewidth -1 9 moveto 9 -1 lineto stroke 
											-4 4 moveto 4 -4 lineto stroke
											4 12 moveto 12 4 lineto stroke} bind def
		<8142241818244281> { 1 setlinewidth -1 9 moveto 9 -1 lineto stroke
											-1 -1 moveto 9 9 lineto stroke } bind def
		<03060c183060c081> { 1 setlinewidth -1 -1 moveto 9 9 lineto stroke 
											4 -4 moveto 12 4 lineto stroke
											-4 4 moveto 4 12 lineto stroke} bind def
		<8040201008040201> { 1 setlinewidth -1 9 moveto 9 -1 lineto stroke 
											-4 4 moveto 4 -4 lineto stroke
											4 12 moveto 12 4 lineto stroke} bind def
	end def
	/patDict 15 dict dup begin
		/PatternType 1 def		
		/PaintType 2 def		
		/TilingType 3 def		
		/BBox [ 0 0 8 8 ] def 	
		/XStep 8 def			
		/YStep 8 def			
		/PaintProc {
			begin
			patProcDict bstring known {
				patProcDict bstring get exec
			} {
				8 8 true [1 0 0 -1 0 8] bstring imagemask
			} ifelse
			end
		} bind def
	end def
} if
/combineColor {
    FrameSepIs FMnone eq
	{
		graymode FMLevel1 or not {
			
			[/Pattern [/DeviceCMYK]] setcolorspace
			FrameCurColors 0 4 getinterval aload pop FrameCurPat setcolor
		} {
			FrameCurColors 3 get 1.0 ge {
				FrameCurGray RealSetgray
			} {
				FMPColor graymode and {
					0 1 3 { 
						FrameCurColors exch get
						1 FrameCurGray sub mul
					} for
					RealSetcmykcolor
				} {
					4 1 6 {
						FrameCurColors exch get
						graymode {
							1 exch sub 1 FrameCurGray sub mul 1 exch sub
						} {
							1.0 lt {FrameCurGray} {1} ifelse
						} ifelse
					} for
					RealSetrgbcolor
				} ifelse
			} ifelse
		} ifelse
	} { 
		FrameCurColors 0 4 getinterval aload
		FrameColorInSepListCMYK {
			FrameSepBlack eq exch 
			FrameSepYellow eq and exch 
			FrameSepMagenta eq and exch 
			FrameSepCyan eq and
			FrameSepIs FMcustom eq and
			{ FrameCurGray } { 1 } ifelse
		} {
			FrameSepIs FMblack eq
			{FrameCurGray 1.0 exch sub mul 1.0 exch sub 4 1 roll pop pop pop} {
			FrameSepIs FMyellow eq
			{pop FrameCurGray 1.0 exch sub mul 1.0 exch sub 3 1 roll pop pop} {
			FrameSepIs FMmagenta eq
			{pop pop FrameCurGray 1.0 exch sub mul 1.0 exch sub exch pop } {
			FrameSepIs FMcyan eq
			{pop pop pop FrameCurGray 1.0 exch sub mul 1.0 exch sub } 
			{pop pop pop pop 1} ifelse } ifelse } ifelse } ifelse 
		} ifelse
		graymode FMLevel1 or not {
			
			[/Pattern [/DeviceGray]] setcolorspace
			FrameCurPat setcolor
		} { 
			graymode not FMLevel1 and {
				
				dup 1 lt {pop FrameCurGray} if
			} if
			RealSetgray
		} ifelse
	} ifelse
} bind def
/savematrix {
	orgmatrix currentmatrix pop
	} bind def
/restorematrix {
	orgmatrix setmatrix
	} bind def
/dmatrix matrix def
/dpi    72 0 dmatrix defaultmatrix dtransform
    dup mul exch   dup mul add   sqrt def
	
/freq dpi dup 72 div round dup 0 eq {pop 1} if 8 mul div def
/sangle 1 0 dmatrix defaultmatrix dtransform exch atan def
/dpiranges   [  2540    2400    1693     1270    1200     635      600      0      ] def
/CMLowFreqs  [ 100.402  94.8683 89.2289 100.402  94.8683  66.9349  63.2456 47.4342 ] def
/YLowFreqs   [  95.25   90.0    84.65    95.25   90.0     70.5556  66.6667 50.0    ] def
/KLowFreqs   [  89.8026 84.8528 79.8088  89.8026 84.8528  74.8355  70.7107 53.033  ] def
/CLowAngles  [  71.5651 71.5651 71.5651 71.5651  71.5651  71.5651  71.5651 71.5651 ] def
/MLowAngles  [  18.4349 18.4349 18.4349 18.4349  18.4349  18.4349  18.4349 18.4349 ] def
/YLowTDot    [  true    true    false    true    true     false    false   false   ] def
/CMHighFreqs [ 133.87  126.491 133.843  108.503 102.523  100.402   94.8683 63.2456 ] def
/YHighFreqs  [ 127.0   120.0   126.975  115.455 109.091   95.25    90.0    60.0    ] def
/KHighFreqs  [ 119.737 113.137 119.713  128.289 121.218   89.8026  84.8528 63.6395 ] def
/CHighAngles [  71.5651 71.5651 71.5651  70.0169 70.0169  71.5651  71.5651 71.5651 ] def
/MHighAngles [  18.4349 18.4349 18.4349  19.9831 19.9831  18.4349  18.4349 18.4349 ] def
/YHighTDot   [  false   false   true     false   false    true     true    false   ] def
/PatFreq     [	10.5833 10.0     9.4055  10.5833 10.0	  10.5833  10.0	   9.375   ] def
/screenIndex {
	0 1 dpiranges length 1 sub { dup dpiranges exch get 1 sub dpi le {exit} {pop} ifelse } for
} bind def
/getCyanScreen {
	FMUseHighFrequencyScreens { CHighAngles CMHighFreqs} {CLowAngles CMLowFreqs} ifelse
		screenIndex dup 3 1 roll get 3 1 roll get /FMSpotFunction load
} bind def
/getMagentaScreen {
	FMUseHighFrequencyScreens { MHighAngles CMHighFreqs } {MLowAngles CMLowFreqs} ifelse
		screenIndex dup 3 1 roll get 3 1 roll get /FMSpotFunction load
} bind def
/getYellowScreen {
	FMUseHighFrequencyScreens { YHighTDot YHighFreqs} { YLowTDot YLowFreqs } ifelse
		screenIndex dup 3 1 roll get 3 1 roll get { 3 div
			{2 { 1 add 2 div 3 mul dup floor sub 2 mul 1 sub exch} repeat
			FMSpotFunction } } {/FMSpotFunction load } ifelse
			0.0 exch
} bind def
/getBlackScreen  {
	FMUseHighFrequencyScreens { KHighFreqs } { KLowFreqs } ifelse
		screenIndex get 45.0 /FMSpotFunction load 
} bind def
/getSpotScreen {
	getBlackScreen
} bind def
/getCompositeScreen {
	getBlackScreen
} bind def
/FMSetScreen 
	FMLevel1 { /setscreen load 
	}{ {
		8 dict begin
		/HalftoneType 1 def
		/SpotFunction exch def
		/Angle exch def
		/Frequency exch def
		/AccurateScreens FMUseAcccurateScreens def
		currentdict end sethalftone
	} bind } ifelse
def
/setDefaultScreen {
	FMPColor {
		orgrxfer cvx orggxfer cvx orgbxfer cvx orgxfer cvx setcolortransfer
	}
	{
		orgxfer cvx settransfer
	} ifelse
	orgfreq organgle orgproc cvx setscreen
} bind def
/setCurrentScreen {
	FrameSepIs FMnone eq {
		FMUseDefaultNoSeparationScreen {
			setDefaultScreen
		} {
			getCompositeScreen FMSetScreen
		} ifelse
	} {
		FrameSepIs FMcustom eq {
			FMUseDefaultSpotSeparationScreen {
				setDefaultScreen
			} {
				getSpotScreen FMSetScreen
			} ifelse
		} {
			FMUseDefaultProcessSeparationScreen {
				setDefaultScreen
			} {
				FrameSepIs FMcyan eq {
					getCyanScreen FMSetScreen
				} {
					FrameSepIs FMmagenta eq {
						getMagentaScreen FMSetScreen
					} {
						FrameSepIs FMyellow eq {
							getYellowScreen FMSetScreen
						} {
							getBlackScreen FMSetScreen
						} ifelse
					} ifelse
				} ifelse
			} ifelse
		} ifelse
	} ifelse 
} bind def
end
	/gstring FMLOCAL
	/gfile FMLOCAL
	/gindex FMLOCAL
	/orgrxfer FMLOCAL
	/orggxfer FMLOCAL
	/orgbxfer FMLOCAL
	/orgxfer FMLOCAL
	/orgproc FMLOCAL
	/orgrproc FMLOCAL
	/orggproc FMLOCAL
	/orgbproc FMLOCAL
	/organgle FMLOCAL
	/orgrangle FMLOCAL
	/orggangle FMLOCAL
	/orgbangle FMLOCAL
	/orgfreq FMLOCAL
	/orgrfreq FMLOCAL
	/orggfreq FMLOCAL
	/orgbfreq FMLOCAL
	/yscale FMLOCAL
	/xscale FMLOCAL
	/edown FMLOCAL
	/manualfeed FMLOCAL
	/paperheight FMLOCAL
	/paperwidth FMLOCAL
/FMDOCUMENT { 
	array /FMfonts exch def 
	/#copies exch def
	FrameDict begin
	0 ne /manualfeed exch def
	/paperheight exch def
	/paperwidth exch def
	0 ne /FrameNegative exch def 
	0 ne /edown exch def 
	/yscale exch def
	/xscale exch def
	FMLevel1 {
		manualfeed {setmanualfeed} if
		/FMdicttop countdictstack 1 add def 
		/FMoptop count def 
		setpapername 
		manualfeed {true} {papersize} ifelse 
		{manualpapersize} {false} ifelse 
		{desperatepapersize} {false} ifelse 
		{ (Can't select requested paper size for Frame print job!) FMFAILURE } if
		count -1 FMoptop {pop pop} for
		countdictstack -1 FMdicttop {pop end} for 
		}
		{{1 dict dup /PageSize [paperwidth paperheight]put setpagedevice}stopped
		{ (Can't select requested paper size for Frame print job!) FMFAILURE } if
		 {1 dict dup /ManualFeed manualfeed put setpagedevice } stopped pop }
	ifelse 
	
	FMPColor {
		currentcolorscreen
			cvlit /orgproc exch def
				  /organgle exch def 
				  /orgfreq exch def
			cvlit /orgbproc exch def
				  /orgbangle exch def 
				  /orgbfreq exch def
			cvlit /orggproc exch def
				  /orggangle exch def 
				  /orggfreq exch def
			cvlit /orgrproc exch def
				  /orgrangle exch def 
				  /orgrfreq exch def
			currentcolortransfer 
			FrameNegative {
				1 1 4 { 
					pop { 1 exch sub } concatprocs 4 1 roll
				} for
				4 copy
				setcolortransfer
			} if
			cvlit /orgxfer exch def
			cvlit /orgbxfer exch def
			cvlit /orggxfer exch def
			cvlit /orgrxfer exch def
	} {
		currentscreen 
			cvlit /orgproc exch def
				  /organgle exch def 
				  /orgfreq exch def
				  
		currenttransfer 
		FrameNegative {
			{ 1 exch sub } concatprocs
			dup settransfer
		} if 
		cvlit /orgxfer exch def
	} ifelse
	end 
} def 
/pagesave FMLOCAL
/orgmatrix FMLOCAL
/landscape FMLOCAL
/pwid FMLOCAL
/FMBEGINPAGE { 
	FrameDict begin 
	/pagesave save def
	3.86 setmiterlimit
	/landscape exch 0 ne def
	landscape { 
		90 rotate 0 exch dup /pwid exch def neg translate pop 
	}{
		pop /pwid exch def
	} ifelse
	edown { [-1 0 0 1 pwid 0] concat } if
	0 0 moveto paperwidth 0 lineto paperwidth paperheight lineto 
	0 paperheight lineto 0 0 lineto 1 setgray fill
	xscale yscale scale
	/orgmatrix matrix def
	gsave 
} def 
/FMENDPAGE {
	grestore 
	pagesave restore
	end 
	showpage
	} def 
/FMFONTDEFINE { 
	FrameDict begin
	findfont 
	ReEncode 
	1 index exch 
	definefont 
	FMfonts 3 1 roll 
	put
	end 
	} def 
/FMFILLS {
	FrameDict begin dup
	array /fillvals exch def
	dict /patCache exch def
	end 
	} def 
/FMFILL {
	FrameDict begin
	 fillvals 3 1 roll put
	end 
	} def 
/FMNORMALIZEGRAPHICS { 
	newpath
	0.0 0.0 moveto
	1 setlinewidth
	0 setlinecap
	0 0 0 sethsbcolor
	0 setgray 
	} bind def
	/fx FMLOCAL
	/fy FMLOCAL
	/fh FMLOCAL
	/fw FMLOCAL
	/llx FMLOCAL
	/lly FMLOCAL
	/urx FMLOCAL
	/ury FMLOCAL
/FMBEGINEPSF { 
	end 
	/FMEPSF save def 
	/showpage {} def 
% See Adobe's "PostScript Language Reference Manual, 2nd Edition", page 714.
% "...the following operators MUST NOT be used in an EPS file:" (emphasis ours)
	/banddevice {(banddevice) FMBADEPSF} def
	/clear {(clear) FMBADEPSF} def
	/cleardictstack {(cleardictstack) FMBADEPSF} def 
	/copypage {(copypage) FMBADEPSF} def
	/erasepage {(erasepage) FMBADEPSF} def
	/exitserver {(exitserver) FMBADEPSF} def
	/framedevice {(framedevice) FMBADEPSF} def
	/grestoreall {(grestoreall) FMBADEPSF} def
	/initclip {(initclip) FMBADEPSF} def
	/initgraphics {(initgraphics) FMBADEPSF} def
	/initmatrix {(initmatrix) FMBADEPSF} def
	/quit {(quit) FMBADEPSF} def
	/renderbands {(renderbands) FMBADEPSF} def
	/setglobal {(setglobal) FMBADEPSF} def
	/setpagedevice {(setpagedevice) FMBADEPSF} def
	/setshared {(setshared) FMBADEPSF} def
	/startjob {(startjob) FMBADEPSF} def
	/lettertray {(lettertray) FMBADEPSF} def
	/letter {(letter) FMBADEPSF} def
	/lettersmall {(lettersmall) FMBADEPSF} def
	/11x17tray {(11x17tray) FMBADEPSF} def
	/11x17 {(11x17) FMBADEPSF} def
	/ledgertray {(ledgertray) FMBADEPSF} def
	/ledger {(ledger) FMBADEPSF} def
	/legaltray {(legaltray) FMBADEPSF} def
	/legal {(legal) FMBADEPSF} def
	/statementtray {(statementtray) FMBADEPSF} def
	/statement {(statement) FMBADEPSF} def
	/executivetray {(executivetray) FMBADEPSF} def
	/executive {(executive) FMBADEPSF} def
	/a3tray {(a3tray) FMBADEPSF} def
	/a3 {(a3) FMBADEPSF} def
	/a4tray {(a4tray) FMBADEPSF} def
	/a4 {(a4) FMBADEPSF} def
	/a4small {(a4small) FMBADEPSF} def
	/b4tray {(b4tray) FMBADEPSF} def
	/b4 {(b4) FMBADEPSF} def
	/b5tray {(b5tray) FMBADEPSF} def
	/b5 {(b5) FMBADEPSF} def
	FMNORMALIZEGRAPHICS 
	[/fy /fx /fh /fw /ury /urx /lly /llx] {exch def} forall 
	fx fw 2 div add fy fh 2 div add  translate
	rotate
	fw 2 div neg fh 2 div neg translate
	fw urx llx sub div fh ury lly sub div scale 
	llx neg lly neg translate 
	/FMdicttop countdictstack 1 add def 
	/FMoptop count def 
	} bind def
/FMENDEPSF {
	count -1 FMoptop {pop pop} for 
	countdictstack -1 FMdicttop {pop end} for 
	FMEPSF restore
	FrameDict begin 
	} bind def
FrameDict begin 
/setmanualfeed {
%%BeginFeature *ManualFeed True
	 statusdict /manualfeed true put
%%EndFeature
	} bind def
/max {2 copy lt {exch} if pop} bind def
/min {2 copy gt {exch} if pop} bind def
/inch {72 mul} def
/pagedimen { 
	paperheight sub abs 16 lt exch 
	paperwidth sub abs 16 lt and
	{/papername exch def} {pop} ifelse
	} bind def
	/papersizedict FMLOCAL
/setpapername { 
	/papersizedict 14 dict def 
	papersizedict begin
	/papername /unknown def 
		/Letter 8.5 inch 11.0 inch pagedimen
		/LetterSmall 7.68 inch 10.16 inch pagedimen
		/Tabloid 11.0 inch 17.0 inch pagedimen
		/Ledger 17.0 inch 11.0 inch pagedimen
		/Legal 8.5 inch 14.0 inch pagedimen
		/Statement 5.5 inch 8.5 inch pagedimen
		/Executive 7.5 inch 10.0 inch pagedimen
		/A3 11.69 inch 16.5 inch pagedimen
		/A4 8.26 inch 11.69 inch pagedimen
		/A4Small 7.47 inch 10.85 inch pagedimen
		/B4 10.125 inch 14.33 inch pagedimen
		/B5 7.16 inch 10.125 inch pagedimen
	end
	} bind def
/papersize {
	papersizedict begin
		/Letter {lettertray letter} def
		/LetterSmall {lettertray lettersmall} def
		/Tabloid {11x17tray 11x17} def
		/Ledger {ledgertray ledger} def
		/Legal {legaltray legal} def
		/Statement {statementtray statement} def
		/Executive {executivetray executive} def
		/A3 {a3tray a3} def
		/A4 {a4tray a4} def
		/A4Small {a4tray a4small} def
		/B4 {b4tray b4} def
		/B5 {b5tray b5} def
		/unknown {unknown} def
	papersizedict dup papername known {papername} {/unknown} ifelse get
	end
	statusdict begin stopped end 
	} bind def
/manualpapersize {
	papersizedict begin
		/Letter {letter} def
		/LetterSmall {lettersmall} def
		/Tabloid {11x17} def
		/Ledger {ledger} def
		/Legal {legal} def
		/Statement {statement} def
		/Executive {executive} def
		/A3 {a3} def
		/A4 {a4} def
		/A4Small {a4small} def
		/B4 {b4} def
		/B5 {b5} def
		/unknown {unknown} def
	papersizedict dup papername known {papername} {/unknown} ifelse get
	end
	stopped 
	} bind def
/desperatepapersize {
	statusdict /setpageparams known
		{
		paperwidth paperheight 0 1 
		statusdict begin
		{setpageparams} stopped 
		end
		} {true} ifelse 
	} bind def
/DiacriticEncoding [
/.notdef /.notdef /.notdef /.notdef /.notdef /.notdef /.notdef
/.notdef /.notdef /.notdef /.notdef /.notdef /.notdef /.notdef
/.notdef /.notdef /.notdef /.notdef /.notdef /.notdef /.notdef
/.notdef /.notdef /.notdef /.notdef /.notdef /.notdef /.notdef
/.notdef /.notdef /.notdef /.notdef /space /exclam /quotedbl
/numbersign /dollar /percent /ampersand /quotesingle /parenleft
/parenright /asterisk /plus /comma /hyphen /period /slash /zero /one
/two /three /four /five /six /seven /eight /nine /colon /semicolon
/less /equal /greater /question /at /A /B /C /D /E /F /G /H /I /J /K
/L /M /N /O /P /Q /R /S /T /U /V /W /X /Y /Z /bracketleft /backslash
/bracketright /asciicircum /underscore /grave /a /b /c /d /e /f /g /h
/i /j /k /l /m /n /o /p /q /r /s /t /u /v /w /x /y /z /braceleft /bar
/braceright /asciitilde /.notdef /Adieresis /Aring /Ccedilla /Eacute
/Ntilde /Odieresis /Udieresis /aacute /agrave /acircumflex /adieresis
/atilde /aring /ccedilla /eacute /egrave /ecircumflex /edieresis
/iacute /igrave /icircumflex /idieresis /ntilde /oacute /ograve
/ocircumflex /odieresis /otilde /uacute /ugrave /ucircumflex
/udieresis /dagger /.notdef /cent /sterling /section /bullet
/paragraph /germandbls /registered /copyright /trademark /acute
/dieresis /.notdef /AE /Oslash /.notdef /.notdef /.notdef /.notdef
/yen /.notdef /.notdef /.notdef /.notdef /.notdef /.notdef
/ordfeminine /ordmasculine /.notdef /ae /oslash /questiondown
/exclamdown /logicalnot /.notdef /florin /.notdef /.notdef
/guillemotleft /guillemotright /ellipsis /.notdef /Agrave /Atilde
/Otilde /OE /oe /endash /emdash /quotedblleft /quotedblright
/quoteleft /quoteright /.notdef /.notdef /ydieresis /Ydieresis
/fraction /currency /guilsinglleft /guilsinglright /fi /fl /daggerdbl
/periodcentered /quotesinglbase /quotedblbase /perthousand
/Acircumflex /Ecircumflex /Aacute /Edieresis /Egrave /Iacute
/Icircumflex /Idieresis /Igrave /Oacute /Ocircumflex /.notdef /Ograve
/Uacute /Ucircumflex /Ugrave /dotlessi /circumflex /tilde /macron
/breve /dotaccent /ring /cedilla /hungarumlaut /ogonek /caron
] def
/ReEncode { 
	dup 
	length 
	dict begin 
	{
	1 index /FID ne 
		{def} 
		{pop pop} ifelse 
	} forall 
	0 eq {/Encoding DiacriticEncoding def} if 
	currentdict 
	end 
	} bind def
FMPColor 
	
	{
	/BEGINBITMAPCOLOR { 
		BITMAPCOLOR} def
	/BEGINBITMAPCOLORc { 
		BITMAPCOLORc} def
	/BEGINBITMAPTRUECOLOR { 
		BITMAPTRUECOLOR } def
	/BEGINBITMAPTRUECOLORc { 
		BITMAPTRUECOLORc } def
	}
	
	{
	/BEGINBITMAPCOLOR { 
		BITMAPGRAY} def
	/BEGINBITMAPCOLORc { 
		BITMAPGRAYc} def
	/BEGINBITMAPTRUECOLOR { 
		BITMAPTRUEGRAY } def
	/BEGINBITMAPTRUECOLORc { 
		BITMAPTRUEGRAYc } def
	}
ifelse
/K { 
	FMPrintAllColorsAsBlack {
		dup 1 eq 2 index 1 eq and 3 index 1 eq and not
			{7 {pop} repeat 0 0 0 1 0 0 0} if
	} if 
	FrameCurColors astore 
	pop combineColor
} bind def
/graymode true def
	/bwidth FMLOCAL
	/bpside FMLOCAL
	/bstring FMLOCAL
	/onbits FMLOCAL
	/offbits FMLOCAL
	/xindex FMLOCAL
	/yindex FMLOCAL
	/x FMLOCAL
	/y FMLOCAL
/setPatternMode {
	FMLevel1 {
		/bwidth  exch def
		/bpside  exch def
		/bstring exch def
		/onbits 0 def  /offbits 0 def
		freq sangle landscape {90 add} if 
			{/y exch def
			 /x exch def
			 /xindex x 1 add 2 div bpside mul cvi def
			 /yindex y 1 add 2 div bpside mul cvi def
			 bstring yindex bwidth mul xindex 8 idiv add get
			 1 7 xindex 8 mod sub bitshift and 0 ne FrameNegative {not} if
			 {/onbits  onbits  1 add def 1}
			 {/offbits offbits 1 add def 0}
			 ifelse
			}
			setscreen
		offbits offbits onbits add div FrameNegative {1.0 exch sub} if
		/FrameCurGray exch def
	} { 
		pop pop
		dup patCache exch known {
			patCache exch get
		} { 
			dup
			patDict /bstring 3 -1 roll put
			patDict 
			9 PatFreq screenIndex get div dup matrix scale
			makepattern
			dup 
			patCache 4 -1 roll 3 -1 roll put
		} ifelse
		/FrameCurGray 0 def
		/FrameCurPat exch def
	} ifelse
	/graymode false def
	combineColor
} bind def
/setGrayScaleMode {
	graymode not {
		/graymode true def
		FMLevel1 {
			setCurrentScreen
		} if
	} if
	/FrameCurGray exch def
	combineColor
} bind def
/normalize {
	transform round exch round exch itransform
	} bind def
/dnormalize {
	dtransform round exch round exch idtransform
	} bind def
/lnormalize { 
	0 dtransform exch cvi 2 idiv 2 mul 1 add exch idtransform pop
	} bind def
/H { 
	lnormalize setlinewidth
	} bind def
/Z {
	setlinecap
	} bind def
	
/PFill {
	graymode FMLevel1 or not {
		gsave 1 setgray eofill grestore
	} if
} bind def
/PStroke {
	graymode FMLevel1 or not {
		gsave 1 setgray stroke grestore
	} if
	stroke
} bind def
	/fillvals FMLOCAL
/X { 
	fillvals exch get
	dup type /stringtype eq
	{8 1 setPatternMode} 
	{setGrayScaleMode}
	ifelse
	} bind def
/V { 
	PFill gsave eofill grestore
	} bind def
/Vclip {
	clip
	} bind def
/Vstrk {
	currentlinewidth exch setlinewidth PStroke setlinewidth
	} bind def
/N { 
	PStroke
	} bind def
/Nclip {
	strokepath clip newpath
	} bind def
/Nstrk {
	currentlinewidth exch setlinewidth PStroke setlinewidth
	} bind def
/M {newpath moveto} bind def
/E {lineto} bind def
/D {curveto} bind def
/O {closepath} bind def
	/n FMLOCAL
/L { 
 	/n exch def
	newpath
	normalize
	moveto 
	2 1 n {pop normalize lineto} for
	} bind def
/Y { 
	L 
	closepath
	} bind def
	/x1 FMLOCAL
	/x2 FMLOCAL
	/y1 FMLOCAL
	/y2 FMLOCAL
/R { 
	/y2 exch def
	/x2 exch def
	/y1 exch def
	/x1 exch def
	x1 y1
	x2 y1
	x2 y2
	x1 y2
	4 Y 
	} bind def
	/rad FMLOCAL
/rarc 
	{rad 
	 arcto
	} bind def
/RR { 
	/rad exch def
	normalize
	/y2 exch def
	/x2 exch def
	normalize
	/y1 exch def
	/x1 exch def
	mark
	newpath
	{
	x1 y1 rad add moveto
	x1 y2 x2 y2 rarc
	x2 y2 x2 y1 rarc
	x2 y1 x1 y1 rarc
	x1 y1 x1 y2 rarc
	closepath
	} stopped {x1 y1 x2 y2 R} if 
	cleartomark
	} bind def
/RRR { 
	/rad exch def
	normalize /y4 exch def /x4 exch def
	normalize /y3 exch def /x3 exch def
	normalize /y2 exch def /x2 exch def
	normalize /y1 exch def /x1 exch def
	newpath
	normalize moveto 
	mark
	{
	x2 y2 x3 y3 rarc
	x3 y3 x4 y4 rarc
	x4 y4 x1 y1 rarc
	x1 y1 x2 y2 rarc
	closepath
	} stopped
	 {x1 y1 x2 y2 x3 y3 x4 y4 newpath moveto lineto lineto lineto closepath} if
	cleartomark
	} bind def
/C { 
	grestore
	gsave
	R 
	clip
	setCurrentScreen
} bind def
/CP { 
	grestore
	gsave
	Y 
	clip
	setCurrentScreen
} bind def
	/FMpointsize FMLOCAL
/F { 
	FMfonts exch get
	FMpointsize scalefont
	setfont
	} bind def
/Q { 
	/FMpointsize exch def
	F 
	} bind def
/T { 
	moveto show
	} bind def
/RF { 
	rotate
	0 ne {-1 1 scale} if
	} bind def
/TF { 
	gsave
	moveto 
	RF
	show
	grestore
	} bind def
/P { 
	moveto
	0 32 3 2 roll widthshow
	} bind def
/PF { 
	gsave
	moveto 
	RF
	0 32 3 2 roll widthshow
	grestore
	} bind def
/S { 
	moveto
	0 exch ashow
	} bind def
/SF { 
	gsave
	moveto
	RF
	0 exch ashow
	grestore
	} bind def
/B { 
	moveto
	0 32 4 2 roll 0 exch awidthshow
	} bind def
/BF { 
	gsave
	moveto
	RF
	0 32 4 2 roll 0 exch awidthshow
	grestore
	} bind def
/G { 
	gsave
	newpath
	normalize translate 0.0 0.0 moveto 
	dnormalize scale 
	0.0 0.0 1.0 5 3 roll arc 
	closepath 
	PFill fill
	grestore
	} bind def
/Gstrk {
	savematrix
    newpath
    2 index 2 div add exch 3 index 2 div sub exch 
    normalize 2 index 2 div sub exch 3 index 2 div add exch 
    translate
    scale 
    0.0 0.0 1.0 5 3 roll arc 
    restorematrix
    currentlinewidth exch setlinewidth PStroke setlinewidth
    } bind def
/Gclip { 
	newpath
	savematrix
	normalize translate 0.0 0.0 moveto 
	dnormalize scale 
	0.0 0.0 1.0 5 3 roll arc 
	closepath 
	clip newpath
	restorematrix
	} bind def
/GG { 
	gsave
	newpath
	normalize translate 0.0 0.0 moveto 
	rotate 
	dnormalize scale 
	0.0 0.0 1.0 5 3 roll arc 
	closepath
	PFill
	fill
	grestore
	} bind def
/GGclip { 
	savematrix
	newpath
    normalize translate 0.0 0.0 moveto 
    rotate 
    dnormalize scale 
    0.0 0.0 1.0 5 3 roll arc 
    closepath
	clip newpath
	restorematrix
	} bind def
/GGstrk { 
	savematrix
    newpath
    normalize translate 0.0 0.0 moveto 
    rotate 
    dnormalize scale 
    0.0 0.0 1.0 5 3 roll arc 
    closepath 
	restorematrix
    currentlinewidth exch setlinewidth PStroke setlinewidth
	} bind def
/A { 
	gsave
	savematrix
	newpath
	2 index 2 div add exch 3 index 2 div sub exch 
	normalize 2 index 2 div sub exch 3 index 2 div add exch 
	translate 
	scale 
	0.0 0.0 1.0 5 3 roll arc 
	restorematrix
	PStroke
	grestore
	} bind def
/Aclip {
	newpath
	savematrix
	normalize translate 0.0 0.0 moveto 
	dnormalize scale 
	0.0 0.0 1.0 5 3 roll arc 
	closepath 
	strokepath clip newpath
	restorematrix
} bind def
/Astrk {
	Gstrk
} bind def
/AA { 
	gsave
	savematrix
	newpath
	
	3 index 2 div add exch 4 index 2 div sub exch 
	
	normalize 3 index 2 div sub exch 4 index 2 div add exch
	translate 
	rotate 
	scale 
	0.0 0.0 1.0 5 3 roll arc 
	restorematrix
	PStroke
	grestore
	} bind def
/AAclip {
	savematrix
	newpath
    normalize translate 0.0 0.0 moveto 
    rotate 
    dnormalize scale 
    0.0 0.0 1.0 5 3 roll arc 
    closepath
	strokepath clip newpath
	restorematrix
} bind def
/AAstrk {
	GGstrk
} bind def
	/x FMLOCAL
	/y FMLOCAL
	/w FMLOCAL
	/h FMLOCAL
	/xx FMLOCAL
	/yy FMLOCAL
	/ww FMLOCAL
	/hh FMLOCAL
	/FMsaveobject FMLOCAL
	/FMoptop FMLOCAL
	/FMdicttop FMLOCAL
/BEGINPRINTCODE { 
	/FMdicttop countdictstack 1 add def 
	/FMoptop count 7 sub def 
	/FMsaveobject save def
	userdict begin 
	/showpage {} def 
	FMNORMALIZEGRAPHICS 
	3 index neg 3 index neg translate
	} bind def
/ENDPRINTCODE {
	count -1 FMoptop {pop pop} for 
	countdictstack -1 FMdicttop {pop end} for 
	FMsaveobject restore 
	} bind def
/gn { 
	0 
	{	46 mul 
		cf read pop 
		32 sub 
		dup 46 lt {exit} if 
		46 sub add 
		} loop
	add 
	} bind def
	/str FMLOCAL
/cfs { 
	/str sl string def 
	0 1 sl 1 sub {str exch val put} for 
	str def 
	} bind def
/ic [ 
	0 0 0 0 0 0 0 0 0 0 0 0 0 0 0 0223
	0 0 0 0 0 0 0 0 0 0 0 0 0 0 0 0223
	0
	{0 hx} {1 hx} {2 hx} {3 hx} {4 hx} {5 hx} {6 hx} {7 hx} {8 hx} {9 hx}
	{10 hx} {11 hx} {12 hx} {13 hx} {14 hx} {15 hx} {16 hx} {17 hx} {18 hx}
	{19 hx} {gn hx} {0} {1} {2} {3} {4} {5} {6} {7} {8} {9} {10} {11} {12}
	{13} {14} {15} {16} {17} {18} {19} {gn} {0 wh} {1 wh} {2 wh} {3 wh}
	{4 wh} {5 wh} {6 wh} {7 wh} {8 wh} {9 wh} {10 wh} {11 wh} {12 wh}
	{13 wh} {14 wh} {gn wh} {0 bl} {1 bl} {2 bl} {3 bl} {4 bl} {5 bl} {6 bl}
	{7 bl} {8 bl} {9 bl} {10 bl} {11 bl} {12 bl} {13 bl} {14 bl} {gn bl}
	{0 fl} {1 fl} {2 fl} {3 fl} {4 fl} {5 fl} {6 fl} {7 fl} {8 fl} {9 fl}
	{10 fl} {11 fl} {12 fl} {13 fl} {14 fl} {gn fl}
	] def
	/sl FMLOCAL
	/val FMLOCAL
	/ws FMLOCAL
	/im FMLOCAL
	/bs FMLOCAL
	/cs FMLOCAL
	/len FMLOCAL
	/pos FMLOCAL
/ms { 
	/sl exch def 
	/val 255 def 
	/ws cfs 
	/im cfs 
	/val 0 def 
	/bs cfs 
	/cs cfs 
	} bind def
400 ms 
/ip { 
	is 
	0 
	cf cs readline pop 
	{	ic exch get exec 
		add 
		} forall 
	pop 
	
	} bind def
/rip { 
	   
	  
	  bis ris copy pop 
      is
      0
      cf cs readline pop 
      {       ic exch get exec 
              add 
              } forall 
	  pop pop 
	  ris gis copy pop 
	  dup is exch 
	  
      cf cs readline pop 
      {       ic exch get exec 
              add 
              } forall 
	  pop pop
	  gis bis copy pop 
	  dup add is exch 
	  
      cf cs readline pop 
      {       ic exch get exec 
              add 
              } forall 
      pop 
      
      } bind def
/wh { 
	/len exch def 
	/pos exch def 
	ws 0 len getinterval im pos len getinterval copy pop
	pos len 
	} bind def
/bl { 
	/len exch def 
	/pos exch def 
	bs 0 len getinterval im pos len getinterval copy pop
	pos len 
	} bind def
/s1 1 string def
/fl { 
	/len exch def 
	/pos exch def 
	/val cf s1 readhexstring pop 0 get def
	pos 1 pos len add 1 sub {im exch val put} for
	pos len 
	} bind def
/hx { 
	3 copy getinterval 
	cf exch readhexstring pop pop 
	} bind def
	/h FMLOCAL
	/w FMLOCAL
	/d FMLOCAL
	/lb FMLOCAL
	/bitmapsave FMLOCAL
	/is FMLOCAL
	/cf FMLOCAL
/wbytes { 
      dup dup
      24 eq { pop pop 3 mul }
      { 8 eq {pop} {1 eq {7 add 8 idiv} {3 add 4 idiv} ifelse} ifelse } ifelse
	} bind def
/BEGINBITMAPBWc { 
	1 {} COMMONBITMAPc
	} bind def
/BEGINBITMAPGRAYc { 
	8 {} COMMONBITMAPc
	} bind def
/BEGINBITMAP2BITc { 
	2 {} COMMONBITMAPc
	} bind def
/COMMONBITMAPc { 
		 
	/r exch def
	/d exch def
	gsave
	
	3 index 2 div add exch	
	4 index 2 div add exch	
	translate		
	rotate			
	1 index 2 div neg	
	1 index 2 div neg	
	translate		
	scale			
	/h exch def /w exch def
	/lb w d wbytes def 
	sl lb lt {lb ms} if 
	/bitmapsave save def 
	r                    
	/is im 0 lb getinterval def 
	ws 0 lb getinterval is copy pop 
	/cf currentfile def 
	w h d [w 0 0 h neg 0 h] 
	{ip} image 
	bitmapsave restore 
	grestore
	} bind def
/BEGINBITMAPBW { 
	1 {} COMMONBITMAP
	} bind def
/BEGINBITMAPGRAY { 
	8 {} COMMONBITMAP
	} bind def
/BEGINBITMAP2BIT { 
	2 {} COMMONBITMAP
	} bind def
/COMMONBITMAP { 
	/r exch def
	/d exch def
	gsave
	
	3 index 2 div add exch	
	4 index 2 div add exch	
	translate		
	rotate			
	1 index 2 div neg	
	1 index 2 div neg	
	translate		
	scale			
	/h exch def /w exch def
	/bitmapsave save def 
	r                    
	/is w d wbytes string def
	/cf currentfile def 
	w h d [w 0 0 h neg 0 h] 
	{cf is readhexstring pop} image
	bitmapsave restore 
	grestore
	} bind def
/ngrayt 256 array def
/nredt 256 array def
/nbluet 256 array def
/ngreent 256 array def
	/gryt FMLOCAL
	/blut FMLOCAL
	/grnt FMLOCAL
	/redt FMLOCAL
	/indx FMLOCAL
	/cynu FMLOCAL
	/magu FMLOCAL
	/yelu FMLOCAL
	/k FMLOCAL
	/u FMLOCAL
FMLevel1 {
/colorsetup {
	currentcolortransfer
	/gryt exch def
	/blut exch def
	/grnt exch def
	/redt exch def
	0 1 255 {
		/indx exch def
		/cynu 1 red indx get 255 div sub def
		/magu 1 green indx get 255 div sub def
		/yelu 1 blue indx get 255 div sub def
		/k cynu magu min yelu min def
		/u k currentundercolorremoval exec def
%		/u 0 def
		nredt indx 1 0 cynu u sub max sub redt exec put
		ngreent indx 1 0 magu u sub max sub grnt exec put
		nbluet indx 1 0 yelu u sub max sub blut exec put
		ngrayt indx 1 k currentblackgeneration exec sub gryt exec put
	} for
	{255 mul cvi nredt exch get}
	{255 mul cvi ngreent exch get}
	{255 mul cvi nbluet exch get}
	{255 mul cvi ngrayt exch get}
	setcolortransfer
	{pop 0} setundercolorremoval
	{} setblackgeneration
	} bind def
}
{
/colorSetup2 {
	[ /Indexed /DeviceRGB 255 
		{dup red exch get 255 div 
		 exch dup green exch get 255 div 
		 exch blue exch get 255 div}
	] setcolorspace
} bind def
} ifelse
	/tran FMLOCAL
/fakecolorsetup {
	/tran 256 string def
	0 1 255 {/indx exch def 
		tran indx
		red indx get 77 mul
		green indx get 151 mul
		blue indx get 28 mul
		add add 256 idiv put} for
	currenttransfer
	{255 mul cvi tran exch get 255.0 div}
	exch concatprocs settransfer
} bind def
/BITMAPCOLOR { 
	/d 8 def
	gsave
	
	3 index 2 div add exch	
	4 index 2 div add exch	
	translate		
	rotate			
	1 index 2 div neg	
	1 index 2 div neg	
	translate		
	scale			
	/h exch def /w exch def
	/bitmapsave save def
	FMLevel1 {	
		colorsetup
		/is w d wbytes string def
		/cf currentfile def 
		w h d [w 0 0 h neg 0 h] 
		{cf is readhexstring pop} {is} {is} true 3 colorimage 
	} {
		colorSetup2
		/is w d wbytes string def
		/cf currentfile def 
		7 dict dup begin
			/ImageType 1 def
			/Width w def
			/Height h def
			/ImageMatrix [w 0 0 h neg 0 h] def
			/DataSource {cf is readhexstring pop} bind def
			/BitsPerComponent d def
			/Decode [0 255] def
		end image	
	} ifelse
	bitmapsave restore 
	grestore
	} bind def
/BITMAPCOLORc { 
	/d 8 def
	gsave
	
	3 index 2 div add exch	
	4 index 2 div add exch	
	translate		
	rotate			
	1 index 2 div neg	
	1 index 2 div neg	
	translate		
	scale			
	/h exch def /w exch def
	/lb w d wbytes def 
	sl lb lt {lb ms} if 
	/bitmapsave save def 
	FMLevel1 {	
		colorsetup
		/is im 0 lb getinterval def 
		ws 0 lb getinterval is copy pop 
		/cf currentfile def 
		w h d [w 0 0 h neg 0 h] 
		{ip} {is} {is} true 3 colorimage
	} {
		colorSetup2
		/is im 0 lb getinterval def 
		ws 0 lb getinterval is copy pop 
		/cf currentfile def 
		7 dict dup begin
			/ImageType 1 def
			/Width w def
			/Height h def
			/ImageMatrix [w 0 0 h neg 0 h] def
			/DataSource {ip} bind def
			/BitsPerComponent d def
			/Decode [0 255] def
		end image	
	} ifelse
	bitmapsave restore 
	grestore
	} bind def
/BITMAPTRUECOLORc { 
	/d 24 def
        gsave
 	
	3 index 2 div add exch	
	4 index 2 div add exch	
	translate		
	rotate			
	1 index 2 div neg	
	1 index 2 div neg	
	translate		
	scale			
	/h exch def /w exch def
	/lb w d wbytes def 
	sl lb lt {lb ms} if 
        /bitmapsave save def 
        
	/is im 0 lb getinterval def	
	/ris im 0 w getinterval def	
	/gis im w w getinterval def	
	/bis im w 2 mul w getinterval def 
        
        ws 0 lb getinterval is copy pop 
        /cf currentfile def 
        w h 8 [w 0 0 h neg 0 h] 
        {w rip pop ris} {gis} {bis} true 3 colorimage
        bitmapsave restore 
        grestore
        } bind def
/BITMAPTRUECOLOR { 
        gsave
		
		3 index 2 div add exch	
		4 index 2 div add exch	
		translate		
		rotate			
		1 index 2 div neg	
		1 index 2 div neg	
		translate		
		scale			
		/h exch def /w exch def
        /bitmapsave save def 
        /is w string def
        /gis w string def
        /bis w string def
        /cf currentfile def 
        w h 8 [w 0 0 h neg 0 h] 
        { cf is readhexstring pop } 
        { cf gis readhexstring pop } 
        { cf bis readhexstring pop } 
        true 3 colorimage 
        bitmapsave restore 
        grestore
        } bind def
/BITMAPTRUEGRAYc { 
	/d 24 def
        gsave
	
	3 index 2 div add exch	
	4 index 2 div add exch	
	translate		
	rotate			
	1 index 2 div neg	
	1 index 2 div neg	
	translate		
	scale			
	/h exch def /w exch def
	/lb w d wbytes def 
	sl lb lt {lb ms} if 
        /bitmapsave save def 
        
	/is im 0 lb getinterval def	
	/ris im 0 w getinterval def	
	/gis im w w getinterval def	
	/bis im w 2 mul w getinterval def 
        ws 0 lb getinterval is copy pop 
        /cf currentfile def 
        w h 8 [w 0 0 h neg 0 h] 
        {w rip pop ris gis bis w gray} image
        bitmapsave restore 
        grestore
        } bind def
/ww FMLOCAL
/r FMLOCAL
/g FMLOCAL
/b FMLOCAL
/i FMLOCAL
/gray { 
        /ww exch def
        /b exch def
        /g exch def
        /r exch def
        0 1 ww 1 sub { /i exch def r i get .299 mul g i get .587 mul
			b i get .114 mul add add r i 3 -1 roll floor cvi put } for
        r
        } bind def
/BITMAPTRUEGRAY { 
        gsave
		
		3 index 2 div add exch	
		4 index 2 div add exch	
		translate		
		rotate			
		1 index 2 div neg	
		1 index 2 div neg	
		translate		
		scale			
		/h exch def /w exch def
        /bitmapsave save def 
        /is w string def
        /gis w string def
        /bis w string def
        /cf currentfile def 
        w h 8 [w 0 0 h neg 0 h] 
        { cf is readhexstring pop 
          cf gis readhexstring pop 
          cf bis readhexstring pop w gray}  image
        bitmapsave restore 
        grestore
        } bind def
/BITMAPGRAY { 
	8 {fakecolorsetup} COMMONBITMAP
	} bind def
/BITMAPGRAYc { 
	8 {fakecolorsetup} COMMONBITMAPc
	} bind def
/ENDBITMAP {
	} bind def
end 
	/ALDsave FMLOCAL
	/ALDmatrix matrix def ALDmatrix currentmatrix pop
/StartALD {
	/ALDsave save def
	 savematrix
	 ALDmatrix setmatrix
	} bind def
/InALD {
	 restorematrix
	} bind def
/DoneALD {
	 ALDsave restore
	} bind def
/I { setdash } bind def
/J { [] 0 setdash } bind def
%%EndProlog
%%BeginSetup
(4.0) FMVERSION
1 1 0 0 612 792 0 1 6 FMDOCUMENT
0 0 /Helvetica FMFONTDEFINE
1 0 /Helvetica-Bold FMFONTDEFINE
2 0 /Palatino-Roman FMFONTDEFINE
3 1 /Symbol FMFONTDEFINE
32 FMFILLS
0 0 FMFILL
1 0.1 FMFILL
2 0.3 FMFILL
3 0.5 FMFILL
4 0.7 FMFILL
5 0.9 FMFILL
6 0.97 FMFILL
7 1 FMFILL
8 <0f1e3c78f0e1c387> FMFILL
9 <0f87c3e1f0783c1e> FMFILL
10 <cccccccccccccccc> FMFILL
11 <ffff0000ffff0000> FMFILL
12 <8142241818244281> FMFILL
13 <03060c183060c081> FMFILL
14 <8040201008040201> FMFILL
16 1 FMFILL
17 0.9 FMFILL
18 0.7 FMFILL
19 0.5 FMFILL
20 0.3 FMFILL
21 0.1 FMFILL
22 0.03 FMFILL
23 0 FMFILL
24 <f0e1c3870f1e3c78> FMFILL
25 <f0783c1e0f87c3e1> FMFILL
26 <3333333333333333> FMFILL
27 <0000ffff0000ffff> FMFILL
28 <7ebddbe7e7dbbd7e> FMFILL
29 <fcf9f3e7cf9f3f7e> FMFILL
30 <7fbfdfeff7fbfdfe> FMFILL
%%EndSetup
%%Page: "53" 1
%%BeginPaperSize: Letter
%%EndPaperSize
612 792 0 FMBEGINPAGE
[0 0 0 1 0 0 0]
[ 0 1 1 0 1 0 0]
[ 0 1 1 0 1 0 0]
[ 1 0 1 0 0 1 0]
[ 1 1 0 0 0 0 1]
[ 1 0 0 0 0 1 1]
[ 0 1 0 0 1 0 1]
[ 0 0 1 0 1 1 0]
 8 FrameSetSepColors
FrameNoSep
0 0 0 1 0 0 0 K
J
0 0 0 1 0 0 0 K
144.25 590.25 163.42 625.75 R
7 X
0 0 0 1 0 0 0 K
V
0 8 Q
0 X
(38) 147.01 604.67 T
(1) 169.89 614.67 T
(1) 188.71 614.67 T
(152) 192.57 614.67 T
(1249) 218.81 614.67 T
(6900) 253.71 614.67 T
(3.0) 287.95 614.67 T
(0.10) 311.06 614.67 T
(4600) 346.82 614.67 T
(2.0) 381.14 614.67 T
(0.06) 403.6 614.67 T
(2300) 431.27 614.67 T
(32.03) 461.2 614.67 T
(98900) 508.17 614.67 T
(43.0) 542.25 614.67 T
(1.38) 569.65 614.67 T
(2) 169.89 596.67 T
(8050) 253.71 596.67 T
(3.5) 287.95 596.67 T
(0.1) 311.66 596.67 T
(1) 322.18 596.67 T
(3450) 346.82 596.67 T
(1.5) 381.14 596.67 T
(0.05) 403.6 596.67 T
(3450) 431.27 596.67 T
(48.04) 461.2 596.67 T
(101200) 503.73 596.67 T
(44.0) 542.25 596.67 T
(1.41) 569.65 596.67 T
144.25 572.25 163.42 589.75 R
7 X
V
0 X
(39) 147.01 578.67 T
(1&2) 165 578.67 T
(1) 188.71 578.67 T
(152) 192.57 578.67 T
(1250) 218.81 578.67 T
(9515) 253.71 578.67 T
(4.1) 287.95 578.67 T
(0.13) 311.06 578.67 T
(1438400) 333.48 578.67 T
(625.4) 372.25 578.67 T
(20.01) 399.15 578.67 T
(575) 435.72 578.67 T
(8.00) 465.65 578.67 T
(2) 492.25 578.67 T
(102285) 503.73 578.67 T
(44.5) 542.25 578.67 T
(1.42) 569.65 578.67 T
144.25 518.25 163.42 571.75 R
7 X
V
0 X
(40) 147.01 540.67 T
(1) 169.89 560.67 T
(480) 192.57 540.67 T
(1560) 218.81 540.67 T
(880) 258.15 540.67 T
(1.0) 287.95 540.67 T
(0.01) 311.06 540.67 T
(5280) 346.82 560.67 T
(6.0) 381.14 560.67 T
(0.06) 403.6 560.67 T
(800) 435.72 540.67 T
(9.71) 465.65 540.67 T
(6) 492.25 560.67 T
(29040) 508.17 560.67 T
(33.0) 542.25 560.67 T
(0.35) 569.65 560.67 T
(Field Sequential) 591.21 540.67 T
(2) 169.89 542.67 T
(2640) 346.82 532.67 T
(3.0) 381.14 532.67 T
(0.03) 403.6 532.67 T
(3) 492.25 532.67 T
(31680) 508.17 532.67 T
(36.0) 542.25 532.67 T
(0.38) 569.65 532.67 T
(3) 169.89 524.67 T
144.25 500.25 163.42 517.75 R
7 X
V
0 X
(41) 147.01 506.67 T
(960) 192.57 506.67 T
(3120) 218.81 506.67 T
(V) 341.21 506.67 T
(ertical Blanking Information Unavailable) 346.11 506.67 T
(Field Sequential) 591.21 506.67 T
1 9 Q
(T) 144 714 T
(able) 148.83 714 T
(4-37) 169.34 714 T
2 F
(\050Continued\051) 182.35 714 T
(Graphics Output T) 239.9 714 T
(iming Speci\336cations - V) 314.63 714 T
(ertical Information) 407.83 714 T
1 10 Q
(Format) 0 -270 158.67 644.05 TF
(V) 357.27 687.33 T
(ertical) 363.39 687.33 T
1 8 Q
(Notes) 627.64 661.67 T
(Field) 0 -270 178.25 639.66 TF
(Active) 0 -270 198.65 637 TF
(Height) 0 -270 208.65 636.56 TF
(Lines) 213.81 659.67 T
(Per) 217.81 649.67 T
(Frame) 212.25 639.67 T
(Front Porch) 261.95 664.67 T
(Sync) 366.34 664.67 T
(Sync Pulse) 439.59 664.67 T
(Back Porch) 521.95 664.67 T
(Pixels) 245.49 638.67 T
(Lines) 277.83 638.67 T
(msec) 305.62 638.67 T
(Pixels) 337.06 638.67 T
(Lines) 370.99 638.67 T
(msec) 398.49 638.67 T
(Pixels) 425.55 638.67 T
3 F
(m) 459.16 638.67 T
1 F
(sec) 463.77 638.67 T
(Count) 0 -270 500.55 626.45 TF
(Pixels) 504.99 638.67 T
(Lines) 536.67 638.67 T
(msec) 564.29 638.67 T
144 701.75 144 500.25 2 L
V
0.5 H
0 Z
N
163.67 701.75 163.67 500.25 2 L
V
N
166.17 701.75 166.17 500.25 2 L
V
N
185.32 678.25 185.32 499.75 2 L
V
N
211.91 678.25 211.91 499.75 2 L
V
N
242.6 678.25 242.6 499.75 2 L
V
N
277.5 656.25 277.5 517.75 2 L
V
N
305.07 656.25 305.07 517.75 2 L
V
N
332.63 678.25 332.63 517.75 2 L
V
N
370.62 656.25 370.62 517.75 2 L
V
N
398.27 656.25 398.27 517.75 2 L
V
N
425.17 678.25 425.17 517.75 2 L
V
N
455.07 656.25 455.07 517.75 2 L
V
N
487.21 656.25 487.21 517.75 2 L
V
N
502.7 678.25 502.7 517.75 2 L
V
N
536.41 656.25 536.41 517.75 2 L
V
N
563.82 656.25 563.82 517.75 2 L
V
N
591.21 702.25 591.21 499.75 2 L
V
N
692.28 701.75 692.28 500.25 2 L
V
N
143.75 702 692.53 702 2 L
V
N
166.42 678 591.46 678 2 L
V
N
242.35 656 591.46 656 2 L
V
N
143.75 626 502.45 626 2 L
V
N
502.95 627.25 692.03 627.25 2 L
V
N
502.95 624.75 692.03 624.75 2 L
V
N
166.42 608 185.57 608 2 L
V
N
242.35 608 487.46 608 2 L
V
N
502.45 608 591.46 608 2 L
V
N
143.75 590 692.53 590 2 L
V
N
143.75 572 692.53 572 2 L
V
N
166.42 554 185.57 554 2 L
V
N
332.38 554 425.42 554 2 L
V
N
486.96 554 591.46 554 2 L
V
N
166.42 536 185.57 536 2 L
V
N
143.75 518 692.53 518 2 L
V
N
143.75 500 692.53 500 2 L
V
N
0 0 0 1 0 0 0 K
FMENDPAGE
%%EndPage: "53" 1
%%Page: "52" 2
612 792 0 FMBEGINPAGE
[0 0 0 1 0 0 0]
[ 0 1 1 0 1 0 0]
[ 0 1 1 0 1 0 0]
[ 1 0 1 0 0 1 0]
[ 1 1 0 0 0 0 1]
[ 1 0 0 0 0 1 1]
[ 0 1 0 0 1 0 1]
[ 0 0 1 0 1 1 0]
 8 FrameSetSepColors
FrameNoSep
0 0 0 1 0 0 0 K
145.5 608.25 163.42 624.5 R
7 X
0 0 0 1 0 0 0 K
V
0 8 Q
0 X
(20) 147.01 614.67 T
(1&2) 165 614.67 T
(576) 192.57 614.67 T
(625) 223.26 614.67 T
(2375) 253.71 614.67 T
(2.5) 287.95 614.67 T
(0.16) 311.06 614.67 T
(2375) 346.82 614.67 T
(2.5) 381.14 614.67 T
(0.16) 403.6 614.67 T
(405) 435.72 614.67 T
(27.28) 461.2 614.67 T
(5) 492.25 614.67 T
(19000) 508.17 614.67 T
(20.0) 542.25 614.67 T
(1.28) 569.65 614.67 T
(P) 591.21 614.67 T
(AL) 595.96 614.67 T
145.5 591.5 163.42 607.75 R
7 X
V
0 X
(20a) 144.79 596.67 T
(575) 192.57 596.67 T
144.25 572.25 163.42 589.75 R
7 X
V
0 X
(21) 147.01 578.67 T
(1) 169.89 578.67 T
(850) 192.57 578.67 T
(895) 223.26 578.67 T
(3300) 253.71 578.67 T
(3.0) 287.95 578.67 T
(0.06) 311.06 578.67 T
(3300) 346.82 578.67 T
(3.0) 381.14 578.67 T
(0.06) 403.6 578.67 T
(2200) 431.27 578.67 T
(37.24) 461.2 578.67 T
(42900) 508.17 578.67 T
(39.0) 542.25 578.67 T
(0.73) 569.65 578.67 T
144.25 554.25 163.42 571.75 R
7 X
V
0 X
(22) 147.01 560.67 T
(1) 169.89 560.67 T
(620) 192.57 560.67 T
(720) 223.26 560.67 T
(41580) 249.26 560.67 T
(33.0) 283.5 560.67 T
(0.76) 311.06 560.67 T
(3780) 346.82 560.67 T
(3.0) 381.14 560.67 T
(0.07) 403.6 560.67 T
(2520) 431.27 560.67 T
(46.30) 461.2 560.67 T
(80640) 508.17 560.67 T
(64.0) 542.25 560.67 T
(1.48) 569.65 560.67 T
144.25 536.25 163.42 553.75 R
7 X
V
0 X
(23) 147.01 542.67 T
(1) 169.89 542.67 T
(680) 192.57 542.67 T
(720) 223.26 542.67 T
(3780) 253.71 542.67 T
(3.0) 287.95 542.67 T
(0.07) 311.06 542.67 T
(3780) 346.82 542.67 T
(3.0) 381.14 542.67 T
(0.07) 403.6 542.67 T
(2520) 431.27 542.67 T
(46.30) 461.2 542.67 T
(42840) 508.17 542.67 T
(34.0) 542.25 542.67 T
(0.79) 569.65 542.67 T
144.25 518.25 163.42 535.75 R
7 X
V
0 X
(24) 147.01 524.67 T
(1) 169.89 524.67 T
(680) 192.57 524.67 T
(726) 223.26 524.67 T
(3780) 253.71 524.67 T
(3.0) 287.95 524.67 T
(0.08) 311.06 524.67 T
(3780) 346.82 524.67 T
(3.0) 381.14 524.67 T
(0.08) 403.6 524.67 T
(2520) 431.27 524.67 T
(55.10) 461.2 524.67 T
(50400) 508.17 524.67 T
(40.0) 542.25 524.67 T
(1.10) 569.65 524.67 T
144.25 500.25 163.42 517.75 R
7 X
V
0 X
(25) 147.01 506.67 T
(1&2) 165 506.67 T
(802) 192.57 506.67 T
(875) 223.26 506.67 T
(3540) 253.71 506.67 T
(3.0) 287.95 506.67 T
(0.1) 311.66 506.67 T
(1) 322.18 506.67 T
(3540) 346.82 506.67 T
(3.0) 381.14 506.67 T
(0.1) 404.19 506.67 T
(1) 414.72 506.67 T
(530) 435.72 506.67 T
(17.1) 461.79 506.67 T
(1) 476.77 506.67 T
(6) 492.25 506.67 T
(36580) 508.17 506.67 T
(31.0) 542.25 506.67 T
(1.18) 569.65 506.67 T
145.5 482.25 163.42 498.5 R
7 X
V
0 X
(26) 147.01 488.67 T
(1) 169.89 488.67 T
(1024) 188.12 488.67 T
(1065) 218.81 488.67 T
(5040) 253.71 488.67 T
(3.0) 287.95 488.67 T
(0.05) 311.06 488.67 T
(5040) 346.82 488.67 T
(3.0) 381.14 488.67 T
(0.05) 403.6 488.67 T
(3360) 431.27 488.67 T
(31.30) 461.2 488.67 T
(58800) 508.17 488.67 T
(35.0) 542.25 488.67 T
(0.55) 569.65 488.67 T
145.5 465.5 163.42 481.75 R
7 X
V
0 X
(26a) 144.79 470.67 T
(5550) 253.71 470.67 T
(0.047) 306.62 470.67 T
(5550) 346.82 470.67 T
(0.047) 399.15 470.67 T
(64750) 508.17 470.67 T
(0.548) 565.2 470.67 T
(4:3 Pixel Ratio) 591.21 470.67 T
144.25 446.25 163.42 463.75 R
7 X
V
0 X
(27) 147.01 452.67 T
(1) 169.89 452.67 T
(1024) 188.12 452.67 T
(1050) 218.81 452.67 T
(5040) 253.71 452.67 T
(3.0) 287.95 452.67 T
(0.05) 311.06 452.67 T
(5040) 346.82 452.67 T
(3.0) 381.14 452.67 T
(0.05) 403.6 452.67 T
(3360) 431.27 452.67 T
(31.75) 461.2 452.67 T
(33600) 508.17 452.67 T
(20.0) 542.25 452.67 T
(0.32) 569.65 452.67 T
145.5 428.25 163.42 444.5 R
7 X
V
0 X
(28) 147.01 434.67 T
(1) 169.89 434.67 T
(1024) 188.12 434.67 T
(1250) 218.81 434.67 T
(5040) 253.71 434.67 T
(3.0) 287.95 434.67 T
(0.05) 311.06 434.67 T
(5040) 346.82 434.67 T
(3.0) 381.14 434.67 T
(0.05) 403.6 434.67 T
(3360) 431.27 434.67 T
(32.00) 461.2 434.67 T
(369600) 503.73 434.67 T
(220.0) 537.8 434.67 T
(3.52) 569.65 434.67 T
145.5 411.5 163.42 427.75 R
7 X
V
0 X
(28a) 144.79 416.67 T
(1) 219.4 416.67 T
(164) 223.26 416.67 T
(171360) 244.81 416.67 T
(102) 285.72 416.67 T
(1.753) 306.62 416.67 T
(0.051) 399.15 416.67 T
(58800) 508.17 416.67 T
(35) 548.92 416.67 T
(0.601) 565.2 416.67 T
(4:3 Pixel Ratio) 591.21 416.67 T
144.25 374.25 163.42 409.75 R
7 X
V
0 X
(29) 147.01 388.67 T
(1) 169.89 398.67 T
(1536) 188.12 388.67 T
(1614) 218.81 388.67 T
(4005) 253.71 388.67 T
(3.0) 287.95 388.67 T
(0.04) 311.06 388.67 T
(4005) 346.82 388.67 T
(3.0) 381.14 388.67 T
(0.04) 403.6 388.67 T
(2670) 431.27 398.67 T
(25.82) 461.2 398.67 T
(44055) 508.17 388.67 T
(33.0) 542.25 388.67 T
(0.43) 569.65 388.67 T
(New Style Stereo) 591.21 388.67 T
(2) 169.89 380.67 T
(4005) 431.27 380.67 T
(38.72) 461.2 380.67 T
144.25 338.25 163.42 373.75 R
7 X
V
0 X
(30) 147.01 352.67 T
(1) 169.89 362.67 T
(1024) 188.12 352.67 T
(1) 219.4 352.67 T
(126) 223.26 352.67 T
(2400) 253.71 352.67 T
(3.0) 287.95 352.67 T
(0.04) 311.06 352.67 T
(2400) 346.82 352.67 T
(3.0) 381.14 352.67 T
(0.04) 403.6 352.67 T
(1600) 431.27 362.67 T
(29.60) 461.2 362.67 T
(36000) 508.17 352.67 T
(45.0) 542.25 352.67 T
(0.67) 569.65 352.67 T
(New Style Stereo) 591.21 352.67 T
(2) 169.89 344.67 T
(2400) 431.27 344.67 T
(44.40) 461.2 344.67 T
144.25 302.25 163.42 337.75 R
7 X
V
0 X
(31) 147.01 316.67 T
(1) 169.89 326.67 T
(1222) 188.12 316.67 T
(1300) 218.81 316.67 T
(3195) 253.71 316.67 T
(3.0) 287.95 316.67 T
(0.04) 311.06 316.67 T
(3195) 346.82 316.67 T
(3.0) 381.14 316.67 T
(0.04) 403.6 316.67 T
(2130) 431.27 326.67 T
(25.64) 461.2 326.67 T
(35145) 508.17 316.67 T
(33.0) 542.25 316.67 T
(0.42) 569.65 316.67 T
(New Style Stereo) 591.21 316.67 T
(2) 169.89 308.67 T
(2400) 431.27 308.67 T
(44.40) 461.2 308.67 T
144.25 266.25 163.42 301.75 R
7 X
V
0 X
(32) 147.01 280.67 T
(1) 169.89 290.67 T
(1360) 188.12 280.67 T
(1440) 218.81 280.67 T
(3765) 253.71 280.67 T
(3.0) 287.95 280.67 T
(0.04) 311.06 280.67 T
(3765) 346.82 280.67 T
(3.0) 381.14 280.67 T
(0.04) 403.6 280.67 T
(2510) 431.27 290.67 T
(25.72) 461.2 290.67 T
(42670) 508.17 280.67 T
(34.0) 542.25 280.67 T
(0.44) 569.65 280.67 T
(New Style Stereo) 591.21 280.67 T
(2) 169.89 272.67 T
(3765) 431.27 272.67 T
(38.58) 461.2 272.67 T
144.25 228.25 163.42 265.75 R
7 X
V
0 X
(33) 147.01 244.67 T
(1) 169.89 254.67 T
(2048) 188.12 244.67 T
(2500) 218.81 244.67 T
(5040) 253.71 244.67 T
(3.0) 287.95 244.67 T
(0.05) 311.06 244.67 T
(5040) 346.82 244.67 T
(3.0) 381.14 244.67 T
(0.05) 403.6 244.67 T
(3360) 431.27 254.67 T
(32.00) 461.2 254.67 T
(369600) 503.73 244.67 T
(220.0) 537.8 244.67 T
(3.52) 569.65 244.67 T
-0.77 (Pixel Replication, Genlock,) 591.21 254.67 P
(Framelock, Swap only on) 591.21 244.67 T
(frame boundary) 591.21 234.67 T
(2) 169.89 236.67 T
(5040) 431.27 236.67 T
(48.00) 461.2 236.67 T
144.25 190.25 163.42 227.75 R
7 X
V
0 X
(34) 147.01 206.67 T
(1) 169.89 216.67 T
(2048) 188.12 206.67 T
(2100) 218.81 206.67 T
(5040) 253.71 206.67 T
(3.0) 287.95 206.67 T
(0.05) 311.06 206.67 T
(5040) 346.82 206.67 T
(3.0) 381.14 206.67 T
(0.05) 403.6 206.67 T
(3360) 431.27 216.67 T
(31.75) 461.2 216.67 T
(33600) 508.17 206.67 T
(20.0) 542.25 206.67 T
(0.32) 569.65 206.67 T
-0.77 (Pixel Replication, Genlock,) 591.21 216.67 P
(Framelock, Swap only on) 591.21 206.67 T
(frame boundary) 591.21 196.67 T
(2) 169.89 198.67 T
(5040) 431.27 198.67 T
(47.62) 461.2 198.67 T
145.5 154.25 163.42 188.5 R
7 X
V
0 X
(35) 147.01 168.67 T
(1) 169.89 178.67 T
(1024) 188.12 168.67 T
(1066) 218.81 168.67 T
(5040) 253.71 168.67 T
(3.0) 287.95 168.67 T
(0.05) 311.06 168.67 T
(5040) 346.82 168.67 T
(3.0) 381.14 168.67 T
(0.05) 403.6 168.67 T
(3360) 431.27 178.67 T
(31.27) 461.2 178.67 T
(58800) 508.17 168.67 T
(35.0) 542.25 168.67 T
(0.55) 569.65 168.67 T
(Old-style Stereo) 591.21 168.67 T
(2) 169.89 160.67 T
(5040) 431.27 160.67 T
(46.90) 461.2 160.67 T
145.5 137.5 163.42 153.75 R
7 X
V
0 X
(35a) 144.79 142.67 T
(0.046) 305.07 142.67 T
(0.046) 398.27 142.67 T
(0.547) 563.82 142.67 T
144.25 100.25 163.42 135.75 R
7 X
V
0 X
(36) 147.01 114.67 T
(1) 169.89 124.67 T
(1024) 188.12 114.67 T
(1) 219.4 114.67 T
(106) 223.26 114.67 T
(5040) 253.71 114.67 T
(3.0) 287.95 114.67 T
(0.05) 311.06 114.67 T
(5040) 346.82 114.67 T
(3.0) 381.14 114.67 T
(0.05) 403.6 114.67 T
(3360) 431.27 124.67 T
(30.14) 461.2 124.67 T
(58800) 508.17 114.67 T
(35.0) 542.25 114.67 T
(0.53) 569.65 114.67 T
(Old-style Stereo) 591.21 114.67 T
(2) 169.89 106.67 T
(5040) 431.27 106.67 T
(45.21) 461.2 106.67 T
144.25 82.25 163.42 99.75 R
7 X
V
0 X
(37) 147.01 88.67 T
(1035) 188.12 88.67 T
(1) 219.4 88.67 T
(125) 223.26 88.67 T
(V) 341.21 88.67 T
(ertical Blanking Information Unavailable) 346.11 88.67 T
1 9 Q
(T) 144 714 T
(able) 148.83 714 T
(0-1) 169.34 714 T
2 F
(\050Continued\051) 182.35 714 T
(Graphics Output T) 239.9 714 T
(iming Speci\336cations - V) 314.63 714 T
(ertical Information) 407.83 714 T
1 10 Q
(Format) 0 -270 158.67 644.05 TF
(V) 357.27 687.33 T
(ertical) 363.39 687.33 T
1 8 Q
(Notes) 627.64 661.67 T
(Field) 0 -270 178.25 639.66 TF
(Active) 0 -270 198.65 637 TF
(Height) 0 -270 208.65 636.56 TF
(Lines) 213.81 659.67 T
(Per) 217.81 649.67 T
(Frame) 212.25 639.67 T
(Front Porch) 261.95 664.67 T
(Sync) 366.34 664.67 T
(Sync Pulse) 439.59 664.67 T
(Back Porch) 521.95 664.67 T
(Pixels) 245.49 638.67 T
(Lines) 277.83 638.67 T
(msec) 305.62 638.67 T
(Pixels) 337.06 638.67 T
(Lines) 370.99 638.67 T
(msec) 398.49 638.67 T
(Pixels) 425.55 638.67 T
3 F
(m) 459.16 638.67 T
1 F
(sec) 463.77 638.67 T
(Count) 0 -270 500.55 626.45 TF
(Pixels) 504.99 638.67 T
(Lines) 536.67 638.67 T
(msec) 564.29 638.67 T
144 701.75 144 627.5 2 L
V
0.5 H
0 Z
N
144 624.5 144 591.5 2 L
V
3 H
N
144 588.5 144 501.5 2 L
V
0.5 H
N
144 498.5 144 465.5 2 L
V
3 H
N
144 462.5 144 447.5 2 L
V
0.5 H
N
144 444.5 144 411.5 2 L
V
3 H
N
144 408.5 144 191.5 2 L
V
0.5 H
N
144 188.5 144 137.5 2 L
V
3 H
N
144 134.5 144 82.25 2 L
V
0.5 H
N
163.67 701.75 163.67 627.5 2 L
V
N
166.17 701.75 166.17 627.5 2 L
V
N
164.92 624.5 164.92 591.5 2 L
V
3 H
N
163.67 588.5 163.67 501.5 2 L
V
0.5 H
N
166.17 588.5 166.17 501.5 2 L
V
N
164.92 498.5 164.92 465.5 2 L
V
3 H
N
163.67 462.5 163.67 447.5 2 L
V
0.5 H
N
166.17 462.5 166.17 447.5 2 L
V
N
164.92 444.5 164.92 411.5 2 L
V
3 H
N
163.67 408.5 163.67 191.5 2 L
V
0.5 H
N
166.17 408.5 166.17 191.5 2 L
V
N
164.92 188.5 164.92 137.5 2 L
V
3 H
N
163.67 134.5 163.67 82.25 2 L
V
0.5 H
N
166.17 134.5 166.17 82.25 2 L
V
N
185.32 678.25 185.32 81.75 2 L
V
N
211.91 678.25 211.91 81.75 2 L
V
N
242.6 678.25 242.6 81.75 2 L
V
N
277.5 656.25 277.5 99.75 2 L
V
N
305.07 656.25 305.07 99.75 2 L
V
N
332.63 678.25 332.63 99.75 2 L
V
N
370.62 656.25 370.62 99.75 2 L
V
N
398.27 656.25 398.27 99.75 2 L
V
N
425.17 678.25 425.17 99.75 2 L
V
N
455.07 656.25 455.07 99.75 2 L
V
N
487.21 656.25 487.21 99.75 2 L
V
N
502.7 678.25 502.7 99.75 2 L
V
N
536.41 656.25 536.41 99.75 2 L
V
N
563.82 656.25 563.82 99.75 2 L
V
N
591.21 702.25 591.21 81.75 2 L
V
N
692.28 701.75 692.28 82.25 2 L
V
N
143.75 702 692.53 702 2 L
V
N
166.42 678 591.46 678 2 L
V
N
242.35 656 591.46 656 2 L
V
N
142.5 626 164.92 626 2 L
V
3 H
N
164.92 626 692.53 626 2 L
V
0.5 H
N
142.5 608 166.42 608 2 L
V
N
185.07 608 212.16 608 2 L
V
N
242.35 608 591.46 608 2 L
V
N
142.5 590 164.92 590 2 L
V
3 H
N
164.92 590 692.53 590 2 L
V
0.5 H
N
143.75 572 692.53 572 2 L
V
N
143.75 554 692.53 554 2 L
V
N
143.75 536 692.53 536 2 L
V
N
143.75 518 692.53 518 2 L
V
N
142.5 500 164.92 500 2 L
V
3 H
N
164.92 500 692.53 500 2 L
V
0.5 H
N
142.5 482 166.42 482 2 L
V
N
242.35 482 277.75 482 2 L
V
N
304.82 482 370.87 482 2 L
V
N
398.02 482 536.66 482 2 L
V
N
563.57 482 692.53 482 2 L
V
N
142.5 464 164.92 464 2 L
V
3 H
N
164.92 464 692.53 464 2 L
V
0.5 H
N
142.5 446 164.92 446 2 L
V
3 H
N
164.92 446 692.53 446 2 L
V
0.5 H
N
142.5 428 166.42 428 2 L
V
N
211.66 428 332.88 428 2 L
V
N
398.02 428 692.53 428 2 L
V
N
142.5 410 164.92 410 2 L
V
3 H
N
164.92 410 692.53 410 2 L
V
0.5 H
N
166.42 392 185.57 392 2 L
V
N
424.92 392 487.46 392 2 L
V
N
143.75 374 692.53 374 2 L
V
N
166.42 356 185.57 356 2 L
V
N
424.92 356 487.46 356 2 L
V
N
143.75 338 692.53 338 2 L
V
N
166.42 320 185.57 320 2 L
V
N
424.92 320 487.46 320 2 L
V
N
143.75 302 692.53 302 2 L
V
N
166.42 284 185.57 284 2 L
V
N
424.92 284 487.46 284 2 L
V
N
143.75 266 692.53 266 2 L
V
N
166.42 248 185.57 248 2 L
V
N
424.92 248 487.46 248 2 L
V
N
143.75 228 692.53 228 2 L
V
N
166.42 210 185.57 210 2 L
V
N
424.92 210 487.46 210 2 L
V
N
142.5 190 164.92 190 2 L
V
3 H
N
164.92 190 692.53 190 2 L
V
0.5 H
N
163.42 172 185.57 172 2 L
V
N
424.92 172 487.46 172 2 L
V
N
142.5 154 185.57 154 2 L
V
N
304.82 154 332.88 154 2 L
V
N
398.02 154 487.46 154 2 L
V
N
563.57 154 591.46 154 2 L
V
N
142.5 136 164.92 136 2 L
V
3 H
N
164.92 136 692.53 136 2 L
V
0.5 H
N
166.42 118 185.57 118 2 L
V
N
424.92 118 487.46 118 2 L
V
N
143.75 100 692.53 100 2 L
V
N
143.75 82 692.53 82 2 L
V
N
0 0 0 1 0 0 0 K
FMENDPAGE
%%EndPage: "52" 2
%%Page: "51" 3
612 792 0 FMBEGINPAGE
[0 0 0 1 0 0 0]
[ 0 1 1 0 1 0 0]
[ 0 1 1 0 1 0 0]
[ 1 0 1 0 0 1 0]
[ 1 1 0 0 0 0 1]
[ 1 0 0 0 0 1 1]
[ 0 1 0 0 1 0 1]
[ 0 0 1 0 1 1 0]
 8 FrameSetSepColors
FrameNoSep
0 0 0 1 0 0 0 K
1 9 Q
0 X
0 0 0 1 0 0 0 K
(T) 144 690 T
(able) 148.83 690 T
(0-1) 169.34 690 T
2 F
(Graphics Output T) 193.6 690 T
(iming Speci\336cations - V) 268.33 690 T
(ertical Information) 361.52 690 T
1 10 Q
(Format) 0 -270 158.67 620.05 TF
(V) 357.27 663.33 T
(ertical) 363.39 663.33 T
1 8 Q
(Notes) 627.64 637.67 T
(Field) 0 -270 178.25 615.66 TF
(Active) 0 -270 198.65 613 TF
(Height) 0 -270 208.65 612.56 TF
(Lines) 213.81 635.67 T
(Per) 217.81 625.67 T
(Frame) 212.25 615.67 T
(Front Porch) 261.95 640.67 T
(Sync) 366.34 640.67 T
(Sync Pulse) 439.59 640.67 T
(Back Porch) 521.95 640.67 T
(Pixels) 245.49 614.67 T
(Lines) 277.83 614.67 T
(msec) 305.62 614.67 T
(Pixels) 337.06 614.67 T
(Lines) 370.99 614.67 T
(msec) 398.49 614.67 T
(Pixels) 425.55 614.67 T
3 F
(m) 459.16 614.67 T
1 F
(sec) 463.77 614.67 T
(Count) 0 -270 500.55 602.45 TF
(Pixels) 504.99 614.67 T
(Lines) 536.67 614.67 T
(msec) 564.29 614.67 T
144.25 584.25 163.42 600.5 R
7 X
V
0 F
0 X
(1) 149.23 590.67 T
(1) 169.89 590.67 T
(900) 192.57 590.67 T
(937) 223.26 590.67 T
(4695) 253.71 590.67 T
(3.0) 287.95 590.67 T
(0.04) 311.06 590.67 T
(6260) 346.82 590.67 T
(4.0) 381.14 590.67 T
(0.06) 403.6 590.67 T
(4695) 431.27 590.67 T
(44.47) 461.2 590.67 T
(46950) 508.17 590.67 T
(30.0) 542.25 590.67 T
(0.44) 569.65 590.67 T
145.5 557.5 163.42 582.5 R
5 X
V
0 X
(2 &) 145.45 572.67 T
(2a) 147.01 562.67 T
165.17 556.25 185.07 583.75 R
5 X
V
0 X
(1) 169.89 572.67 T
185.57 556.25 211.67 583.75 R
5 X
V
0 X
(1024) 188.12 572.67 T
212.16 556.25 242.35 583.75 R
5 X
V
0 X
(1065) 218.81 572.67 T
242.85 556.25 277.25 583.75 R
5 X
V
0 X
(5040) 253.71 572.67 T
277.75 556.25 304.82 583.75 R
5 X
V
0 X
(3.0) 287.95 572.67 T
305.32 556.25 332.38 583.75 R
5 X
V
0 X
(0.05) 311.06 572.67 T
332.88 556.25 370.37 583.75 R
5 X
V
0 X
(5040) 346.82 572.67 T
370.87 556.25 398.01 583.75 R
5 X
V
0 X
(3.0) 381.14 572.67 T
398.52 556.25 424.92 583.75 R
5 X
V
0 X
(0.05) 403.6 572.67 T
425.42 556.25 454.82 583.75 R
5 X
V
0 X
(3360) 431.27 572.67 T
455.32 556.25 486.97 583.75 R
5 X
V
0 X
(31.30) 461.2 572.67 T
487.46 556.25 502.45 583.75 R
5 X
V
502.95 556.25 536.16 583.75 R
V
0 X
(58800) 508.17 572.67 T
536.66 556.25 563.56 583.75 R
5 X
V
0 X
(35.0) 542.25 572.67 T
564.07 556.25 590.97 583.75 R
5 X
V
0 X
(0.55) 569.65 572.67 T
591.46 556.25 692.03 583.75 R
5 X
V
145.5 538.25 163.42 554.5 R
7 X
V
0 X
(3) 149.23 544.67 T
(1) 169.89 544.67 T
(1024) 188.12 544.67 T
(1047) 218.81 544.67 T
(5040) 253.71 544.67 T
(3.0) 287.95 544.67 T
(0.06) 311.06 544.67 T
(5040) 346.82 544.67 T
(3.0) 381.14 544.67 T
(0.06) 403.6 544.67 T
(3360) 431.27 544.67 T
(38.20) 461.2 544.67 T
(28560) 508.17 544.67 T
(17.0) 542.25 544.67 T
(0.32) 569.65 544.67 T
145.5 521.5 163.42 537.75 R
7 X
V
0 X
(3a) 147.01 526.67 T
(1065) 218.81 526.67 T
(0.056) 306.62 526.67 T
(0.056) 399.15 526.67 T
(58800) 508.17 526.67 T
(35.0) 542.25 526.67 T
(0.657) 565.2 526.67 T
145.5 502.25 163.42 518.5 R
5 X
V
0 X
(4) 149.23 508.67 T
165.17 484.25 185.07 519.75 R
5 X
V
0 X
(1) 169.89 508.67 T
185.57 484.25 211.67 519.75 R
5 X
V
0 X
(1024) 188.12 508.67 T
212.16 502.25 242.35 519.75 R
5 X
V
0 X
(1069) 218.81 508.67 T
242.85 484.25 277.25 519.75 R
5 X
V
0 X
(5070) 253.71 508.67 T
277.75 484.25 304.82 519.75 R
5 X
V
0 X
(3.0) 287.95 508.67 T
305.32 502.25 332.38 519.75 R
5 X
V
0 X
(0.04) 311.06 508.67 T
332.88 484.25 370.37 519.75 R
5 X
V
0 X
(5070) 346.82 508.67 T
370.87 484.25 398.01 519.75 R
5 X
V
0 X
(3.0) 381.14 508.67 T
398.52 502.25 424.92 519.75 R
5 X
V
0 X
(0.04) 403.6 508.67 T
425.42 502.25 454.82 519.75 R
5 X
V
0 X
(3380) 431.27 508.67 T
455.32 502.25 486.97 519.75 R
5 X
V
0 X
(25.98) 461.2 508.67 T
487.46 502.25 502.45 519.75 R
5 X
V
502.95 502.25 536.16 519.75 R
V
0 X
(65910) 508.17 508.67 T
536.66 502.25 563.56 519.75 R
5 X
V
0 X
(39.0) 542.25 508.67 T
564.07 502.25 590.97 519.75 R
5 X
V
0 X
(0.51) 569.65 508.67 T
591.46 502.25 692.03 519.75 R
5 X
V
145.5 485.5 163.42 501.75 R
V
0 X
(4a) 147.01 490.67 T
212.16 484.25 242.35 501.75 R
5 X
V
0 X
(1064) 218.81 490.67 T
305.32 484.25 332.38 501.75 R
5 X
V
0 X
(0.039) 306.62 490.67 T
398.52 484.25 424.92 501.75 R
5 X
V
0 X
(0.039) 399.15 490.67 T
425.42 484.25 454.82 501.75 R
5 X
V
455.32 484.25 486.97 501.75 R
V
487.46 484.25 502.45 501.75 R
V
502.95 484.25 536.16 501.75 R
V
0 X
(57460) 508.17 490.67 T
536.66 484.25 563.56 501.75 R
5 X
V
0 X
(34.0) 542.25 490.67 T
564.07 484.25 590.97 501.75 R
5 X
V
0 X
(0.442) 565.2 490.67 T
591.46 484.25 692.03 501.75 R
5 X
V
145.5 448.25 163.42 482.5 R
7 X
V
0 X
(5) 149.23 462.67 T
(1) 169.89 472.67 T
(1024) 188.12 452.67 T
(1) 219.4 452.67 T
(131) 223.26 452.67 T
(6320) 253.71 472.67 T
(4.0) 287.95 472.67 T
(0.12) 311.06 472.67 T
(6320) 346.82 472.67 T
(4.0) 381.14 472.67 T
(0.12) 403.6 472.67 T
(4740) 431.27 472.67 T
(88.42) 461.2 472.67 T
(72680) 508.17 462.67 T
(46.0) 542.25 462.67 T
(1.36) 569.65 462.67 T
(2) 169.89 454.67 T
(5530) 253.71 454.67 T
(3.5) 287.95 454.67 T
(0.10) 311.06 454.67 T
(5530) 346.82 454.67 T
(3.5) 381.14 454.67 T
(0.10) 403.6 454.67 T
(5530) 431.27 454.67 T
(103.15) 456.75 454.67 T
145.5 413.5 163.42 447.75 R
7 X
V
0 X
(5a) 147.01 436.67 T
(1) 169.89 436.67 T
(5530) 253.71 436.67 T
(3.5) 287.95 436.67 T
(0.103) 306.62 436.67 T
(6320) 346.82 436.67 T
(4.0) 381.14 436.67 T
(0.1) 399.74 436.67 T
(18) 410.27 436.67 T
(71890) 508.17 436.67 T
(45.5) 542.25 436.67 T
(1.339) 565.2 436.67 T
(2) 169.89 418.67 T
(6320) 253.71 418.67 T
(4.0) 287.95 418.67 T
(0.1) 307.21 418.67 T
(18) 317.74 418.67 T
(72680) 508.17 418.67 T
(46.0) 542.25 418.67 T
(1.354) 565.2 418.67 T
144.25 394.25 163.42 411.75 R
7 X
V
0 X
(6) 149.23 400.67 T
(1) 169.89 400.67 T
(960) 192.57 400.67 T
(1005) 218.81 400.67 T
(4980) 253.71 400.67 T
(3.0) 287.95 400.67 T
(0.04) 311.06 400.67 T
(4980) 346.82 400.67 T
(3.0) 381.14 400.67 T
(0.04) 403.6 400.67 T
(3320) 431.27 400.67 T
(26.18) 461.2 400.67 T
(64740) 508.17 400.67 T
(39.0) 542.25 400.67 T
(0.51) 569.65 400.67 T
144.25 376.25 163.42 393.75 R
7 X
V
0 X
(7) 149.23 382.67 T
(1&2) 165 382.67 T
(960) 192.57 382.67 T
(1023) 218.81 382.67 T
(4860) 253.71 382.67 T
(3.0) 287.95 382.67 T
(0.10) 311.06 382.67 T
(4860) 346.82 382.67 T
(3.0) 381.14 382.67 T
(0.10) 403.6 382.67 T
(710) 435.72 382.67 T
(14.28) 461.2 382.67 T
(6) 492.25 382.67 T
(42120) 508.17 382.67 T
(26.0) 542.25 382.67 T
(0.85) 569.65 382.67 T
144.25 340.25 163.42 375.75 R
7 X
V
0 X
(8) 149.23 354.67 T
(1) 169.89 364.67 T
(1035) 188.12 354.67 T
(1) 219.4 354.67 T
(125) 223.26 354.67 T
(1) 249.85 364.67 T
(1000) 253.71 364.67 T
(5.0) 287.95 364.67 T
(0.15) 311.06 364.67 T
(1) 342.97 364.67 T
(1000) 346.82 364.67 T
(5.0) 381.14 364.67 T
(0.15) 403.6 364.67 T
(8800) 431.27 364.67 T
(1) 457.34 364.67 T
(18.52) 461.2 364.67 T
(770000) 503.73 354.67 T
(35.0) 542.25 354.67 T
(1.04) 569.65 354.67 T
(2) 169.89 346.67 T
(12100) 249.26 346.67 T
(5.5) 287.95 346.67 T
(0.16) 311.06 346.67 T
(9900) 346.82 346.67 T
(4.5) 381.14 346.67 T
(0.13) 403.6 346.67 T
(9900) 431.27 346.67 T
(133.33) 456.75 346.67 T
144.25 322.25 163.42 339.75 R
7 X
V
0 X
(9) 149.23 328.67 T
(1) 169.89 328.67 T
(1200) 188.12 328.67 T
(1250) 218.81 328.67 T
(10425) 249.26 328.67 T
(5.0) 287.95 328.67 T
(0.07) 311.06 328.67 T
(12510) 342.38 328.67 T
(6.0) 381.14 328.67 T
(0.08) 403.6 328.67 T
(10425) 426.83 328.67 T
(66.67) 461.2 328.67 T
(81315) 508.17 328.67 T
(39.0) 542.25 328.67 T
(0.52) 569.65 328.67 T
144.25 304.25 163.42 321.75 R
7 X
V
0 X
(10) 147.01 310.67 T
(1) 169.89 310.67 T
(1200) 188.12 310.67 T
(1250) 218.81 310.67 T
(10425) 249.26 310.67 T
(5.0) 287.95 310.67 T
(0.08) 311.06 310.67 T
(12510) 342.38 310.67 T
(6.0) 381.14 310.67 T
(0.10) 403.6 310.67 T
(10425) 426.83 310.67 T
(80.00) 461.2 310.67 T
(81315) 508.17 310.67 T
(39.0) 542.25 310.67 T
(0.62) 569.65 310.67 T
145.5 286.25 163.42 302.5 R
5 X
V
0 X
(1) 147.31 292.67 T
(1) 151.16 292.67 T
165.17 268.25 185.07 303.75 R
5 X
V
0 X
(1) 169.89 292.67 T
185.57 268.25 211.67 303.75 R
5 X
V
0 X
(768) 192.57 292.67 T
212.16 268.25 242.35 303.75 R
5 X
V
0 X
(813) 223.26 292.67 T
242.85 268.25 277.25 303.75 R
5 X
V
0 X
(3960) 253.71 292.67 T
277.75 268.25 304.82 303.75 R
5 X
V
0 X
(3.0) 287.95 292.67 T
305.32 268.25 332.38 303.75 R
5 X
V
0 X
(0.06) 311.06 292.67 T
332.88 268.25 370.37 303.75 R
5 X
V
0 X
(3960) 346.82 292.67 T
370.87 268.25 398.01 303.75 R
5 X
V
0 X
(3.0) 381.14 292.67 T
398.52 268.25 424.92 303.75 R
5 X
V
0 X
(0.06) 403.6 292.67 T
425.42 286.25 454.82 303.75 R
5 X
V
0 X
(2640) 431.27 292.67 T
455.32 286.25 486.97 303.75 R
5 X
V
0 X
(41.00) 461.2 292.67 T
487.46 286.25 502.45 303.75 R
5 X
V
502.95 268.25 536.16 303.75 R
V
0 X
(51480) 508.17 292.67 T
536.66 268.25 563.56 303.75 R
5 X
V
0 X
(39.0) 542.25 292.67 T
564.07 286.25 590.97 303.75 R
5 X
V
0 X
(0.80) 569.65 292.67 T
591.46 286.25 692.03 303.75 R
5 X
V
145.5 269.5 163.42 285.75 R
V
0 X
(1) 145.08 274.67 T
(1a) 148.94 274.67 T
425.42 268.25 454.82 285.75 R
5 X
V
455.32 268.25 486.97 285.75 R
V
487.46 268.25 502.45 285.75 R
V
564.07 268.25 590.97 285.75 R
V
0 X
(0.80) 569.65 274.67 T
591.46 268.25 692.03 285.75 R
5 X
V
144.25 250.25 163.42 267.75 R
7 X
V
0 X
(12) 147.01 256.67 T
(1) 169.89 256.67 T
(1024) 188.12 256.67 T
(1065) 218.81 256.67 T
(2520) 253.71 256.67 T
(3.0) 287.95 256.67 T
(0.05) 311.06 256.67 T
(2520) 346.82 256.67 T
(3.0) 381.14 256.67 T
(0.05) 403.6 256.67 T
(1680) 431.27 256.67 T
(31.30) 461.2 256.67 T
(29400) 508.17 256.67 T
(35.0) 542.25 256.67 T
(0.55) 569.65 256.67 T
(Pixel Replication) 591.21 256.67 T
144.25 232.25 163.42 249.75 R
7 X
V
0 X
(13) 147.01 238.67 T
(1) 169.89 238.67 T
(480) 192.57 238.67 T
(525) 223.26 238.67 T
(8000) 253.71 238.67 T
(10.0) 283.5 238.67 T
(0.32) 311.06 238.67 T
(1600) 346.82 238.67 T
(2.0) 381.14 238.67 T
(0.06) 403.6 238.67 T
(800) 435.72 238.67 T
(31.75) 461.2 238.67 T
(26400) 508.17 238.67 T
(33.0) 542.25 238.67 T
(1.05) 569.65 238.67 T
144.25 214.25 163.42 231.75 R
7 X
V
0 X
(14) 147.01 220.67 T
(1&2) 165 220.67 T
(486) 192.57 220.67 T
(525) 223.26 220.67 T
(2340) 253.71 220.67 T
(3.0) 287.95 220.67 T
(0.19) 311.06 220.67 T
(2340) 346.82 220.67 T
(3.0) 381.14 220.67 T
(0.19) 403.6 220.67 T
(335) 435.72 220.67 T
(27.27) 461.2 220.67 T
(6) 492.25 220.67 T
(10920) 508.17 220.67 T
(14.0) 542.25 220.67 T
(0.89) 569.65 220.67 T
144.25 196.25 163.42 213.75 R
7 X
V
0 X
(15) 147.01 202.67 T
(1) 169.89 202.67 T
(496) 192.57 202.67 T
(525) 223.26 202.67 T
(1600) 253.71 202.67 T
(2.0) 287.95 202.67 T
(0.06) 311.06 202.67 T
(1600) 346.82 202.67 T
(2.0) 381.14 202.67 T
(0.06) 403.6 202.67 T
(800) 435.72 202.67 T
(31.75) 461.2 202.67 T
(20000) 508.17 202.67 T
(25.0) 542.25 202.67 T
(0.79) 569.65 202.67 T
144.25 178.25 163.42 195.75 R
7 X
V
0 X
(16) 147.01 184.67 T
(1) 169.89 184.67 T
(512) 192.57 184.67 T
(555) 223.26 184.67 T
(2400) 253.71 184.67 T
(3.0) 287.95 184.67 T
(0.09) 311.06 184.67 T
(2400) 346.82 184.67 T
(3.0) 381.14 184.67 T
(0.09) 403.6 184.67 T
(1600) 431.27 184.67 T
(60.06) 461.2 184.67 T
(29600) 508.17 184.67 T
(37.0) 542.25 184.67 T
(1.1) 570.24 184.67 T
(1) 580.77 184.67 T
144.25 160.25 163.42 177.75 R
7 X
V
0 X
(17) 147.01 166.67 T
(1) 169.89 166.67 T
(640) 192.57 166.67 T
(674) 223.26 166.67 T
(2490) 253.71 166.67 T
(3.0) 287.95 166.67 T
(0.07) 311.06 166.67 T
(2490) 346.82 166.67 T
(3.0) 381.14 166.67 T
(0.07) 403.6 166.67 T
(1660) 431.27 166.67 T
(49.46) 461.2 166.67 T
(23240) 508.17 166.67 T
(28.0) 542.25 166.67 T
(0.69) 569.65 166.67 T
145.5 142.25 163.42 158.5 R
7 X
V
0 X
(18) 147.01 148.67 T
(1&2) 165 148.67 T
(486) 192.57 148.67 T
(525) 223.26 148.67 T
(2340) 253.71 148.67 T
(3.0) 287.95 148.67 T
(0.19) 311.06 148.67 T
(2340) 346.82 148.67 T
(3.0) 381.14 148.67 T
(0.19) 403.6 148.67 T
(335) 435.72 148.67 T
(27.27) 461.2 148.67 T
(6) 492.25 148.67 T
(10920) 508.17 148.67 T
(14.0) 542.25 148.67 T
(0.89) 569.65 148.67 T
(NTSC) 591.21 148.67 T
145.5 125.5 163.42 141.75 R
7 X
V
0 X
(18a) 144.79 130.67 T
(485) 192.57 130.67 T
144.25 106.25 163.42 123.75 R
7 X
V
0 X
(19) 147.01 112.67 T
(1) 169.89 112.67 T
(224) 192.57 112.67 T
(420) 223.26 112.67 T
(87400) 249.26 112.67 T
(92.0) 283.5 112.67 T
(3.65) 311.06 112.67 T
(5700) 346.82 112.67 T
(6.0) 381.14 112.67 T
(0.24) 403.6 112.67 T
(860) 435.72 112.67 T
(35.92) 461.2 112.67 T
(6) 492.25 112.67 T
(93100) 508.17 112.67 T
(98.0) 542.25 112.67 T
(3.89) 569.65 112.67 T
144 677.75 144 585.5 2 L
V
0.5 H
0 Z
N
144 582.5 144 413.5 2 L
V
3 H
N
144 410.5 144 305.5 2 L
V
0.5 H
N
144 302.5 144 269.5 2 L
V
3 H
N
144 266.5 144 161.5 2 L
V
0.5 H
N
144 158.5 144 125.5 2 L
V
3 H
N
144 122.5 144 106.25 2 L
V
0.5 H
N
163.67 677.75 163.67 585.5 2 L
V
N
166.17 677.75 166.17 585.5 2 L
V
N
164.92 582.5 164.92 413.5 2 L
V
3 H
N
163.67 410.5 163.67 305.5 2 L
V
0.5 H
N
166.17 410.5 166.17 305.5 2 L
V
N
164.92 302.5 164.92 269.5 2 L
V
3 H
N
163.67 266.5 163.67 161.5 2 L
V
0.5 H
N
166.17 266.5 166.17 161.5 2 L
V
N
164.92 158.5 164.92 125.5 2 L
V
3 H
N
163.67 122.5 163.67 106.25 2 L
V
0.5 H
N
166.17 122.5 166.17 106.25 2 L
V
N
185.32 654.25 185.32 105.75 2 L
V
N
211.91 654.25 211.91 105.75 2 L
V
N
242.6 654.25 242.6 105.75 2 L
V
N
277.5 632.25 277.5 105.75 2 L
V
N
305.07 632.25 305.07 105.75 2 L
V
N
332.63 654.25 332.63 105.75 2 L
V
N
370.62 632.25 370.62 105.75 2 L
V
N
398.27 632.25 398.27 105.75 2 L
V
N
425.17 654.25 425.17 105.75 2 L
V
N
455.07 632.25 455.07 105.75 2 L
V
N
487.21 632.25 487.21 105.75 2 L
V
N
502.7 654.25 502.7 105.75 2 L
V
N
536.41 632.25 536.41 105.75 2 L
V
N
563.82 632.25 563.82 105.75 2 L
V
N
591.21 678.25 591.21 105.75 2 L
V
N
692.28 677.75 692.28 106.25 2 L
V
N
143.75 678 692.53 678 2 L
V
N
166.42 654 591.46 654 2 L
V
N
242.35 632 591.46 632 2 L
V
N
144.25 603.25 692.03 603.25 2 L
V
N
144.25 600.75 692.03 600.75 2 L
V
N
142.5 584 164.92 584 2 L
V
3 H
N
164.92 584 692.53 584 2 L
V
0.5 H
N
142.5 556 166.42 556 2 L
V
3 H
N
163.42 556 692.53 556 2 L
V
0.5 H
N
142.5 538 166.42 538 2 L
V
N
211.66 538 242.85 538 2 L
V
N
304.82 538 332.88 538 2 L
V
N
398.02 538 692.53 538 2 L
V
N
142.5 520 166.42 520 2 L
V
3 H
N
163.42 520 692.53 520 2 L
V
0.5 H
N
142.5 502 166.42 502 2 L
V
N
211.66 502 242.85 502 2 L
V
N
304.82 502 332.88 502 2 L
V
N
398.02 502 692.53 502 2 L
V
N
142.5 484 166.42 484 2 L
V
3 H
N
163.42 484 692.53 484 2 L
V
0.5 H
N
163.42 466 185.57 466 2 L
V
N
242.35 466 487.46 466 2 L
V
N
590.96 466 692.53 466 2 L
V
N
142.5 448 185.57 448 2 L
V
N
242.35 448 692.53 448 2 L
V
N
163.42 430 185.57 430 2 L
V
N
242.35 430 332.88 430 2 L
V
N
424.92 430 487.46 430 2 L
V
N
502.45 430 692.53 430 2 L
V
N
142.5 412 164.92 412 2 L
V
3 H
N
164.92 412 692.53 412 2 L
V
0.5 H
N
143.75 394 692.53 394 2 L
V
N
143.75 376 692.53 376 2 L
V
N
166.42 358 185.57 358 2 L
V
N
242.35 358 487.46 358 2 L
V
N
590.96 358 692.53 358 2 L
V
N
143.75 340 692.53 340 2 L
V
N
143.75 322 692.53 322 2 L
V
N
142.5 304 164.92 304 2 L
V
3 H
N
164.92 304 692.53 304 2 L
V
0.5 H
N
142.5 286 166.42 286 2 L
V
N
424.92 286 502.95 286 2 L
V
N
563.57 286 692.53 286 2 L
V
N
142.5 268 164.92 268 2 L
V
3 H
N
164.92 268 692.53 268 2 L
V
0.5 H
N
143.75 250 692.53 250 2 L
V
N
143.75 232 692.53 232 2 L
V
N
143.75 214 692.53 214 2 L
V
N
143.75 196 692.53 196 2 L
V
N
143.75 178 692.53 178 2 L
V
N
142.5 160 164.92 160 2 L
V
3 H
N
164.92 160 692.53 160 2 L
V
0.5 H
N
142.5 142 166.42 142 2 L
V
N
185.07 142 212.16 142 2 L
V
N
242.35 142 591.46 142 2 L
V
N
142.5 124 164.92 124 2 L
V
3 H
N
164.92 124 692.53 124 2 L
V
0.5 H
N
143.75 106 692.53 106 2 L
V
N
0 0 0 1 0 0 0 K
FMENDPAGE
%%EndPage: "51" 3
%%Trailer
%%BoundingBox: 0 0 612 792
%%PageOrder: Descend
%%Pages: 3
%%DocumentFonts: Helvetica
%%+ Helvetica-Bold
%%+ Palatino-Roman
%%+ Symbol
%%EOF
